0,SUBTRAJFLOOD,atc-1000,SUBTRAJFLOOD_atc-1000_4_LOG 2_FIX 3,8,LCSS,4.0,0.1,1,477.0
1,SUBTRAJFLOOD,atc-1000,SUBTRAJFLOOD_atc-1000_4_LOG 2_FIX 3,8,LCSS,4.0,0.1,1,477.0
2,SUBTRAJFLOOD,atc-1000,SUBTRAJFLOOD_atc-1000_4_LOG 2_FIX 3,8,LCSS,4.0,0.1,1,475.0
3,SUBTRAJFLOOD,atc-1000,SUBTRAJFLOOD_atc-1000_4_LOG 2_FIX 3,8,LCSS,4.0,0.1,1,484.0
4,SUBTRAJFLOOD,atc-1000,SUBTRAJFLOOD_atc-1000_4_LOG 2_FIX 3,8,LCSS,4.0,0.1,1,471.0
