ALLPOINTFLOOD,atc-1000,0.4,2,CONST 50,FIX 20,41163,229
ALLPOINTFLOOD,atc-1000,0.4,2,CONST 50,FIX 20,34864,189
ALLPOINTFLOOD,atc-1000,0.4,2,CONST 50,FIX 20,41882,141
ALLPOINTFLOOD,atc-1000,0.4,2,CONST 50,FIX 20,41163,180
ALLPOINTFLOOD,atc-1000,0.4,2,CONST 50,FIX 20,41163,364
