0,
1,
2,
3,
4,
5,256,314,338,
6,
7,26,36,39,56,58,61,70,75,79,80,84,113,126,158,172,175,188,196,199,237,244,252,267,282,285,313,336,352,353,355,384,
8,
9,
10,
11,
12,
13,
14,115,
15,
16,
17,371,
18,
19,
20,273,393,
21,166,275,
22,
23,
24,
25,
7,26,36,39,56,58,61,70,75,79,80,84,113,126,158,160,172,175,188,196,199,237,244,252,267,278,282,283,285,313,336,352,353,355,
27,
28,
29,
30,349,350,
31,
32,34,140,147,174,242,301,
33,
32,34,97,140,147,174,228,242,301,
35,
7,26,36,39,56,58,61,70,79,80,84,113,158,172,175,196,199,237,244,267,282,285,313,336,352,353,384,
37,
38,
7,26,36,39,51,56,58,61,70,75,79,84,113,158,160,172,175,199,214,244,252,278,283,285,289,294,317,336,355,384,
40,
41,
42,
43,
44,
45,
46,
47,
48,201,232,256,314,
49,
50,
39,51,75,214,252,278,282,283,285,289,294,317,355,
52,
53,
54,
55,166,269,
7,26,36,39,56,58,61,70,75,79,80,84,113,126,158,160,172,175,188,196,199,237,244,267,282,283,285,313,336,352,353,384,385,
57,
7,26,36,39,56,58,61,70,75,80,84,113,126,158,160,172,175,188,195,237,244,282,285,313,352,353,
59,
60,
7,26,36,39,56,58,61,70,75,79,80,84,113,126,158,160,172,175,188,196,199,237,244,267,282,283,285,336,352,353,
62,138,
63,
64,311,
65,
66,
67,
68,
69,
7,26,36,39,56,58,61,70,75,79,80,84,113,126,158,160,172,175,188,196,199,237,244,267,282,285,336,352,353,
71,
72,
73,
74,
7,26,39,51,56,58,61,70,75,79,80,84,126,172,175,199,214,244,252,282,285,294,313,317,336,355,384,
76,
77,103,136,141,143,231,342,362,372,
78,
7,26,36,39,56,61,70,75,79,80,84,113,126,158,160,172,175,196,199,237,244,252,267,282,285,313,336,352,355,384,
7,26,36,56,58,61,70,75,79,80,84,113,126,158,160,175,188,196,199,237,244,267,282,285,313,336,352,353,
81,
82,
83,
7,26,36,39,56,58,61,70,75,79,80,84,113,126,158,160,172,175,196,199,237,244,267,282,285,313,336,352,353,384,
85,
86,118,137,150,327,
87,
88,108,155,159,349,350,368,
89,
90,
91,
92,150,165,329,330,369,
93,
94,246,339,372,
95,207,240,359,
96,103,116,231,246,261,342,372,
34,97,147,228,
98,
99,
100,
101,104,350,
102,
77,96,103,136,141,143,231,342,362,
101,104,149,155,374,
105,
106,
107,
88,108,155,159,349,350,368,
109,
110,
111,
112,
7,26,36,39,56,58,61,70,79,80,84,113,126,158,160,172,175,196,199,237,244,267,273,282,285,313,336,352,353,384,385,393,
114,
14,115,
96,116,136,141,231,246,259,261,
117,
86,118,137,
119,
120,
121,
122,
123,
124,
125,
7,26,56,58,61,70,75,79,80,84,113,126,158,160,175,188,196,199,237,244,267,282,285,313,352,353,
127,
128,
129,135,
130,
131,277,
132,
133,
134,
129,135,367,369,
77,103,116,136,141,231,261,342,
86,118,137,277,
62,138,
139,
32,34,140,147,174,228,242,301,
77,103,116,136,141,231,342,362,
142,
77,103,143,342,362,
144,
145,
146,
32,34,97,140,147,174,228,242,301,
148,
104,149,155,374,
86,92,150,327,329,369,
151,
152,
153,
154,
88,104,108,149,155,374,
156,
157,
7,26,36,39,56,58,61,70,79,80,84,113,126,158,160,172,175,188,196,199,237,244,267,282,285,313,336,352,353,384,
88,108,159,349,350,368,
26,39,56,58,61,70,79,80,84,113,126,158,160,172,175,214,237,244,282,285,289,336,352,384,
161,
162,
163,
164,
92,165,369,
21,55,166,275,
167,
168,
169,
170,
171,
7,26,36,39,56,58,61,70,75,79,84,113,158,160,172,175,196,199,237,244,252,278,282,283,285,336,352,353,355,
173,
32,34,140,147,174,242,301,
7,26,36,39,56,58,61,70,75,79,80,84,113,126,158,160,172,175,188,196,199,237,244,267,282,285,313,336,352,353,
176,
177,
178,
179,
180,
181,
182,
183,
184,
185,
186,
187,
7,26,56,58,61,70,80,126,158,175,188,282,285,353,
189,
190,
191,
192,
193,
194,
58,195,353,
7,26,36,56,61,70,79,80,84,113,126,158,172,175,196,199,237,244,267,273,282,285,313,336,352,385,393,
197,
198,
7,26,36,39,56,61,70,75,79,80,84,113,126,158,172,175,196,199,237,244,267,273,282,285,313,336,352,384,385,
200,
48,201,232,256,314,
202,
203,
204,
205,
206,
95,207,214,252,355,359,
208,
209,
210,
211,
212,
213,
39,51,75,160,207,214,252,282,285,294,355,
215,
216,
217,
218,
219,
220,
221,
222,
223,
224,
225,
226,
227,
34,97,140,147,228,
229,
230,
77,96,103,116,136,141,231,
48,201,232,256,314,
233,
234,
235,
236,
7,26,36,56,58,61,70,79,80,84,113,126,158,160,172,175,196,199,237,244,267,285,313,336,352,353,384,385,
238,
239,
95,240,
241,
32,34,140,147,174,242,301,
243,
7,26,36,39,56,58,61,70,75,79,80,84,113,126,158,160,172,175,196,199,237,244,267,282,285,313,336,352,353,384,385,
245,
94,96,116,246,261,339,372,
247,
248,
249,
250,
251,
7,26,39,51,75,79,172,207,214,252,282,285,289,294,317,355,
253,
254,
255,
5,48,201,232,256,314,
257,
258,
116,259,261,
260,
96,116,136,246,259,261,
262,
263,
264,
265,
266,
7,26,36,56,61,70,79,80,84,113,126,158,175,196,199,237,244,267,285,313,336,352,384,385,
268,
55,269,
270,
271,300,
272,
20,113,196,199,273,384,385,393,
274,
21,166,275,
276,
131,137,277,
26,39,51,172,278,283,285,289,294,355,
279,
280,
281,
7,26,36,51,56,58,61,70,75,79,80,84,113,126,158,160,172,175,188,196,199,214,244,252,282,285,313,317,336,352,353,355,385,
26,39,51,56,61,172,278,283,285,289,294,355,
284,
7,26,36,39,51,56,58,61,70,75,79,80,84,113,126,158,160,172,175,188,196,199,214,237,244,252,267,278,282,283,285,313,336,352,353,355,384,
286,
287,
288,
39,51,160,252,278,283,289,294,355,
290,
291,
292,
293,
39,51,75,214,252,278,283,289,294,355,
295,
296,
297,
298,
299,
271,300,
32,34,140,147,174,242,301,
302,
303,
304,
305,
306,
307,
308,
309,
310,
64,311,
312,
7,26,36,56,58,75,79,80,84,113,126,158,175,196,199,237,244,267,282,285,313,336,352,385,
5,48,201,232,256,314,
315,
316,
39,51,75,252,282,317,355,
318,
319,359,
320,
321,
322,
323,
324,
325,364,
326,
86,150,327,
328,
92,150,329,
92,330,367,369,
331,
332,
333,
334,
335,
7,26,36,39,56,61,70,75,79,80,84,113,158,160,172,175,196,199,237,244,267,282,285,313,336,352,384,385,
337,
5,338,
94,246,339,372,
340,342,
341,
77,96,103,136,141,143,340,342,362,
343,
344,
345,
346,
347,
348,
30,88,108,159,349,350,368,
30,88,101,108,159,349,350,368,
351,
7,26,36,56,58,61,70,79,80,84,113,126,158,160,172,175,196,199,237,244,267,282,285,313,336,352,353,385,
7,26,36,56,58,61,70,80,84,113,126,158,172,175,188,195,237,244,282,285,352,353,
354,
7,26,39,51,75,79,172,207,214,252,278,282,283,285,289,294,317,355,
356,
357,
358,
95,207,319,359,
360,
361,364,
77,103,141,143,342,362,
363,
325,361,364,
365,
366,
135,330,367,369,
88,108,159,349,350,368,
92,135,150,165,330,367,369,
370,
17,371,
77,94,96,246,339,372,
373,
104,149,155,374,
375,
376,
377,
378,
379,
380,
381,
382,
383,
7,36,39,56,75,79,84,113,158,160,199,237,244,267,273,285,336,384,385,393,
56,113,196,199,237,244,267,273,282,313,336,352,384,385,393,
386,
387,
388,
389,
390,
391,
392,
20,113,196,273,384,385,393,
394,
395,
396,
397,
398,
399,
