0,
1,
2,
3,
4,
5,544,847,
6,
7,580,
8,
9,
10,
11,
12,
13,
14,
15,
16,
17,
18,
19,
20,
21,
22,
23,
24,
25,
26,484,668,
27,166,237,267,582,598,630,916,
28,
29,
30,
31,
32,147,554,662,721,
33,
34,140,174,422,769,
35,
36,73,76,196,199,237,267,275,313,336,352,366,495,581,598,599,605,629,681,713,738,748,762,782,783,864,870,881,916,920,959,994,
37,
38,
39,471,833,
40,
41,
42,
43,
44,
45,
46,
47,
48,256,517,
49,
50,
51,289,818,
52,
53,
54,
55,332,628,676,939,
56,58,79,158,244,419,639,
57,
56,58,158,244,408,419,531,
59,
60,
61,70,113,580,639,728,756,869,925,953,
62,73,138,166,196,267,313,444,495,543,581,598,599,628,629,630,713,738,762,782,783,805,864,916,920,959,994,
63,
64,536,926,
65,
66,
67,864,
68,
69,
61,70,84,175,580,728,756,869,925,
71,
72,
36,62,73,196,199,267,313,336,495,543,581,598,599,605,629,630,713,738,762,782,783,823,870,881,920,959,994,
74,
75,701,
36,76,166,199,203,267,313,336,366,495,581,599,629,713,727,738,762,782,783,823,916,920,959,
77,231,362,957,
78,
56,79,244,408,419,639,
80,429,
81,
82,
83,
70,84,175,412,580,728,
85,
86,470,538,603,954,
87,
88,
89,
90,
91,
92,150,962,
93,
94,
95,
96,601,
97,228,242,401,425,489,769,
98,
99,
100,
101,
102,
103,
104,
105,
106,
107,
108,
109,
110,689,
111,
112,
61,113,419,580,639,756,869,925,953,
114,
115,
116,969,
117,
118,
119,
120,
121,667,
122,
123,
124,
125,
126,419,728,756,
127,960,
128,
129,519,710,985,
130,
131,
132,
133,
134,
135,
136,141,
137,
62,138,196,199,313,366,495,581,598,599,628,629,630,713,727,762,782,783,864,
139,
34,140,174,422,769,
136,141,143,601,873,957,
142,
141,143,
144,
145,
146,
32,147,554,662,721,
148,
149,
92,150,329,538,703,960,962,
151,
152,
153,
154,
155,
156,
157,
56,58,158,244,408,
159,349,
160,
161,
162,
163,
164,
165,
27,62,76,166,199,267,271,336,352,495,581,598,599,628,629,630,783,864,916,920,
167,
168,
169,
170,
171,
172,
173,
34,140,174,401,406,422,
70,84,175,412,
176,
177,
178,
179,
180,
181,
182,
183,
184,
185,
186,
187,
188,
189,
190,
191,
192,
193,
194,
195,
36,62,73,138,196,203,237,267,313,336,352,366,495,543,598,599,628,629,630,713,727,762,782,864,870,916,920,959,994,
197,
198,
36,73,76,138,166,199,203,313,336,352,495,581,598,605,629,713,727,738,748,782,783,823,864,870,881,916,920,959,994,
200,
201,314,
202,
76,196,199,203,267,336,598,713,762,782,783,823,
204,394,573,652,
205,
206,
207,359,645,888,
208,
209,
210,
211,
212,
213,
214,355,
215,
216,
217,
218,
219,
220,
221,
222,
223,
224,
225,
226,974,
227,
97,228,242,425,489,695,
229,
230,
77,231,
232,
233,
234,
235,
236,
27,36,196,237,267,352,581,599,738,748,783,805,916,920,959,994,
238,
239,
240,
241,
97,228,242,425,489,
243,
56,58,79,158,244,408,668,
245,
246,
247,
248,
249,
250,
251,
252,294,652,667,758,799,907,
253,
254,
255,
48,256,517,989,
257,
258,
259,
260,710,
261,
262,
263,
264,
265,
266,
27,36,62,73,76,166,196,203,237,267,336,352,495,543,581,598,599,630,713,738,782,783,881,916,920,959,994,
268,
269,
270,
166,271,275,336,681,782,823,916,
272,
273,
274,
36,271,275,352,681,806,823,959,
276,
277,
278,
279,
280,
281,
282,
283,943,
284,
285,987,
286,
287,
288,
51,289,
290,
291,
292,
293,
252,294,704,
295,
296,
297,
298,
299,
300,
301,
302,
303,
304,
305,
306,
307,
308,
309,
310,
311,
312,
36,62,73,76,138,196,199,313,336,352,366,495,581,598,599,605,629,713,727,738,762,782,783,823,864,870,916,920,959,994,
201,314,
315,
316,
317,794,
318,
319,359,573,855,
320,
321,
322,
323,
324,
325,
326,
327,432,954,
328,
150,329,
330,369,
331,
55,332,676,939,
333,
334,
335,
36,73,76,166,196,199,203,267,271,313,336,352,495,581,598,599,605,630,681,713,727,762,782,783,806,823,870,881,916,920,959,994,
337,
338,
339,
340,
341,
342,
343,
344,
345,
346,
347,
348,
159,349,
350,368,
351,
36,166,196,199,237,267,275,313,336,352,495,543,581,598,599,629,681,738,748,762,782,783,805,823,864,870,916,920,959,994,
353,923,
354,
214,355,
356,
357,
358,
207,319,359,645,
360,
361,603,
77,362,
363,
364,470,603,862,
365,
36,76,138,196,313,366,581,599,628,629,713,727,762,782,783,823,864,870,
367,
350,368,
330,369,
370,
371,
372,
373,
374,
375,
376,
377,
378,
379,
380,
381,
382,
383,
384,
385,
386,
387,
388,
389,
390,
391,
392,
393,
204,394,652,
395,
396,
397,
398,
399,
400,
97,174,401,
402,
403,
404,
405,
174,406,
407,
58,79,158,244,408,531,668,763,
409,
410,634,
411,
84,175,412,429,523,
413,436,
414,
415,
416,
417,
418,
56,58,79,113,126,419,639,
420,
421,
34,140,174,422,877,
423,
424,
97,228,242,425,489,
426,
427,
428,
80,412,429,
430,
431,
327,432,538,954,962,
433,
434,
435,
413,436,698,
437,
438,
439,785,
440,
441,
442,
443,
62,444,599,628,864,
445,
446,
447,
448,
449,
450,
451,
452,
453,735,
454,
455,
456,
457,
458,
459,
460,
461,
462,
463,
464,
465,
466,
467,
468,
469,
86,364,470,538,548,603,815,862,954,
39,471,
472,
473,
474,
475,
476,
477,
478,
479,
480,
481,
482,
483,
26,484,763,885,932,
485,
486,
487,
488,
97,228,242,425,489,528,
490,
491,
492,
493,
494,
36,62,73,76,138,166,196,199,267,313,336,352,495,581,598,599,605,629,630,713,727,738,762,782,783,823,864,870,916,920,959,994,
496,
497,
498,
499,
500,
501,
502,
503,
504,
505,
506,
507,
508,
509,
510,
511,
512,
513,
514,
515,
516,
48,256,517,989,
518,
129,519,985,
520,
521,
522,957,969,
412,523,
524,
525,818,
526,
527,
489,528,695,
529,
530,
58,408,531,
532,
533,
534,
535,
64,536,
537,
86,150,432,470,538,954,962,
539,
540,
541,
542,
62,73,196,267,352,543,581,598,599,629,630,738,762,782,806,959,994,
5,544,847,
545,
546,
547,
470,548,603,815,862,
549,
550,
551,
552,
553,570,703,960,962,970,
32,147,554,662,721,
555,
556,
557,
558,
559,578,
560,
561,
562,
563,
564,
565,
566,
567,
568,
569,
553,570,
571,
572,
204,319,573,
574,
575,
576,
577,
559,578,
579,
7,61,70,84,113,580,728,756,869,925,
36,62,73,76,138,166,199,237,267,313,336,352,366,495,543,581,598,599,605,628,629,630,713,727,738,748,762,782,783,805,864,870,881,916,920,959,994,
27,582,
583,
584,
585,
586,
587,
588,
589,
590,
591,
592,
593,
594,
595,
596,
597,
27,36,62,73,138,166,196,199,203,267,313,336,352,495,543,581,598,599,628,629,630,713,727,738,783,823,864,881,916,920,959,994,
36,62,73,76,138,166,196,237,267,313,336,352,366,444,495,543,581,598,599,605,628,629,630,713,738,748,762,782,783,823,864,870,881,916,920,959,994,
600,
96,141,601,873,957,
602,
86,361,364,470,548,603,689,862,954,
604,
36,73,199,313,336,495,581,599,605,713,762,782,783,870,920,959,994,
606,
607,
608,
609,
610,
611,
612,
613,
614,
615,
616,
617,
618,
619,
620,
621,
622,
623,
624,
625,
626,
627,
55,62,138,166,196,366,444,581,598,599,628,629,630,762,782,864,
36,62,73,76,138,166,196,199,313,352,366,495,543,581,598,599,628,629,630,713,727,738,762,782,783,823,864,870,916,920,994,
27,62,73,138,166,196,267,336,495,543,581,598,599,628,629,630,738,762,782,783,806,823,864,881,920,959,994,
631,
632,
633,
410,634,
635,
636,
637,
638,
56,61,79,113,419,639,756,925,
640,
641,
642,
643,
644,
207,359,645,
646,
647,
648,
649,
650,
651,
204,252,394,652,
653,
654,
655,
656,
657,
658,
659,
660,
661,
32,147,554,662,721,
663,673,675,693,709,755,765,772,790,
664,
665,
666,
121,252,667,907,
26,244,408,668,
669,
670,
671,941,
672,
663,673,675,682,693,709,723,742,755,765,772,790,804,
674,
663,673,675,682,693,709,723,742,755,765,772,790,804,
55,332,676,
677,
678,
679,
680,
36,271,275,336,352,681,823,865,916,920,
673,675,682,693,709,723,742,755,765,772,790,804,
683,
684,
685,
686,
687,
688,
110,603,689,862,
690,806,
691,
692,
663,673,675,682,693,709,723,742,755,765,772,790,804,
694,
228,528,695,
696,
697,
436,698,
699,
700,
75,701,
702,
150,553,703,960,962,967,970,
294,704,
705,
706,
707,
708,
663,673,675,682,693,709,723,742,755,765,772,790,804,
129,260,710,
711,
712,929,
36,62,73,76,138,196,199,203,267,313,336,366,495,581,598,599,605,629,713,727,738,762,782,783,823,864,870,881,916,920,959,994,
714,
715,
716,
717,
718,978,
719,
720,
32,147,554,662,721,
722,
673,675,682,693,709,723,742,755,765,772,790,
724,
725,
726,
76,138,196,199,313,336,366,495,581,598,629,713,727,738,762,783,870,916,959,
61,70,84,126,580,728,756,869,925,
729,
730,
731,
732,
733,
734,
453,735,929,
736,
737,
36,62,73,76,199,237,267,313,352,495,543,581,598,599,629,630,713,727,738,782,783,864,916,920,959,994,
739,
740,
741,
673,675,682,693,709,723,742,755,772,790,804,
743,
744,
745,
746,
747,
36,199,237,352,581,599,748,782,916,920,959,
749,
750,
751,
752,
753,
754,
663,673,675,682,693,709,723,742,755,765,772,790,804,
61,70,113,126,580,639,728,756,869,925,953,
757,
252,758,
759,
760,
761,
36,62,73,76,138,196,203,313,336,352,366,495,543,581,599,605,628,629,630,713,727,762,782,783,823,864,870,916,920,
408,484,763,
764,
663,673,675,682,693,709,723,755,765,772,790,804,
766,
767,
768,
34,97,140,769,
770,
771,
663,673,675,682,693,709,723,742,755,765,772,790,804,
773,
774,
775,
776,
777,
778,
779,
780,
781,
36,62,73,76,138,196,199,203,267,271,313,336,352,366,495,543,581,599,605,628,629,630,713,738,748,762,782,783,864,870,881,916,920,959,994,
36,62,73,76,138,166,199,203,237,267,313,336,352,366,495,581,598,599,605,629,630,713,727,738,762,782,783,864,870,881,916,920,959,994,
784,
439,785,
786,
787,
788,
789,
663,673,675,682,693,709,723,742,755,765,772,790,804,
791,
792,
793,
317,794,
795,
796,
797,
798,
252,799,
800,
801,
802,
803,
673,675,682,693,709,742,755,765,772,790,804,
62,237,352,581,805,823,864,959,
275,336,543,630,690,806,959,
807,
808,
809,
810,
811,
812,
813,
814,
470,548,815,862,
816,
817,
51,525,818,
819,
820,
821,
822,
73,76,199,203,271,275,313,336,352,366,495,598,599,629,630,681,713,762,805,823,864,870,881,916,920,
824,
825,
826,
827,
828,
829,
830,
831,
832,
39,833,
834,
835,
836,
837,
838,
839,
840,
841,
842,
843,
844,
845,
846,
5,544,847,
848,
849,
850,
851,
852,
853,
854,
319,855,
856,
857,
858,
859,
860,
861,
364,470,548,603,689,815,862,
863,
36,62,67,138,166,196,199,313,352,366,444,495,581,598,599,628,629,630,713,738,762,782,783,805,823,864,916,920,959,994,
681,865,
866,
867,
868,
61,70,113,580,728,756,869,925,953,
36,73,196,199,313,336,352,366,495,581,599,605,629,713,727,762,782,783,823,870,920,
871,
872,
141,601,873,957,
874,
875,
876,
422,877,
878,
879,
880,
36,73,199,267,336,581,598,599,630,713,782,783,823,881,959,994,
882,
883,
884,
484,885,930,932,
886,
887,
207,888,
889,
890,
891,
892,
893,
894,
895,
896,
897,
898,
899,
900,
901,
902,
903,
904,
905,
906,
252,667,907,
908,
909,
910,
911,
912,
913,
914,
915,
27,36,62,76,166,196,199,237,267,271,313,336,352,495,581,598,599,629,681,713,727,738,748,762,782,783,823,864,916,920,959,994,
917,
918,
919,
36,62,73,76,166,196,199,237,267,313,336,352,495,581,598,599,605,629,630,681,713,738,748,762,782,783,823,864,870,916,920,959,994,
921,
922,
353,923,
924,
61,70,113,580,639,728,756,869,925,
64,926,
927,
928,
712,735,929,
885,930,932,
931,
484,885,930,932,
933,
934,
935,
936,
937,
938,
55,332,939,
940,
671,941,
942,
283,943,
944,
945,
946,
947,
948,
949,
950,
951,
952,
61,113,756,869,953,
86,327,432,470,538,603,954,
955,
956,
77,141,522,601,873,957,
958,
36,62,73,76,196,199,237,267,275,313,336,352,495,543,581,598,599,605,630,713,727,738,748,782,783,805,806,864,881,916,920,959,994,
127,150,553,703,960,962,
961,
92,150,432,538,553,703,960,962,970,
963,
964,
965,
966,
703,967,
968,
116,522,969,
553,703,962,970,
971,
972,
973,
226,974,
975,
976,
977,
718,978,
979,
980,
981,
982,
983,
984,
129,519,985,
986,
285,987,
988,
256,517,989,
990,
991,
992,
993,
36,62,73,196,199,237,267,313,336,352,495,543,581,598,599,605,629,630,713,738,782,783,864,881,916,920,959,994,
995,
996,
997,
998,
999,
