0,
1,
2,
3,
4,
5,
6,
7,
8,
9,519,758,
10,
11,
12,
13,120,
14,
15,
16,
17,444,
18,615,
19,542,
20,
21,
22,
23,
24,
25,
26,
27,
28,676,818,
29,
30,
31,
32,
33,
34,
35,
36,
37,
38,
39,
40,
41,
42,
43,
44,
45,907,
46,
47,224,
48,
49,
50,
51,
52,
53,
54,
55,
56,
57,
58,
59,
60,
61,
62,
63,
64,
65,
66,
67,
68,
69,885,
70,
71,
72,
73,
74,
75,
76,
77,704,
78,961,
79,
80,
81,
82,198,733,
83,
84,
85,
86,
87,
88,
89,
90,
91,
92,
93,
94,
95,
96,
97,
98,
99,
100,
101,
102,
103,
104,
105,
106,
107,
108,
109,
110,
111,
112,
113,
114,
115,
116,
117,
118,
119,
13,120,
121,
122,
123,
124,
125,
126,
127,
128,
129,
130,
131,323,
132,
133,
134,
135,
136,903,
137,
138,
139,770,
140,
141,
142,
143,
144,
145,
146,
147,
148,
149,
150,
151,
152,
153,
154,
155,
156,
157,
158,581,
159,
160,
161,
162,
163,
164,
165,
166,
167,
168,
169,
170,
171,
172,
173,
174,
175,
176,585,
177,
178,
179,
180,378,657,835,
181,
182,
183,
184,
185,
186,
187,
188,
189,
190,
191,
192,
193,
194,
195,
196,
197,
82,198,733,
199,
200,
201,
202,439,
203,
204,
205,852,
206,
207,
208,
209,281,867,991,
210,491,
211,
212,
213,
214,
215,287,604,679,711,740,965,
216,
217,
218,
219,595,
220,
221,
222,
223,
47,224,
225,
226,
227,
228,
229,
230,320,
231,
232,828,
233,623,
234,
235,
236,
237,
238,
239,
240,
241,
242,
243,
244,
245,
246,
247,
248,
249,
250,
251,
252,
253,
254,
255,266,
256,
257,
258,
259,
260,
261,
262,
263,
264,
265,
255,266,
267,
268,478,856,
269,
270,
271,
272,
273,
274,
275,
276,
277,739,981,
278,
279,
280,
209,281,867,991,
282,
283,674,678,
284,
285,
286,
215,287,604,679,711,740,965,
288,591,
289,
290,
291,
292,
293,
294,
295,
296,
297,
298,
299,
300,
301,
302,
303,
304,
305,
306,
307,
308,
309,
310,
311,
312,
313,
314,
315,
316,
317,
318,
319,
230,320,
321,
322,
131,323,
324,
325,
326,
327,
328,
329,
330,
331,
332,
333,
334,
335,
336,
337,
338,
339,
340,
341,
342,
343,
344,
345,
346,
347,
348,
349,
350,
351,
352,
353,
354,
355,
356,
357,
358,
359,
360,696,
361,761,
362,
363,
364,
365,
366,988,
367,
368,
369,
370,
371,
372,
373,
374,
375,
376,
377,
180,378,657,835,
379,
380,
381,
382,
383,
384,743,
385,
386,
387,
388,
389,
390,
391,
392,
393,
394,
395,
396,
397,
398,
399,
400,
401,
402,
403,
404,
405,948,
406,
407,
408,
409,
410,639,
411,
412,
413,
414,
415,
416,
417,
418,
419,
420,
421,
422,
423,455,
424,
425,
426,
427,
428,
429,
430,
431,
432,868,
433,
434,
435,
436,
437,
438,
202,439,
440,
441,
442,
443,525,535,
17,444,
445,
446,
447,
448,
449,
450,
451,
452,
453,
454,
423,455,947,
456,
457,
458,
459,
460,
461,
462,
463,
464,
465,832,
466,
467,
468,
469,
470,
471,
472,839,
473,
474,
475,
476,
477,686,
268,478,856,
479,
480,
481,
482,
483,810,
484,
485,
486,
487,
488,
489,
490,
210,491,
492,
493,
494,
495,
496,
497,
498,844,
499,
500,
501,
502,
503,
504,
505,
506,
507,
508,
509,
510,
511,
512,
513,
514,685,
515,
516,
517,
518,
9,519,758,
520,
521,
522,
523,
524,
443,525,535,
526,
527,
528,
529,
530,603,633,
531,
532,
533,
534,
443,525,535,
536,
537,
538,
539,
540,
541,
19,542,
543,
544,
545,
546,
547,
548,
549,
550,
551,
552,831,
553,
554,
555,
556,
557,
558,
559,
560,680,
561,
562,
563,
564,
565,
566,
567,
568,
569,
570,937,
571,
572,
573,
574,
575,
576,
577,
578,
579,
580,
158,581,
582,
583,
584,
176,585,
586,
587,759,
588,943,
589,
590,
288,591,
592,
593,
594,
219,595,
596,652,
597,
598,
599,
600,
601,
602,
530,603,633,
215,287,604,679,711,740,965,
605,
606,
607,
608,
609,
610,
611,
612,
613,
614,
18,615,
616,
617,
618,
619,
620,
621,
622,
233,623,847,
624,
625,
626,
627,654,
628,684,
629,
630,
631,
632,
530,603,633,
634,
635,
636,
637,
638,
410,639,
640,
641,
642,
643,
644,
645,
646,
647,
648,
649,
650,
651,
596,652,
653,
627,654,
655,
656,
180,378,657,835,
658,
659,840,
660,
661,
662,
663,
664,
665,
666,
667,
668,802,
669,
670,
671,
672,
673,
283,674,678,
675,
28,676,818,
677,
283,674,678,
215,287,604,679,711,740,965,
560,680,
681,
682,
683,
628,684,
514,685,
477,686,
687,
688,
689,
690,
691,
692,
693,
694,
695,
360,696,
697,
698,
699,
700,
701,
702,
703,
77,704,
705,
706,
707,
708,
709,
710,
215,287,604,679,711,740,965,
712,
713,
714,
715,
716,
717,
718,
719,
720,
721,
722,
723,
724,
725,
726,769,
727,
728,
729,
730,
731,
732,
82,198,733,
734,
735,
736,
737,
738,
277,739,981,
215,287,604,679,711,740,965,
741,
742,
384,743,
744,
745,
746,
747,
748,
749,
750,
751,
752,
753,
754,
755,
756,
757,
9,519,758,
587,759,
760,
361,761,
762,
763,
764,
765,
766,
767,
768,
726,769,
139,770,
771,
772,
773,
774,
775,
776,
777,
778,
779,
780,
781,
782,
783,
784,
785,
786,
787,
788,
789,
790,
791,
792,
793,
794,
795,
796,
797,
798,
799,
800,
801,
668,802,
803,920,
804,
805,
806,
807,
808,
809,
483,810,
811,
812,
813,
814,
815,
816,
817,
28,676,818,
819,
820,
821,
822,
823,
824,
825,
826,
827,
232,828,
829,
830,
552,831,
465,832,
833,
834,
180,378,657,835,
836,
837,
838,
472,839,
659,840,
841,
842,
843,
498,844,
845,899,
846,
623,847,
848,
849,
850,
851,
205,852,
853,
854,
855,
268,478,856,
857,
858,
859,
860,
861,
862,
863,
864,
865,
866,
209,281,867,991,
432,868,
869,
870,
871,
872,
873,
874,
875,
876,
877,
878,
879,
880,
881,
882,
883,
884,
69,885,
886,
887,
888,
889,
890,
891,
892,
893,
894,
895,
896,
897,
898,
845,899,
900,
901,
902,
136,903,
904,
905,
906,
45,907,
908,
909,
910,
911,
912,
913,
914,
915,
916,
917,
918,
919,
803,920,
921,
922,
923,
924,
925,
926,
927,
928,
929,
930,
931,
932,
933,
934,
935,
936,
570,937,
938,
939,
940,
941,
942,
588,943,
944,
945,
946,
455,947,
405,948,
949,
950,
951,
952,
953,
954,
955,
956,
957,
958,
959,
960,
78,961,
962,
963,
964,
215,287,604,679,711,740,965,
966,
967,
968,
969,983,
970,
971,
972,
973,
974,
975,
976,
977,
978,
979,
980,
277,739,981,
982,
969,983,
984,
985,
986,
987,
366,988,
989,
990,
209,281,867,991,
992,
993,
994,
995,
996,
997,
998,
999,
