0,
1,
2,209,281,370,489,661,837,867,991,
3,143,690,843,
4,246,464,
5,159,481,543,
6,576,
7,
8,267,
9,139,233,519,599,623,646,758,770,845,899,
10,140,453,
11,
12,
13,120,339,356,922,927,
14,792,
15,
16,
17,444,
18,356,615,
19,47,67,89,224,432,442,447,513,542,596,612,652,683,868,
20,
21,
22,409,750,
23,386,730,732,764,788,
24,
25,336,600,
26,
27,212,419,795,849,
28,187,205,215,268,287,443,478,498,525,535,604,676,679,711,740,804,818,844,852,856,965,
29,
30,104,751,
31,
32,
33,321,406,707,
34,
35,56,218,550,
36,655,
37,69,157,206,271,441,871,885,
38,
39,
40,317,417,933,
41,
42,
43,189,392,929,
44,371,745,
45,320,556,682,907,974,
46,791,869,996,
19,47,224,273,431,432,442,447,513,542,596,647,652,683,750,868,883,
48,126,820,
49,
50,
51,
52,438,822,
53,830,
54,242,789,
55,
35,56,808,
57,
58,126,820,887,938,
59,
60,
61,
62,
63,
64,211,364,422,
65,
66,
19,67,89,170,224,447,542,562,596,612,
68,
37,69,206,441,871,885,
70,
71,
72,
73,
74,
75,319,556,836,
76,
77,219,595,704,
78,131,256,323,366,431,526,861,935,961,986,988,
79,
80,
81,303,
82,110,198,300,361,366,469,623,628,684,733,746,761,847,935,988,
83,
84,
85,251,
86,
87,121,849,
88,
19,67,89,170,224,432,442,447,542,562,612,652,
90,783,
91,447,468,
92,722,
93,658,
94,110,190,202,203,300,439,446,623,845,847,
95,118,134,
96,
97,157,158,271,330,441,581,
98,
99,512,
100,
101,458,671,
102,851,
103,135,
30,104,448,
105,
106,
107,
108,
109,
82,94,110,190,198,202,203,300,439,446,623,628,684,733,761,847,917,
111,396,
112,
113,
114,
115,551,749,
116,124,210,616,
117,561,663,
95,118,429,
119,
13,120,339,356,774,922,927,
87,121,
122,197,376,514,530,603,633,685,
123,384,743,
116,124,210,491,616,
125,
48,58,126,418,820,887,938,
127,170,562,612,
128,
129,
130,
78,131,256,323,746,861,935,961,
132,
133,
95,134,601,
103,135,896,
136,282,903,
137,754,
138,322,502,
9,139,233,519,599,646,758,770,845,899,
10,140,
141,
142,
3,143,843,859,
144,164,660,
145,397,544,
146,290,
147,
148,347,497,651,673,695,
149,
150,
151,301,829,
152,
153,
154,421,
155,606,
156,
37,97,157,158,271,330,441,581,929,
97,157,158,271,330,441,581,929,
5,159,543,
160,572,977,
161,
162,187,205,374,804,
163,
144,164,
165,
166,313,
167,791,869,915,996,
168,
169,
67,89,127,170,562,612,
171,180,277,378,529,588,657,712,726,739,769,835,943,981,997,
172,
173,
174,
175,
176,288,390,440,585,591,610,823,
177,295,969,983,
178,
179,
171,180,277,378,416,531,560,588,640,657,680,712,726,739,769,817,835,943,981,997,
181,360,437,696,773,
182,543,
183,
184,
185,282,
186,
28,162,187,205,215,268,287,374,478,498,604,676,679,711,740,804,818,844,852,856,965,
188,420,644,821,
43,189,195,
94,110,190,202,203,300,361,439,446,623,761,847,
191,
192,
193,524,586,954,
194,
189,195,
196,
122,197,376,384,514,685,743,
82,110,198,300,366,446,623,628,684,733,746,761,847,917,935,988,
199,
200,
201,570,853,937,
94,110,190,202,203,439,446,623,847,
94,110,190,202,203,300,439,446,623,847,
204,
28,162,187,205,215,268,287,443,478,498,525,535,604,676,679,711,740,804,818,844,852,856,965,
37,69,206,441,871,885,
207,480,636,
208,470,
2,209,281,423,455,509,661,827,837,867,947,991,
116,124,210,491,616,
64,211,422,
27,212,795,
213,
214,351,
28,187,205,215,268,287,443,478,498,515,525,535,604,676,679,711,740,818,844,852,856,965,
216,677,
217,
35,218,747,808,
77,219,255,576,595,704,
220,
221,
222,250,858,
223,283,306,334,460,465,668,674,678,729,802,832,
19,47,67,89,224,432,447,468,513,542,596,750,877,
225,247,
226,515,
227,
228,
229,
230,319,320,
231,
232,473,828,923,
9,139,233,361,519,623,646,758,761,770,845,899,
234,375,
235,
236,
237,377,416,531,560,640,680,803,920,
238,
239,530,603,633,704,
240,620,
241,
54,242,505,825,
243,
244,892,
245,
4,246,464,
225,247,966,
248,
249,508,627,638,654,798,
222,250,959,
85,251,
252,435,
253,
254,805,
219,255,266,
78,131,256,323,366,469,526,628,684,935,961,986,988,
257,862,
258,
259,405,948,
260,
261,
262,
263,
264,
265,
255,266,
8,267,
28,187,205,215,268,287,443,478,498,515,525,535,604,676,679,711,740,818,844,852,856,965,
269,
270,
37,97,157,158,271,392,441,581,929,
272,
47,273,
274,
275,
276,
171,180,277,378,416,531,560,588,657,680,712,726,739,769,817,835,943,981,997,
278,
279,
280,
2,209,281,423,455,509,661,827,837,867,947,991,
136,185,282,903,
223,283,306,334,460,465,674,678,729,736,832,
284,
285,
286,
28,187,205,215,268,287,443,478,498,515,525,535,604,676,679,711,740,818,844,852,856,965,
176,288,390,440,585,591,610,664,823,
289,
146,290,786,
291,
292,
293,
294,
177,295,969,983,
296,398,399,423,455,467,509,548,827,947,
297,
298,
299,895,
82,94,110,190,198,203,300,733,746,847,
151,301,829,
302,
81,303,
304,
305,323,411,513,526,647,888,
223,283,306,465,668,674,678,729,802,832,
307,583,
308,
309,
310,
311,
312,
166,313,
314,
315,
316,365,666,738,940,
40,317,417,
318,
75,230,319,320,556,682,836,974,
45,230,319,320,682,836,907,974,
33,321,
138,322,
78,131,256,305,323,366,469,526,861,888,935,961,986,988,
324,
325,
326,499,
327,
328,
329,552,572,665,831,
97,157,158,330,441,581,
331,
332,
333,
223,283,334,460,465,570,674,678,729,736,832,900,937,
335,
25,336,600,
337,347,673,
338,371,
13,120,339,922,927,
340,
341,767,
342,
343,
344,
345,
346,386,764,788,870,
148,337,347,388,651,673,695,
348,
349,771,
350,
214,351,
352,
353,
354,
355,
13,18,120,356,615,921,922,927,
357,973,
358,544,703,
359,
181,360,437,696,773,
82,190,233,361,469,599,623,684,761,845,899,
362,
363,
64,364,450,
316,365,536,666,738,940,
78,82,198,256,323,366,469,684,733,986,988,
367,690,782,843,860,
368,
369,
2,370,489,661,837,
44,338,371,
372,
373,
162,187,374,
234,375,
122,197,376,384,514,685,743,
237,377,640,803,920,
171,180,277,378,416,531,560,588,640,657,680,712,726,739,769,817,835,943,981,997,
379,
380,
381,873,
382,448,
383,700,
123,197,376,384,514,685,743,
385,962,
23,346,386,730,764,788,870,
387,499,
347,388,
389,
176,288,390,440,585,591,664,823,
391,
43,271,392,929,
393,
394,
395,
111,396,
145,397,544,
296,398,399,467,548,730,732,
296,398,399,467,548,730,732,
400,
401,
402,
403,
404,942,
259,405,948,
33,406,
407,
408,
22,409,
410,639,
305,411,526,888,
412,
413,913,
414,
415,
180,237,277,378,416,531,560,588,640,657,680,712,726,739,769,803,817,835,920,943,981,997,
40,317,417,933,
126,418,820,938,
27,419,840,849,
188,420,644,821,
154,421,
64,211,422,
209,281,296,423,455,467,509,827,837,867,947,991,
424,
425,760,
426,
427,
428,
118,429,763,
430,
47,78,431,513,526,683,861,883,961,
19,47,89,224,432,442,542,596,652,667,683,868,877,
433,
434,
252,435,
436,
181,360,437,696,
52,438,822,931,
94,110,190,202,203,439,446,623,847,
176,288,390,440,585,664,823,
37,69,97,157,158,206,271,330,441,581,885,929,
19,47,89,432,442,542,596,652,667,683,703,868,
28,205,215,268,287,443,478,498,515,525,535,604,676,679,711,740,818,844,852,856,965,
17,444,
445,
94,110,190,198,202,203,439,446,623,733,761,
19,47,67,89,91,224,447,468,513,526,542,683,877,
104,382,448,
449,
364,450,
451,
452,
10,453,487,
454,
209,281,296,423,455,467,509,827,837,867,947,991,
456,
457,
101,458,671,
459,
223,283,334,460,465,570,674,678,729,736,832,900,937,
461,
462,
463,789,
4,246,464,
223,283,306,334,460,465,674,678,729,736,832,900,
466,
296,398,399,423,455,467,509,548,732,947,
91,224,447,468,542,
82,256,323,361,366,469,684,733,761,845,986,988,
208,470,
471,
472,839,
232,473,536,828,923,
474,
475,
476,
477,497,686,989,
28,187,205,215,268,287,443,478,498,515,525,535,604,676,679,711,740,818,844,852,856,965,
479,
207,480,
5,481,543,
482,841,842,
483,810,839,
484,810,839,
485,
486,
453,487,
488,578,998,
2,370,489,661,837,
490,
124,210,491,616,
492,
493,
494,
495,
496,778,
148,477,497,651,663,673,
28,187,205,215,268,287,443,478,498,515,525,535,604,676,679,711,740,818,844,852,856,965,
326,387,499,
500,
501,
138,502,
503,
504,533,
242,505,522,825,
506,
507,549,
249,508,627,638,654,798,
209,281,296,423,455,467,509,827,837,867,947,991,
510,
511,
99,512,
19,47,224,305,431,447,513,526,542,647,683,861,883,
122,197,376,384,514,530,603,633,685,743,
215,226,268,287,443,478,498,515,525,535,604,679,711,740,844,856,965,
516,
517,
518,600,880,
9,139,233,519,599,623,646,758,770,845,899,
520,
521,783,784,999,
505,522,825,
523,
193,524,
28,205,215,268,287,443,478,498,515,525,535,604,676,679,711,740,818,844,852,856,965,
78,256,305,323,411,431,447,513,526,647,861,888,
527,
528,
171,529,553,726,769,
122,239,514,530,601,603,633,685,
180,237,277,378,416,531,560,588,640,657,680,712,739,803,835,920,943,981,
532,
504,533,
534,
28,205,215,268,287,443,478,498,515,525,535,604,676,679,711,740,818,844,852,856,965,
365,473,536,746,923,940,
537,573,
538,
539,
540,860,
541,910,
19,47,67,89,224,432,442,447,468,513,542,596,652,877,
5,159,182,481,543,
145,358,397,544,600,
545,646,
546,
547,
296,398,399,467,548,730,732,
507,549,569,
35,550,
115,551,749,
329,552,572,665,831,
529,553,768,
554,954,
555,
45,75,319,556,682,836,907,949,974,
557,
558,
559,
180,237,277,378,416,531,560,588,640,657,680,712,739,803,817,835,920,943,981,
117,561,587,663,
67,89,127,170,562,612,
563,
564,
565,
566,
567,
568,
549,569,580,
201,334,460,570,736,853,900,937,
571,
160,329,552,572,665,831,977,
537,573,
574,
575,
6,219,576,
577,
488,578,998,
579,949,
569,580,
97,157,158,271,330,441,581,
582,
307,583,
584,
176,288,390,440,585,591,610,823,
193,586,954,
561,587,659,759,840,989,
171,180,277,378,416,531,560,588,640,657,680,712,726,739,769,803,817,835,920,943,981,997,
589,
590,941,
176,288,390,585,591,610,664,823,
592,
593,
594,
77,219,595,704,
19,47,67,224,432,442,542,596,612,652,667,683,703,750,868,877,
597,
598,
9,139,361,519,599,684,758,761,770,845,899,
25,336,518,544,600,
134,530,601,603,
602,
122,239,514,530,601,603,633,685,
28,187,205,215,268,287,443,478,498,515,525,535,604,676,679,711,740,818,844,852,856,965,
605,702,
155,606,
607,
608,
609,
176,288,585,591,610,
611,
19,67,89,127,170,562,596,612,
613,
614,
18,356,615,
116,124,210,491,616,786,
617,
618,
619,
240,620,
621,
622,
9,82,94,110,190,198,202,203,233,361,439,446,519,623,733,758,761,770,845,847,899,
624,
625,
626,
249,508,627,638,654,798,
82,110,198,256,628,684,733,761,917,935,
629,
630,
631,
632,
122,239,514,530,603,633,685,
634,
635,
207,636,
637,
249,508,627,638,654,798,
410,639,
180,237,377,378,416,531,560,588,640,657,680,712,803,835,920,943,
641,
642,
643,
188,420,644,821,
645,
9,139,233,519,545,646,653,758,770,845,899,
47,305,513,526,647,883,
648,
649,
650,
148,347,497,651,673,
19,47,89,432,442,542,596,652,667,683,703,868,
646,653,
249,508,627,638,654,798,
36,655,745,851,
656,
171,180,277,378,416,531,560,588,640,657,680,712,726,739,769,817,835,943,981,997,
93,658,
587,659,759,840,
144,660,
2,209,281,370,489,661,827,837,867,991,
662,
117,497,561,663,
288,390,440,591,664,823,
329,552,572,665,831,
316,365,666,738,940,
432,442,596,652,667,703,868,
223,306,668,802,
669,
670,
101,458,671,
672,
148,337,347,497,651,673,695,
223,283,306,334,460,465,674,678,729,736,832,
675,
28,187,205,215,268,287,443,478,498,525,535,604,676,679,711,740,804,818,844,852,856,965,
216,677,
223,283,306,334,460,465,674,678,729,736,832,
28,187,205,215,268,287,443,478,498,515,525,535,604,676,679,711,740,818,844,852,856,965,
180,237,277,378,416,531,560,588,640,657,680,712,739,803,817,835,920,943,981,
681,
45,319,320,556,682,907,974,
19,47,431,432,442,447,513,596,652,683,868,
82,110,198,256,361,366,469,599,628,684,733,761,845,935,988,
122,197,376,384,514,530,603,633,685,743,
477,686,
687,
688,
689,
3,367,690,843,859,
691,
692,
693,
694,
148,347,673,695,
181,360,437,696,773,
697,873,
698,
699,
383,700,
701,
605,702,
358,442,596,652,667,703,
77,219,239,595,704,
705,
706,910,
33,707,
708,
709,
710,
28,187,205,215,268,287,443,478,498,515,525,535,604,676,679,711,740,818,844,852,856,965,
171,180,277,378,416,531,560,588,640,657,680,712,726,739,769,803,817,835,920,943,981,997,
713,
714,
715,
716,
717,
718,
719,
720,
721,
92,722,
723,
724,
725,
171,180,277,378,416,529,588,657,712,726,739,769,835,943,981,997,
727,
728,958,
223,283,306,334,460,465,674,678,729,832,
23,386,398,399,548,730,732,788,
731,
23,398,399,467,548,730,732,
82,110,198,300,366,446,469,623,628,684,733,746,761,847,935,988,
734,
735,
283,334,460,465,570,674,678,736,832,853,900,937,
737,
316,365,666,738,940,
171,180,277,378,416,531,560,588,657,680,712,726,739,769,817,835,943,981,997,
28,187,205,215,268,287,443,478,498,515,525,535,604,676,679,711,740,818,844,852,856,965,
741,
742,
123,197,376,384,514,685,743,
744,
44,655,745,
82,131,198,300,536,733,746,
218,747,
748,
115,551,749,
22,47,224,596,750,883,
30,751,
752,
753,
137,754,
755,
756,
757,
9,139,233,519,599,623,646,758,770,845,899,
587,659,759,840,989,
425,760,
82,110,190,198,233,361,446,469,599,623,628,684,733,761,845,847,899,
762,
429,763,
23,346,386,764,788,870,
765,913,
766,
341,767,862,
553,768,
171,180,277,378,416,529,588,657,712,726,739,769,835,943,981,997,
9,139,233,519,599,623,646,758,770,845,899,
349,771,
772,
181,360,696,773,897,
120,774,921,
775,
776,
777,
496,778,
779,
780,
781,875,
367,782,860,
90,521,783,
521,784,999,
785,973,999,
290,616,786,
787,
23,346,386,730,764,788,870,
54,463,789,
790,
46,167,791,869,915,996,
14,792,
793,
794,
27,212,795,
796,
797,
249,508,627,638,654,798,
799,
800,848,
801,
223,306,668,802,
237,377,416,531,560,588,640,680,712,803,920,943,
28,162,187,205,676,804,818,852,
254,805,
806,
807,
56,218,808,
809,
483,484,810,839,
811,
812,
813,
814,
815,
816,
180,277,378,416,560,588,657,680,712,739,817,835,943,981,997,
28,187,205,215,268,287,443,478,498,525,535,604,676,679,711,740,804,818,844,852,856,965,
819,
48,58,126,418,820,938,
188,420,644,821,
52,438,822,931,
176,288,390,440,585,591,664,823,
824,
242,505,522,825,
826,
209,281,296,423,455,509,661,827,837,867,947,991,
232,473,828,923,
151,301,829,
53,830,
329,552,572,665,831,
223,283,306,334,460,465,674,678,729,736,832,900,
833,846,
834,
171,180,277,378,416,531,560,588,640,657,680,712,726,739,769,817,835,943,981,997,
75,319,320,556,836,
2,209,281,370,423,455,489,509,661,827,837,867,947,991,
838,
472,483,484,810,839,
419,587,659,759,840,849,
482,841,842,
482,841,842,
3,143,367,690,843,859,
28,187,205,215,268,287,443,478,498,515,525,535,604,676,679,711,740,818,844,852,856,965,
9,94,139,233,361,469,519,599,623,646,684,758,761,770,845,899,
833,846,
82,94,110,190,198,202,203,300,439,623,733,761,847,
800,848,
27,87,419,840,849,
850,999,
102,655,851,
28,187,205,215,268,287,443,478,498,525,535,604,676,679,711,740,804,818,844,852,856,965,
201,570,736,853,900,937,
854,
855,
28,187,205,215,268,287,443,478,498,515,525,535,604,676,679,711,740,818,844,852,856,965,
857,
222,858,
143,690,843,859,
367,540,782,860,
78,131,323,431,513,526,861,883,961,986,
257,767,862,
863,
864,
865,
866,
2,209,281,423,455,509,661,827,837,867,947,991,
19,47,432,442,596,652,667,683,868,
46,167,791,869,915,996,
346,386,764,788,870,
37,69,206,871,885,
872,
381,697,873,
874,
781,875,
876,
224,432,447,542,596,877,
878,
879,
518,880,
881,
882,
47,431,513,647,750,861,883,
884,
37,69,206,441,871,885,
886,
58,126,887,931,938,
305,323,411,526,888,
889,
890,
891,
244,892,
893,
894,
299,895,
135,896,992,
773,897,
898,
9,139,233,361,519,599,623,646,758,761,770,845,899,
334,460,465,570,736,832,853,900,937,
901,
902,
136,282,903,
904,
905,
906,
45,320,556,682,907,974,
908,
909,
541,706,910,
911,
912,
413,765,913,
914,
167,791,869,915,996,
916,
110,198,628,917,935,
918,
919,
237,377,416,531,560,588,640,680,712,803,920,943,
356,774,921,
13,120,339,356,922,927,
232,473,536,828,923,
924,945,
925,
926,
13,120,339,356,922,927,
928,
43,157,158,271,392,441,929,
930,
438,822,887,931,
932,
40,417,933,
934,
78,82,131,198,256,323,628,684,733,917,935,961,
936,
201,334,460,570,736,853,900,937,
58,126,418,820,887,938,
939,
316,365,536,666,738,940,
590,941,
404,942,
171,180,277,378,416,531,560,588,640,657,680,712,726,739,769,803,817,835,920,943,981,997,
944,
924,945,
946,
209,281,296,423,455,467,509,827,837,867,947,991,
259,405,948,
556,579,949,
950,
951,
952,
953,
193,554,586,954,
955,
956,
957,
728,958,
250,959,
960,
78,131,256,323,431,861,935,961,
385,962,
963,
964,
28,187,205,215,268,287,443,478,498,515,525,535,604,676,679,711,740,818,844,852,856,965,
247,966,
967,
968,
177,295,969,983,
970,
971,
972,
357,785,973,
45,319,320,556,682,907,974,
975,
976,
160,572,977,
978,
979,
980,
171,180,277,378,416,531,560,588,657,680,712,726,739,769,817,835,943,981,997,
982,
177,295,969,983,
984,
985,
78,256,323,366,469,861,986,988,
987,
78,82,198,256,323,366,469,684,733,986,988,
477,587,759,989,
990,
2,209,281,423,455,509,661,827,837,867,947,991,
896,992,
993,
994,
995,
46,167,791,869,915,996,
171,180,277,378,416,588,657,712,726,739,769,817,835,943,981,997,
488,578,998,
521,784,785,850,999,
