0,797,
1,
2,23,45,209,281,296,346,370,386,398,399,423,455,467,488,489,509,548,661,682,730,732,764,788,827,837,867,870,907,947,991,998,
3,143,367,452,690,699,782,790,843,859,860,
4,243,246,464,506,728,958,
5,138,159,177,207,259,285,405,481,502,543,636,724,948,969,983,
6,60,118,186,219,255,576,595,926,
7,105,219,255,266,408,564,
8,261,267,650,672,955,
9,22,47,139,166,229,233,256,273,305,313,323,361,409,411,446,454,513,519,526,599,623,628,646,647,653,684,750,758,761,770,845,883,888,899,935,
10,32,140,144,164,221,222,388,453,487,660,695,858,959,989,
11,274,352,485,774,866,
12,
13,18,120,274,339,352,356,615,774,866,921,922,927,971,972,
14,792,941,
15,342,757,960,
16,68,857,
17,292,349,422,444,771,
13,18,120,274,339,352,356,615,774,866,921,922,927,971,972,
19,25,47,67,78,82,89,91,94,110,127,131,145,170,190,198,202,203,224,233,256,300,301,323,358,361,366,397,431,432,439,442,445,446,447,468,469,513,518,526,536,542,544,562,596,599,600,612,623,628,652,667,683,684,703,733,746,750,761,829,845,847,861,868,877,880,917,935,961,986,988,
20,811,
21,52,149,249,360,437,438,504,654,696,773,798,820,822,938,
9,22,47,94,139,166,224,233,256,273,305,313,323,361,409,411,454,513,519,526,599,623,646,647,684,750,758,761,770,845,861,883,888,899,935,
2,23,45,209,281,296,346,370,386,398,399,423,455,467,489,509,548,661,682,730,732,764,779,788,827,837,867,870,907,947,974,991,
24,430,
19,25,47,67,78,82,89,91,94,110,131,145,190,198,202,203,224,256,300,301,323,336,358,397,432,439,445,446,447,468,513,518,526,542,544,600,612,623,628,684,733,746,829,847,877,880,917,935,961,
26,928,
27,76,87,140,193,212,227,310,419,425,477,554,586,587,659,686,725,759,760,795,840,849,954,
28,162,187,205,215,226,268,287,443,478,498,515,525,535,604,676,679,687,711,740,804,818,844,852,856,965,
29,
30,104,178,179,382,404,448,457,751,
31,
10,32,117,140,144,148,164,222,337,347,388,453,477,487,497,507,528,538,549,561,569,580,587,651,659,663,673,686,695,759,795,796,805,849,989,
33,321,406,537,573,582,705,707,800,848,
34,192,
35,56,218,550,747,808,
36,37,43,44,102,114,158,189,195,216,271,371,392,655,677,755,775,851,885,929,
36,37,38,44,69,83,97,102,114,136,157,161,185,206,241,282,330,338,441,581,745,753,851,871,885,903,
37,38,44,161,272,885,
39,
40,113,311,317,360,417,437,897,933,990,
41,106,181,360,437,578,696,773,897,990,
42,181,488,556,578,579,864,949,998,
36,43,44,69,97,102,114,137,157,158,189,195,206,216,241,271,330,371,392,441,581,655,677,745,755,851,871,885,929,987,
36,37,38,43,44,69,83,102,157,158,161,185,189,195,206,241,271,282,338,371,392,441,581,745,753,755,851,871,885,929,987,
2,23,45,75,209,230,281,296,319,320,346,370,386,399,423,455,467,488,489,509,548,556,661,682,730,732,764,779,788,827,836,837,867,870,907,947,974,991,998,
46,167,225,247,340,450,472,483,484,791,810,839,869,914,915,966,996,
9,19,22,25,47,67,78,82,91,94,110,131,139,145,166,190,198,202,203,224,229,233,256,273,301,305,313,323,336,358,361,366,397,409,411,431,432,439,442,445,446,447,468,469,513,519,526,542,544,596,599,600,623,628,646,647,652,667,683,684,703,733,750,758,761,770,829,845,847,861,877,883,888,899,917,935,961,986,988,
48,52,58,72,126,149,249,279,418,438,504,508,533,627,638,654,666,691,798,820,822,887,931,938,
49,91,94,110,131,132,151,198,224,232,301,302,358,397,446,447,468,518,542,544,562,614,812,813,828,829,877,917,935,
50,
51,
21,48,52,58,126,149,249,418,438,504,508,533,627,638,654,798,820,822,887,931,938,
53,264,452,690,830,859,
54,90,154,242,357,413,421,463,505,521,522,783,784,785,789,825,850,913,973,999,
55,532,598,611,
35,56,218,550,747,808,
57,709,814,
48,52,58,126,149,249,418,438,504,508,533,627,638,654,666,798,820,822,887,931,938,
59,771,
6,60,118,186,219,255,576,595,926,
61,236,709,
62,99,100,257,280,326,341,387,456,499,510,512,557,593,634,767,862,
63,510,
64,167,211,291,292,340,363,364,422,450,791,869,914,915,
65,260,481,567,724,969,
66,826,
19,25,47,67,78,82,89,91,94,110,127,131,145,170,190,198,202,203,220,224,232,256,300,301,316,323,358,365,397,432,439,445,446,447,468,473,513,518,536,542,544,562,600,612,614,623,628,666,684,733,738,746,828,829,847,877,880,917,923,935,940,961,
16,68,857,
37,43,44,69,83,97,102,114,157,158,185,189,195,206,216,241,271,282,330,338,371,392,441,581,655,677,745,753,755,851,871,885,929,987,
70,71,95,105,118,122,134,266,307,328,354,429,583,601,619,763,
70,71,161,
48,72,126,220,232,279,316,369,504,533,638,654,666,691,738,798,820,828,
73,
74,167,211,340,363,791,869,914,915,
45,75,88,230,278,319,320,556,682,779,836,907,974,
27,76,87,121,193,212,227,310,419,554,586,587,659,686,725,760,795,840,849,954,956,
77,85,95,96,122,123,134,197,219,239,251,376,384,514,530,595,601,603,619,633,685,704,737,743,
19,25,47,67,78,82,89,91,94,110,127,131,145,170,190,198,202,203,224,233,256,300,301,323,336,358,361,366,397,431,432,439,442,445,446,447,468,469,513,518,526,542,544,562,596,599,600,612,623,628,652,667,683,684,703,733,746,750,761,829,845,847,861,868,877,880,917,935,961,986,988,
79,
80,589,
81,303,
19,25,47,67,78,82,89,91,94,110,127,131,145,170,190,198,202,203,224,233,256,300,301,323,358,361,366,397,431,432,439,442,445,446,447,468,469,513,518,526,536,542,544,562,596,599,600,612,623,628,652,667,683,684,703,733,746,750,761,829,845,847,861,868,877,880,917,935,961,986,988,
37,44,69,83,97,136,157,158,161,185,189,206,217,241,271,282,330,338,371,372,391,441,581,594,655,745,753,871,885,903,929,987,
84,675,904,
77,85,95,96,123,143,197,219,251,331,384,514,530,595,603,633,690,704,743,
86,
27,76,87,121,310,477,527,528,554,587,653,659,686,759,795,840,849,
75,88,230,278,319,320,779,
19,25,67,78,82,89,91,94,110,127,131,145,170,190,198,202,203,224,256,300,301,323,358,361,366,397,431,432,439,442,445,446,447,468,469,518,536,542,544,562,596,600,612,628,652,667,683,684,703,733,746,761,829,847,861,868,877,880,917,935,961,986,988,
54,90,154,242,357,413,421,463,505,521,522,783,784,785,789,825,850,913,973,999,
19,25,47,49,67,78,82,89,91,94,110,127,131,145,151,170,190,198,202,203,224,232,256,300,301,302,323,358,397,432,439,445,446,447,468,513,518,526,536,542,544,562,600,612,614,623,628,684,733,746,813,828,829,847,877,880,917,935,961,
92,722,976,
93,176,208,288,390,440,470,585,591,658,664,823,
19,22,25,47,49,67,78,82,89,91,94,110,127,131,145,170,190,198,202,203,224,232,233,256,300,301,316,323,336,358,361,365,366,397,431,432,439,442,445,446,447,468,469,473,513,518,526,536,542,544,562,596,599,600,612,614,623,628,652,667,683,684,703,733,738,746,750,761,828,829,845,847,861,868,877,880,888,917,923,935,940,961,986,988,
70,77,85,95,118,122,123,134,197,219,239,251,255,307,328,354,376,384,429,514,530,583,601,603,619,633,685,704,737,743,763,
77,85,96,135,186,251,315,368,383,595,700,704,898,
37,43,69,83,97,157,158,189,195,206,216,241,271,330,338,371,392,441,581,655,745,871,885,929,987,
98,492,
62,99,257,326,341,355,375,387,499,512,593,752,767,862,901,902,
62,100,280,341,387,456,557,634,862,
101,130,380,458,632,671,
36,37,43,44,69,102,114,157,158,189,195,206,216,271,371,441,581,655,677,745,755,775,851,871,885,929,
103,135,175,252,331,435,815,896,992,
30,104,178,179,434,448,457,574,751,
7,70,105,118,219,255,266,307,354,429,564,
41,106,181,188,360,437,474,578,696,773,821,897,990,
107,930,
108,
109,
19,25,47,49,67,78,82,89,91,94,110,127,131,145,170,190,198,202,203,224,232,233,256,300,301,316,323,358,361,365,366,397,431,432,439,442,445,446,447,468,469,473,513,518,526,536,542,544,562,596,599,600,612,614,623,628,652,667,683,684,703,733,738,746,750,761,828,829,845,847,861,868,877,880,917,923,935,940,961,986,988,
111,269,396,610,626,891,
112,
40,113,311,317,417,897,933,
36,37,43,69,102,114,157,158,189,195,206,216,271,371,441,581,655,677,745,755,775,851,871,885,929,
115,146,290,299,511,551,741,749,884,906,
116,124,125,146,160,194,210,290,299,440,470,491,511,552,572,616,786,831,833,846,895,910,
32,117,140,148,212,254,337,347,388,427,477,497,507,534,538,549,554,561,569,580,587,622,651,663,673,759,794,796,805,989,
6,60,70,95,105,118,122,134,186,219,255,266,307,354,429,576,595,601,619,763,926,
119,701,780,
13,18,120,274,339,352,356,615,774,866,921,922,927,971,972,
76,87,121,527,528,587,653,849,
70,77,95,118,122,123,134,135,197,219,239,251,252,255,307,328,331,354,376,384,429,514,530,601,603,619,633,685,704,737,743,896,992,
77,85,95,122,123,134,197,219,239,251,376,384,514,530,601,603,619,633,685,704,737,743,
116,124,125,146,160,194,210,290,299,491,511,552,572,616,786,831,833,846,895,908,910,
116,124,125,194,210,491,616,672,786,908,
48,52,58,72,126,149,220,249,279,316,418,438,504,508,533,627,638,654,666,691,738,798,820,822,887,931,938,
19,67,78,82,89,91,94,110,127,131,145,170,190,198,202,203,220,224,232,256,300,301,316,358,365,397,432,439,447,468,473,518,536,542,544,562,612,614,666,733,738,746,828,829,847,877,880,917,923,940,961,
128,
129,350,374,566,624,787,
101,130,380,458,632,671,
19,25,47,49,67,78,82,89,91,94,110,127,131,145,170,190,198,202,203,224,232,233,256,300,301,316,323,358,361,365,366,397,431,432,439,442,445,446,447,468,469,473,513,518,526,536,542,544,562,596,599,600,612,614,623,628,652,667,683,684,703,733,738,746,750,761,828,829,845,847,861,868,877,880,917,923,935,940,961,986,988,
49,132,141,151,302,
133,701,
70,77,95,118,122,123,134,197,219,239,251,255,307,328,354,376,384,429,514,530,583,601,603,619,633,685,704,737,743,763,
96,103,122,135,175,186,252,315,331,368,383,435,595,619,700,737,815,896,898,992,
37,83,136,185,206,217,282,410,517,594,639,753,885,903,
43,137,189,195,240,241,271,272,392,620,754,929,987,
5,138,159,182,285,322,405,479,481,502,543,948,
9,22,47,139,166,233,256,273,305,313,323,361,409,411,454,513,519,526,527,599,623,646,647,653,684,750,758,761,770,845,883,888,899,
10,27,32,117,140,144,148,164,212,221,222,310,337,347,388,453,477,487,497,507,528,538,549,554,561,569,580,587,651,659,660,663,673,686,695,759,794,805,840,849,989,
132,141,
142,757,
3,85,143,367,452,595,690,782,790,830,843,859,860,
10,32,140,144,148,164,184,221,222,337,347,388,453,487,561,651,660,663,673,695,796,878,989,
19,25,47,67,78,82,89,91,94,110,127,131,145,170,190,198,202,203,224,233,256,300,301,323,358,361,366,397,431,432,439,442,445,446,447,468,469,513,518,526,542,544,562,596,599,600,612,623,628,652,667,683,684,703,733,746,750,761,829,845,847,861,868,877,880,917,935,961,986,988,
115,116,124,146,194,210,290,299,511,551,741,749,786,833,846,884,895,906,
147,245,318,
32,117,140,144,148,164,184,212,221,337,347,388,477,497,507,538,549,554,561,569,580,587,651,663,673,695,759,794,796,805,848,989,
21,48,52,58,126,149,249,418,438,448,504,508,533,627,638,654,798,820,822,887,931,938,
150,919,
49,91,132,151,224,232,301,302,358,397,446,447,468,518,542,544,614,813,829,877,917,
152,
153,598,
54,90,154,242,357,421,463,505,521,522,783,784,785,789,825,850,973,999,
155,606,854,855,962,964,
156,694,
37,43,44,69,83,97,102,114,157,158,185,189,195,206,216,241,271,330,338,371,392,441,581,655,745,753,851,871,885,929,987,
36,43,44,69,83,97,102,114,157,158,189,195,206,216,241,271,330,338,371,392,441,581,655,677,745,755,851,871,885,929,987,
5,138,159,176,182,259,285,322,390,405,479,481,502,543,724,948,
116,124,160,290,299,329,541,552,572,665,706,786,831,833,846,895,910,
37,38,44,71,83,161,217,241,272,338,372,391,594,871,885,987,
28,162,350,374,443,478,624,676,787,804,818,852,924,945,
163,
10,32,140,144,148,164,184,221,222,337,347,388,453,487,538,561,651,660,663,673,695,796,878,989,
165,
9,22,47,139,166,224,229,233,256,273,305,313,323,361,409,411,446,454,513,519,526,599,623,628,646,647,684,750,758,761,770,845,861,883,888,899,935,
46,64,74,167,225,247,340,363,364,450,483,484,791,810,839,869,914,915,966,996,
168,494,734,
169,
19,67,78,82,89,91,94,110,127,131,145,170,190,198,202,203,220,224,232,256,300,301,316,358,365,397,432,439,447,468,473,518,536,542,544,562,612,614,666,733,738,746,828,829,847,877,880,917,923,940,961,
171,180,237,277,377,378,416,529,531,553,560,588,624,640,657,680,712,726,739,768,769,803,835,920,943,946,981,
172,618,635,
173,332,
174,436,705,800,878,985,
103,135,175,252,331,435,619,896,992,
93,159,176,208,288,390,440,470,585,591,658,664,823,
5,177,207,259,260,285,295,405,480,481,636,724,948,969,983,
30,104,178,179,434,448,751,
30,104,178,179,433,448,457,751,822,
171,180,237,277,377,378,416,529,531,553,560,588,624,640,657,680,712,726,739,768,769,803,835,920,943,946,981,
41,42,106,181,188,360,437,474,696,773,897,990,
138,159,182,259,359,405,502,543,648,809,
183,
144,148,164,184,337,347,406,651,673,695,705,800,848,878,
37,44,69,83,136,157,185,206,217,282,338,410,441,581,594,745,753,885,903,
6,60,96,118,135,186,219,255,315,368,383,576,595,700,926,
28,187,205,215,226,268,287,443,478,498,515,525,535,604,676,679,687,711,740,804,818,844,852,856,965,
106,181,188,389,420,437,474,644,821,
36,43,44,69,83,97,102,114,137,157,158,189,195,206,216,241,271,330,371,392,441,581,655,677,745,754,755,851,871,885,929,987,
19,25,47,67,78,82,89,91,94,110,127,131,145,170,190,198,202,203,224,232,233,256,300,301,316,323,358,361,365,366,397,431,432,439,442,445,446,447,468,469,473,513,518,526,536,542,544,562,596,599,600,612,614,623,628,652,666,667,683,684,703,733,738,746,750,761,828,829,845,847,861,868,877,880,917,923,935,940,961,986,988,
191,353,385,546,606,962,964,
34,192,492,
27,76,193,212,310,425,524,554,586,686,725,760,795,849,954,956,
116,124,125,146,194,210,290,299,491,511,616,786,833,846,895,908,
36,43,44,69,97,102,114,137,157,158,189,195,206,216,241,271,330,371,392,441,581,655,677,745,755,851,871,885,929,987,
196,693,
77,85,95,122,123,134,197,219,239,251,376,384,514,530,601,603,619,633,685,704,737,743,
19,25,47,49,67,78,82,89,91,94,110,127,131,145,170,190,198,202,203,224,232,233,256,300,301,316,323,358,361,365,366,397,431,432,439,442,445,446,447,468,469,473,513,518,526,536,542,544,562,596,599,600,612,614,623,628,652,667,683,684,703,733,738,746,750,761,828,829,845,847,861,868,877,880,917,923,935,940,961,986,988,
199,
200,962,
201,223,283,306,334,460,465,556,570,668,674,678,729,736,802,832,836,853,900,937,949,
19,25,47,67,78,82,89,91,94,110,127,131,145,170,190,198,202,203,224,232,256,300,301,316,323,358,365,366,397,431,432,439,445,446,447,468,469,473,513,518,526,536,542,544,562,596,600,612,623,628,666,667,683,684,703,733,738,746,750,761,828,829,845,847,861,877,880,917,923,935,940,961,988,
19,25,47,67,78,82,89,91,94,110,127,131,145,170,190,198,202,203,224,232,256,300,301,316,323,358,365,366,397,431,432,439,445,446,447,468,469,473,513,518,526,536,542,544,562,596,600,612,614,623,628,666,667,683,684,703,733,738,746,750,761,828,829,845,847,861,877,880,917,923,935,940,961,988,
204,
28,187,205,215,226,268,287,443,478,498,515,525,535,604,676,679,687,711,740,804,818,844,852,856,965,
37,43,44,69,83,97,102,114,136,157,158,185,189,195,206,241,271,282,330,338,371,392,441,581,655,745,753,755,851,871,885,903,929,
5,177,207,259,260,285,295,359,405,480,636,648,948,969,983,
93,176,208,288,381,390,440,470,585,591,658,664,697,698,781,823,873,
2,23,45,209,281,296,346,370,386,398,399,423,455,467,489,509,548,661,682,730,732,764,788,827,837,867,870,907,947,974,991,
116,124,125,146,194,210,290,299,491,511,616,786,833,846,895,908,
64,74,211,340,363,364,450,
27,76,117,140,148,193,212,227,310,347,419,425,477,497,507,538,549,554,569,580,586,587,651,659,673,686,725,759,760,794,795,796,805,840,849,954,
213,734,
214,351,
28,187,205,215,226,268,287,443,478,498,515,525,535,604,676,679,687,711,740,804,818,844,852,856,965,
36,43,69,97,102,114,157,158,189,195,216,271,330,441,483,581,655,677,745,755,775,851,871,929,
83,136,161,185,217,282,372,594,753,903,
35,56,218,550,747,808,
6,7,60,77,85,95,105,118,122,123,134,186,197,219,239,251,255,266,354,376,384,429,514,530,564,576,595,601,603,619,633,685,704,737,743,926,
67,72,126,127,170,220,232,279,300,316,365,369,473,533,536,562,612,638,666,691,738,746,820,828,880,923,940,
10,140,144,148,164,221,222,337,347,424,453,487,651,660,673,695,824,
10,32,140,144,164,221,222,250,388,453,487,660,695,858,959,989,
201,223,283,306,334,460,465,556,570,668,674,678,729,736,802,832,836,853,900,937,949,
19,22,25,47,49,67,78,82,89,91,94,110,127,131,145,151,166,170,190,198,202,203,224,232,233,256,300,301,302,305,323,336,358,361,366,397,431,432,439,442,445,446,447,468,469,513,518,519,526,536,542,544,562,596,599,600,612,614,623,628,652,667,683,684,703,733,746,750,758,761,828,829,845,847,861,868,877,880,888,899,917,935,961,986,988,
46,167,225,247,340,472,483,484,791,810,839,869,914,915,966,996,
28,187,205,215,226,268,287,443,478,498,515,525,535,604,676,679,687,711,740,804,818,844,852,856,965,
27,76,212,227,310,419,554,586,659,686,725,760,795,840,849,
228,424,
9,47,166,229,256,273,313,323,409,411,446,513,519,526,623,628,646,684,758,770,888,899,
45,75,88,230,278,319,320,556,682,779,836,907,974,
231,
49,67,72,91,94,110,127,131,151,170,190,198,202,203,220,224,232,300,301,316,358,365,369,397,439,447,468,473,518,536,542,544,562,612,614,666,733,738,746,813,828,829,847,877,880,917,923,940,961,
9,19,22,47,78,82,94,110,131,139,145,166,190,198,224,233,256,273,305,313,323,358,361,366,409,411,431,432,442,447,454,469,513,519,526,527,542,544,596,599,623,646,647,652,653,667,683,684,703,733,750,758,761,770,845,861,883,888,899,935,961,986,988,
234,326,355,375,901,
235,
61,236,709,952,
171,180,237,277,377,378,416,529,531,553,560,588,624,640,657,680,712,726,739,768,769,803,835,920,943,946,981,
238,496,778,
77,95,122,123,134,197,219,239,251,376,384,514,530,601,603,619,633,685,704,737,743,
137,240,241,272,402,620,754,
37,43,44,69,83,97,137,157,158,161,189,195,206,240,241,271,272,330,338,371,392,441,581,620,655,745,754,871,885,929,987,
54,90,154,242,357,413,421,463,505,521,522,783,784,785,789,825,850,913,973,999,
4,243,246,464,506,728,958,
244,892,953,
147,245,318,
4,243,246,464,506,728,958,
46,167,225,247,340,472,483,484,791,810,839,869,914,915,966,996,
248,302,446,518,812,
21,48,52,58,126,149,249,418,438,504,508,533,627,638,654,666,798,820,822,887,931,938,
222,250,453,495,858,959,
77,85,95,96,122,123,134,197,219,239,251,376,384,514,530,595,601,603,619,633,685,704,737,743,
103,122,135,175,252,331,435,619,737,815,896,992,
253,
117,254,427,497,507,534,587,622,805,
6,7,60,95,105,118,122,134,186,219,255,266,354,429,564,576,595,601,619,926,
9,19,22,25,47,67,78,82,89,91,94,110,127,131,139,145,166,170,190,198,202,203,224,229,233,256,273,300,301,305,313,323,336,358,361,366,397,409,411,431,432,439,442,445,446,447,468,469,513,518,519,526,536,542,544,562,596,599,600,612,623,628,646,647,652,667,683,684,703,733,746,750,758,761,770,829,845,847,861,868,877,880,883,888,899,917,935,961,986,988,
62,99,257,326,341,387,456,499,512,593,634,752,767,862,
258,
5,159,177,182,207,259,285,295,359,405,480,502,543,636,648,948,969,983,
65,177,207,260,295,480,636,969,983,
8,261,267,571,650,846,881,955,
262,906,
263,413,547,575,602,656,765,913,
53,264,452,690,830,859,
265,994,995,
7,70,105,118,219,255,266,307,354,429,564,
8,261,267,650,672,846,955,
28,187,205,215,226,268,287,443,478,498,515,525,535,604,676,679,687,711,740,804,818,844,852,856,965,
111,269,396,511,610,626,977,
270,
36,43,44,69,83,97,102,114,137,157,158,189,195,206,216,241,271,330,371,392,441,581,655,677,745,754,755,851,871,885,929,987,
38,137,161,240,241,272,402,620,754,
9,22,47,139,166,229,233,256,273,305,313,323,361,409,411,446,454,513,519,526,599,623,628,646,647,653,684,750,758,761,770,845,883,888,899,935,
11,13,18,120,274,291,339,352,356,422,615,721,774,799,866,921,922,927,936,971,972,
275,459,
276,
171,180,237,277,377,378,416,529,531,553,560,588,624,640,657,680,712,726,739,768,769,803,835,920,943,946,981,
75,88,230,278,319,320,779,974,
48,72,126,220,279,504,533,638,654,691,798,820,
62,100,280,341,387,456,634,862,
2,23,45,209,281,296,346,370,386,398,399,423,455,467,489,509,548,661,682,730,732,764,788,827,837,867,870,907,947,991,
37,44,69,83,136,185,206,217,282,338,410,441,594,745,753,885,903,
201,223,283,306,334,460,465,556,570,668,674,678,729,736,802,832,836,853,900,937,949,
284,304,458,
5,138,159,177,207,259,285,295,405,480,502,543,636,948,969,983,
286,
28,187,205,215,226,268,287,443,478,498,515,525,535,604,676,679,687,711,740,804,818,844,852,856,965,
93,176,208,288,390,440,470,585,591,658,664,823,
289,475,568,894,
115,116,124,146,160,194,210,290,299,329,511,541,551,552,572,665,749,786,831,833,846,895,
64,274,291,352,364,422,
17,64,292,349,363,364,450,771,
293,
294,413,656,766,
177,207,259,260,285,295,405,480,636,766,948,969,983,
2,23,45,209,281,296,346,370,386,398,399,423,455,467,489,509,548,661,682,730,732,764,788,827,837,867,870,907,947,974,991,
297,890,
298,
115,116,124,146,160,194,210,290,299,329,511,551,552,572,625,665,741,749,786,831,833,846,884,893,895,906,910,
19,25,67,78,82,89,91,94,110,127,131,145,170,190,198,202,203,220,224,232,256,300,301,316,323,358,365,397,432,439,445,446,447,468,473,518,536,542,544,562,600,612,614,623,628,666,684,733,738,746,828,829,847,877,880,917,923,935,940,961,
19,25,47,49,67,78,82,89,91,94,110,127,131,145,151,170,190,198,202,203,224,232,256,300,301,302,323,358,397,432,439,445,446,447,468,513,518,526,542,544,562,600,612,614,623,628,684,733,746,813,828,829,847,877,880,917,935,961,
49,91,132,151,224,248,301,302,358,397,446,468,518,542,544,812,829,877,917,
81,303,
284,304,723,939,
9,22,47,139,166,224,233,256,273,305,313,323,361,409,411,454,513,519,526,599,623,646,647,684,750,758,761,770,845,861,883,888,899,935,
201,223,283,306,334,460,465,556,570,668,674,678,729,736,802,832,836,853,900,937,949,
70,95,105,118,122,134,266,307,328,354,429,583,601,619,763,
308,872,
309,
27,76,87,140,193,212,227,310,419,425,477,554,586,587,659,686,725,759,760,795,840,849,954,
40,113,311,317,417,897,933,967,
312,
9,22,47,139,166,229,233,256,273,305,313,323,361,409,411,446,454,513,519,526,599,623,646,647,684,750,758,761,770,845,883,888,899,
314,
96,135,186,315,368,383,595,700,898,
67,72,94,110,126,127,131,170,190,198,202,203,220,232,300,316,365,369,439,473,536,562,612,638,666,733,738,746,828,847,880,923,940,
40,113,311,317,417,897,933,
147,245,318,
45,75,88,230,278,319,320,556,682,779,836,907,974,
45,75,88,230,278,319,320,556,682,779,836,907,974,
33,321,406,537,573,582,705,707,848,
138,159,322,405,479,502,543,
9,19,22,25,47,67,78,82,89,91,94,110,131,139,145,166,190,198,202,203,224,229,233,256,273,300,301,305,313,323,336,358,361,366,397,409,411,431,432,439,442,445,446,447,468,469,513,518,519,526,542,544,596,599,600,612,623,628,646,647,652,667,683,684,703,733,746,750,758,761,770,829,845,847,861,868,877,883,888,899,917,935,961,986,988,
324,
325,774,866,
62,99,234,257,326,341,355,375,387,499,510,512,557,593,767,862,901,902,
327,
70,95,122,134,307,328,372,391,429,583,601,619,737,763,
160,290,299,329,541,552,571,572,650,665,706,831,833,846,881,895,910,955,
37,43,69,83,97,157,158,189,195,206,216,241,271,330,338,371,392,441,581,655,745,871,885,929,987,
85,103,122,135,175,252,331,435,619,704,737,815,896,992,
173,332,
333,
201,223,283,306,334,460,465,556,570,668,674,678,729,736,802,832,836,853,900,937,949,
335,
25,47,78,94,224,256,323,336,445,446,513,518,526,600,623,628,684,847,935,
32,117,140,144,148,164,184,221,337,347,388,477,497,507,538,561,569,587,651,663,673,695,759,796,800,848,878,989,
37,44,69,83,97,157,158,161,185,206,241,282,330,338,371,391,441,581,655,745,753,871,885,929,987,
13,18,120,274,339,352,356,615,774,866,921,922,927,971,972,
46,64,74,167,211,225,247,340,363,364,450,483,484,791,810,839,869,914,915,966,996,
62,99,100,257,280,326,341,387,456,499,510,512,593,634,767,862,
15,342,757,
343,471,855,
344,
345,
2,23,45,209,281,296,346,370,386,398,399,423,455,467,489,509,548,661,682,730,732,764,788,827,837,867,870,907,947,991,
32,117,140,144,148,164,184,212,221,337,347,388,477,497,507,538,549,554,561,569,580,587,651,663,673,695,759,796,805,848,989,
348,984,
17,292,349,363,422,444,771,
129,162,350,374,377,566,588,624,787,920,924,945,
214,351,
11,13,18,120,274,291,339,352,356,422,615,721,774,799,866,921,922,927,936,971,972,
191,353,385,546,962,964,
70,95,105,118,122,134,219,255,266,307,354,429,601,619,763,
99,234,326,355,375,499,512,901,
13,18,120,274,339,352,356,615,774,866,921,922,927,971,972,
54,90,154,242,357,421,463,505,521,522,783,784,785,789,825,850,973,999,
19,25,47,49,67,78,82,89,91,94,110,127,131,145,151,170,190,198,202,203,224,232,233,256,300,301,302,323,358,361,366,397,431,432,439,442,445,446,447,468,469,513,518,526,536,542,544,562,596,599,600,612,614,623,628,652,667,683,684,703,733,746,750,761,828,829,845,847,861,868,877,880,917,935,961,986,988,
182,207,259,359,405,636,648,
21,40,41,106,181,360,437,474,696,773,897,990,
9,19,22,47,78,82,89,94,110,131,139,145,166,190,198,224,233,256,273,305,313,323,358,361,366,409,411,431,432,442,447,469,513,518,519,526,542,544,596,599,623,646,647,652,667,683,684,703,733,750,758,761,770,845,861,868,883,888,899,935,961,986,988,
362,909,
64,74,167,211,292,340,349,363,364,422,444,450,791,869,914,915,
64,167,211,291,292,340,363,364,422,450,485,791,869,914,915,
67,94,110,127,131,170,190,198,202,203,220,232,300,316,365,439,447,473,536,542,562,612,614,666,733,738,746,828,847,880,923,940,
19,47,78,82,89,94,110,131,145,190,198,202,203,224,233,256,323,358,361,366,431,432,442,447,469,513,518,526,542,544,596,599,623,652,667,683,684,703,733,750,761,845,861,868,935,961,986,988,
3,143,367,452,690,699,782,790,843,859,860,
96,135,186,315,368,383,700,898,
72,220,232,316,369,433,473,614,666,738,812,813,822,828,923,
2,23,45,209,281,296,346,370,386,398,399,423,455,467,489,509,548,661,682,730,732,764,788,827,837,867,870,907,947,974,991,
36,43,44,69,83,97,102,114,157,158,189,195,206,241,271,330,338,371,392,441,581,655,677,745,755,851,871,885,929,987,
83,161,217,328,372,391,583,594,763,
373,605,702,
129,162,350,374,566,624,787,924,945,
99,234,326,355,375,512,901,
77,95,122,123,134,197,219,239,251,376,384,514,530,601,603,619,633,685,704,737,743,
171,180,237,277,350,377,378,416,529,531,553,560,588,624,640,657,680,712,726,739,768,769,787,803,835,920,943,945,946,981,
171,180,237,277,377,378,416,529,531,553,560,588,624,640,657,680,712,726,739,768,769,803,835,920,943,946,981,
379,
101,130,380,458,632,671,911,
208,381,440,470,697,698,873,
30,382,404,448,457,751,
96,135,186,315,368,383,700,
77,85,95,122,123,134,197,219,239,251,376,384,514,530,601,603,619,633,685,704,737,743,
191,353,385,962,964,
2,23,45,209,281,296,346,370,386,398,399,423,455,467,489,509,548,661,682,730,732,764,788,827,837,867,870,907,947,974,991,
62,99,100,257,280,326,341,387,456,499,510,512,593,634,767,862,
10,32,117,140,144,148,164,222,337,347,388,453,477,487,497,507,528,538,549,561,569,580,587,651,659,663,673,686,695,759,805,849,989,
188,389,420,644,821,
93,159,176,208,288,390,440,470,585,591,658,664,823,
83,161,328,338,372,391,583,763,987,
36,43,44,69,97,137,157,158,189,195,206,241,271,330,371,392,441,581,655,745,754,871,885,929,987,
393,
394,
395,
111,269,396,610,626,
19,25,47,49,67,78,82,89,91,94,110,127,131,145,151,170,190,198,202,203,224,232,256,300,301,302,323,358,397,432,439,445,446,447,468,513,518,526,536,542,544,562,600,612,614,623,628,684,733,746,813,828,829,847,877,880,917,935,961,
2,23,209,281,296,346,370,386,398,399,423,455,467,489,509,548,661,730,732,764,788,827,837,867,870,947,991,
2,23,45,209,281,296,346,370,386,398,399,423,455,467,489,509,548,661,682,730,732,764,788,827,837,867,870,907,947,974,991,
400,
401,503,801,
240,272,402,620,754,
403,
30,382,404,457,942,
5,138,159,177,182,207,259,285,295,322,359,405,479,480,502,543,636,648,948,969,983,
33,184,321,406,424,537,573,705,707,800,848,878,
407,
7,408,564,
9,22,47,139,166,229,233,256,273,305,313,323,361,409,411,446,454,513,519,526,599,623,628,646,647,684,750,758,761,770,845,883,888,899,935,
136,185,282,410,517,639,753,834,903,
9,22,47,139,166,229,233,256,273,305,313,323,361,409,411,446,454,513,519,526,599,623,646,647,684,750,758,761,770,845,883,888,899,
412,
54,90,242,263,294,413,463,505,521,522,547,575,602,656,765,783,785,789,825,913,
414,
415,
171,180,237,277,377,378,416,529,531,553,560,588,624,640,657,680,712,726,739,768,769,803,835,920,943,946,981,
40,113,311,317,417,897,933,
48,52,58,126,149,249,418,438,504,508,533,627,638,654,798,820,822,887,931,938,
27,76,212,227,310,419,477,554,586,587,659,686,725,759,795,840,849,
188,389,420,474,644,821,
54,90,154,242,357,421,463,505,521,522,783,784,785,789,825,850,973,999,
17,64,274,291,349,352,363,364,422,444,
2,23,45,209,281,296,346,370,386,398,399,423,455,467,489,509,548,661,682,730,732,764,788,827,837,867,870,907,947,974,991,
221,228,406,424,461,660,824,848,
27,193,212,310,425,524,554,586,686,725,760,795,849,954,
426,
117,254,427,477,497,507,534,538,549,554,569,580,587,622,759,805,
428,598,611,
70,95,105,118,122,134,219,255,266,307,328,354,429,576,595,601,619,763,
24,430,532,
19,47,78,82,89,94,110,131,145,190,198,202,203,224,233,256,323,358,361,366,431,432,442,447,469,513,518,526,542,544,596,599,623,652,667,683,684,703,733,750,761,845,861,868,935,961,986,988,
19,25,47,67,78,82,89,91,94,110,127,131,145,170,190,198,202,203,224,233,256,300,301,323,358,361,366,397,431,432,439,442,445,446,447,468,469,513,518,526,542,544,562,596,599,600,612,623,628,652,667,683,684,703,733,746,750,761,829,845,847,861,868,877,880,917,935,961,986,988,
179,369,433,448,812,822,
104,178,434,448,
103,135,175,252,331,435,815,896,992,
174,436,705,800,878,985,
21,40,41,106,181,188,360,437,474,696,773,897,990,
21,48,52,58,126,149,249,418,438,504,508,533,627,638,654,666,798,820,822,887,931,938,
19,25,47,67,78,82,89,91,94,110,127,131,145,170,190,198,202,203,224,232,256,300,301,316,323,358,365,397,432,439,445,446,447,468,473,513,518,526,536,542,544,562,600,612,623,628,666,684,733,738,746,828,829,847,877,880,917,923,935,940,961,
93,116,176,208,288,381,390,440,470,585,591,658,664,697,698,786,823,873,
37,43,44,69,83,97,102,114,157,158,185,189,195,206,216,241,271,282,330,338,371,392,441,581,655,677,745,753,755,851,871,885,929,987,
19,47,78,82,89,94,110,131,145,190,198,224,233,256,323,358,361,366,431,432,442,447,469,513,518,526,542,544,596,599,623,652,667,683,684,703,733,750,761,845,861,868,935,961,986,988,
28,162,187,205,215,226,268,287,443,478,498,515,525,535,604,676,679,687,711,740,804,818,844,852,856,965,
17,349,363,422,444,771,
19,25,47,67,78,82,89,91,94,110,131,145,190,198,202,203,224,256,300,301,323,336,358,397,432,439,445,446,447,468,513,518,526,542,544,600,612,628,684,733,746,829,847,877,880,917,935,961,
9,19,25,47,49,67,78,82,89,91,94,110,131,145,151,166,190,198,202,203,224,229,248,256,273,300,301,302,313,323,336,358,397,409,411,432,439,445,446,447,468,513,518,519,526,542,544,600,612,623,628,646,684,733,746,758,770,829,847,877,880,888,899,917,935,961,
19,25,47,49,67,78,82,89,91,94,110,127,131,145,151,170,190,198,202,203,224,232,233,256,300,301,323,358,361,365,366,397,431,432,439,442,445,446,447,468,469,473,513,518,526,536,542,544,562,596,599,600,612,614,623,628,652,667,683,684,703,733,746,750,761,828,829,845,847,861,868,877,880,917,923,935,940,961,986,988,
30,104,149,178,179,382,433,434,448,457,751,
449,
46,64,167,211,292,340,363,364,450,484,791,839,869,914,915,966,996,
451,609,
3,53,143,264,367,452,456,690,752,782,830,843,859,860,
10,32,140,144,164,221,222,250,388,453,487,660,695,858,959,
9,22,139,166,233,273,305,313,409,411,454,519,526,599,646,647,750,758,770,845,883,888,899,
2,23,45,209,281,296,346,370,386,398,399,423,455,467,489,509,548,661,682,730,732,764,788,827,837,867,870,907,947,991,
62,100,257,280,341,387,452,456,593,634,752,767,862,
30,104,179,382,404,448,457,751,
101,130,284,380,458,632,671,
275,459,
201,223,283,306,334,460,465,556,570,668,674,678,729,736,802,832,836,853,900,937,949,
424,461,681,
462,
54,90,154,242,357,413,421,463,505,521,522,783,784,785,789,825,850,913,973,999,
4,243,246,464,506,728,958,
201,223,283,306,334,460,465,556,570,668,674,678,729,736,802,832,836,853,900,937,949,
466,472,756,839,
2,23,45,209,281,296,346,370,386,398,399,423,455,467,489,509,548,661,682,730,732,764,788,827,837,867,870,907,947,974,991,
19,25,47,49,67,78,82,89,91,94,110,127,131,145,151,170,190,198,202,203,224,232,256,300,301,302,323,358,397,432,439,445,446,447,468,513,518,526,542,544,562,600,612,614,623,628,684,733,746,813,828,829,847,877,880,917,935,961,
19,47,78,82,89,94,110,131,145,190,198,202,203,224,233,256,323,358,361,366,431,432,442,447,469,513,518,526,542,544,596,599,623,652,667,683,684,703,733,750,761,845,861,868,935,961,986,988,
93,116,176,208,288,381,390,440,470,585,591,658,664,697,698,781,786,823,873,
343,471,597,855,925,964,
46,225,247,466,472,483,484,791,810,839,966,996,
67,94,110,127,131,170,190,198,202,203,220,232,300,316,365,369,439,447,473,536,542,562,612,614,638,666,733,738,746,813,828,847,880,923,940,
106,181,188,360,420,437,474,644,696,773,821,
289,475,568,894,
476,975,
27,32,87,117,140,148,212,310,337,347,388,419,427,477,497,507,528,534,538,549,554,561,569,580,586,587,651,659,663,673,686,695,759,794,805,840,849,989,
28,162,187,205,215,226,268,287,443,478,498,515,525,535,604,676,679,687,711,740,804,818,844,852,856,965,
138,159,322,405,479,502,543,
177,207,259,260,285,295,405,480,636,948,969,983,
5,65,138,159,177,481,543,724,969,
482,841,842,
46,167,216,225,247,340,472,483,484,677,791,810,839,869,914,915,966,996,
46,167,225,247,340,450,472,483,484,791,810,839,869,914,915,966,996,
11,364,485,
486,701,
10,32,140,144,164,221,222,388,453,487,660,695,858,959,989,
2,42,45,488,578,579,682,864,907,974,998,
2,23,45,209,281,296,346,370,386,398,399,423,455,467,489,509,548,661,682,730,732,764,788,827,837,867,870,907,947,974,991,
490,
116,124,125,194,210,491,616,698,786,833,908,
98,192,492,
493,
168,494,734,
250,495,
238,496,778,
32,117,140,148,212,254,337,347,388,427,477,497,507,534,538,549,554,561,569,580,587,622,651,663,673,759,794,796,805,989,
28,187,205,215,226,268,287,443,478,498,515,525,535,604,676,679,687,711,740,804,818,844,852,856,965,
62,99,257,326,341,355,387,499,512,593,752,767,862,901,902,
500,
501,624,946,
5,138,159,182,259,285,322,405,479,502,543,948,
401,503,801,
21,48,52,58,72,126,149,249,279,418,438,504,508,533,627,638,654,666,691,798,820,822,887,931,938,
54,90,154,242,357,413,421,463,505,521,522,783,784,785,789,825,850,913,973,999,
4,243,246,464,506,516,728,958,
32,117,140,148,212,254,337,347,388,427,477,497,507,534,538,549,554,561,569,580,587,622,651,663,673,759,794,796,805,989,
48,52,58,126,149,249,418,438,504,508,533,627,638,654,798,820,822,887,931,938,
2,23,45,209,281,296,346,370,386,398,399,423,455,467,489,509,548,661,682,730,732,764,788,827,837,867,870,907,947,974,991,
62,63,326,341,387,510,634,862,
115,116,124,146,194,210,269,290,299,511,551,741,749,786,833,846,884,895,906,977,
62,99,257,326,341,355,375,387,499,512,593,752,767,862,901,902,
9,19,22,25,47,67,78,82,91,94,110,131,139,145,166,190,198,202,203,224,229,233,256,273,301,305,313,323,336,358,361,366,397,409,411,431,432,439,442,445,446,447,468,469,513,519,526,542,544,596,599,600,623,628,646,647,652,667,683,684,703,733,750,758,761,770,829,845,847,861,877,883,888,899,917,935,961,986,988,
77,85,95,122,123,134,197,219,239,251,376,384,514,530,601,603,619,633,685,704,737,743,
28,187,205,215,226,268,287,443,478,498,515,525,535,604,676,679,687,711,740,804,818,844,852,856,965,
506,516,766,
136,410,517,639,834,903,
19,25,49,67,78,82,89,91,94,110,127,131,145,151,170,190,198,202,203,224,232,248,256,300,301,302,323,336,358,361,366,397,431,432,439,442,445,446,447,468,469,518,536,542,544,562,596,600,612,614,628,652,667,683,684,703,733,746,761,828,829,847,861,868,877,880,917,935,961,986,988,
9,22,47,139,166,224,229,233,256,273,305,313,323,361,409,411,446,454,513,519,526,527,599,623,628,646,647,653,684,750,758,761,770,845,861,883,888,899,935,
520,
54,90,154,242,357,413,421,463,505,521,522,783,784,785,789,825,850,973,999,
54,90,154,242,357,413,421,463,505,521,522,783,784,785,789,825,850,913,973,999,
523,
193,425,524,586,589,725,760,795,954,
28,187,205,215,226,268,287,443,478,498,515,525,535,604,676,679,687,711,740,804,818,844,852,856,965,
9,19,22,25,47,78,82,91,94,110,131,139,145,166,190,198,202,203,224,229,233,256,273,301,305,313,323,336,358,361,366,397,409,411,431,432,439,442,445,446,447,454,468,469,513,519,526,542,544,596,599,600,623,628,646,647,652,667,683,684,703,733,750,758,761,770,829,845,847,861,877,883,888,899,917,935,961,986,988,
87,121,139,233,519,527,528,599,646,653,758,845,
32,87,121,140,388,477,527,528,587,653,659,686,759,795,849,989,
171,180,237,277,377,378,416,529,531,553,560,588,624,640,657,680,712,726,739,768,769,803,835,920,943,946,981,
77,85,95,122,123,134,197,219,239,251,376,384,514,530,601,603,619,633,685,704,737,743,
171,180,237,277,377,378,416,529,531,553,560,588,624,640,657,680,712,726,739,768,769,803,835,920,943,946,981,
55,430,532,
48,52,58,72,126,149,220,249,279,418,438,504,508,533,627,638,654,666,691,798,820,822,887,931,938,
117,254,427,477,497,507,534,538,549,554,569,580,587,622,759,805,
28,187,205,215,226,268,287,443,478,498,515,525,535,604,676,679,687,711,740,804,818,844,852,856,965,
19,67,82,89,91,94,110,127,131,170,190,198,202,203,220,224,232,256,300,316,358,365,397,439,447,473,518,536,542,544,562,612,614,666,733,738,746,828,847,877,880,917,923,940,961,
33,321,406,537,573,582,707,
32,117,140,148,164,212,337,347,388,427,477,497,507,534,538,549,554,561,569,580,587,651,663,673,695,759,794,796,805,989,
539,944,
540,699,782,860,
160,290,329,541,552,571,572,650,665,706,831,846,881,910,
19,25,47,49,67,78,82,89,91,94,110,127,131,145,151,170,190,198,202,203,224,232,233,256,300,301,302,323,358,361,365,366,397,431,432,439,442,445,446,447,468,469,473,513,518,526,536,542,544,562,596,599,600,612,614,623,628,652,667,683,684,703,733,746,750,761,828,829,845,847,861,868,877,880,917,923,935,940,961,986,988,
5,138,159,182,259,285,322,405,479,481,502,543,724,948,
19,25,47,49,67,78,82,89,91,94,110,127,131,145,151,170,190,198,202,203,224,232,233,256,300,301,302,323,358,361,366,397,431,432,439,442,445,446,447,468,469,513,518,526,536,542,544,562,596,599,600,612,614,623,628,652,667,683,684,703,733,746,750,761,828,829,845,847,861,868,877,880,917,935,961,986,988,
545,
191,353,546,925,964,
263,413,547,575,602,656,765,913,
2,23,45,209,281,296,346,370,386,398,399,423,455,467,489,509,548,661,682,730,732,764,788,827,837,867,870,907,947,991,
32,117,140,148,212,347,388,427,477,497,507,534,538,549,554,569,580,587,651,673,759,794,796,805,
35,56,218,550,747,
115,146,290,299,511,551,741,749,884,906,
116,124,160,290,299,329,541,552,572,608,665,706,786,831,833,846,895,910,
171,180,237,277,377,378,416,529,531,553,560,588,624,640,657,680,712,726,739,768,769,803,835,920,943,946,981,
27,76,87,117,140,148,193,212,227,310,347,419,425,427,477,497,507,534,538,549,554,569,580,586,587,651,659,673,686,725,759,760,794,795,805,840,849,954,
555,
42,45,75,201,223,230,283,306,319,320,334,460,465,556,570,579,668,674,678,682,729,736,802,832,836,853,864,900,907,937,949,974,
62,100,326,557,634,
558,
559,838,
171,180,237,277,377,378,416,529,531,553,560,588,624,640,657,680,712,726,739,768,769,803,835,920,943,946,981,
32,117,140,144,148,164,337,347,388,477,497,507,538,561,569,580,587,651,663,673,695,759,796,805,989,
19,49,67,78,82,89,91,94,110,127,131,145,170,190,198,202,203,220,224,232,256,300,301,316,358,365,397,432,439,447,468,473,518,536,542,544,562,612,614,666,733,738,746,828,829,847,877,880,917,923,940,961,
563,
7,105,219,255,266,408,564,
565,
129,350,374,566,787,
65,567,
289,475,568,
32,117,140,148,212,337,347,388,427,477,497,507,534,538,549,554,561,569,580,587,651,663,673,759,794,796,805,989,
201,223,283,306,334,460,465,556,570,668,674,678,729,736,802,832,836,853,900,937,949,
261,329,541,571,650,665,881,955,
116,124,160,290,299,329,541,552,572,608,665,706,786,831,833,846,895,910,
33,321,406,537,573,705,707,800,848,
104,574,
263,413,547,575,602,656,765,913,
6,60,118,186,219,255,429,576,595,926,
577,
41,42,106,488,578,579,864,897,990,998,
42,488,556,578,579,836,864,949,998,
32,117,140,148,212,347,388,427,477,497,507,534,538,549,554,561,569,580,587,651,673,759,794,796,805,
37,43,44,69,83,97,102,114,157,158,185,189,195,206,216,241,271,330,338,371,392,441,581,655,677,745,753,755,851,871,885,929,987,
33,321,537,582,
70,95,134,307,328,372,391,583,601,619,763,
584,
93,176,208,288,390,440,470,585,591,658,664,823,
27,76,193,212,227,310,419,425,477,524,554,586,587,659,686,725,759,760,795,840,849,954,
27,32,76,87,117,121,140,148,212,254,310,337,347,388,419,427,477,497,507,528,534,538,549,554,561,569,580,586,587,622,651,659,663,673,686,759,794,805,840,849,989,
171,180,237,277,350,377,378,416,529,531,553,560,588,624,640,657,680,712,726,739,768,769,803,835,920,943,946,981,
80,524,589,957,
590,792,941,
93,176,208,288,390,440,470,585,591,658,664,823,
592,
62,99,257,326,341,387,456,499,512,593,634,752,767,862,902,
83,136,161,185,217,282,372,594,753,903,
6,60,77,85,96,118,135,143,186,219,251,255,315,429,576,595,704,843,926,
19,47,78,82,89,94,110,131,145,190,198,202,203,224,233,256,323,358,361,366,431,432,442,447,469,513,518,526,542,544,596,599,623,652,667,683,684,703,733,750,761,845,861,868,935,961,986,988,
471,597,925,930,
55,153,428,598,611,
9,19,22,47,78,82,94,110,131,139,145,166,190,198,224,233,256,273,305,313,323,358,361,366,409,411,431,432,442,447,454,469,513,519,526,527,542,544,596,599,623,646,647,652,653,667,683,684,703,733,750,758,761,770,845,861,883,888,899,935,961,986,988,
19,25,47,67,78,82,89,91,94,110,131,145,190,198,202,203,224,256,300,301,323,336,358,397,432,439,445,446,447,468,513,518,526,542,544,600,612,623,628,684,733,746,829,847,877,880,917,935,961,
70,77,95,118,122,123,134,197,219,239,251,255,307,328,354,376,384,429,514,530,583,601,603,619,633,685,704,737,743,763,
263,413,547,575,602,656,765,913,
77,85,95,122,123,134,197,219,239,251,376,384,514,530,601,603,619,633,685,704,737,743,
28,187,205,215,226,268,287,443,478,498,515,525,535,604,676,679,687,711,740,804,818,844,852,856,965,
373,605,702,
155,191,606,854,855,962,964,
607,
552,572,608,625,706,831,893,910,
451,609,
111,269,396,610,626,977,
55,428,598,611,
19,25,67,78,82,89,91,94,110,127,131,145,170,190,198,202,203,220,224,232,256,300,301,316,323,358,365,397,432,439,445,446,447,468,473,518,536,542,544,562,600,612,614,623,628,666,684,733,738,746,828,829,847,877,880,917,923,935,940,961,
613,
49,67,91,94,110,127,131,151,170,190,198,203,224,232,300,301,358,365,369,397,447,468,473,518,536,542,544,562,612,614,733,738,746,813,828,829,847,877,880,917,923,940,
13,18,120,274,339,352,356,615,774,866,921,922,927,971,972,
116,124,125,194,210,491,616,698,786,833,846,908,
617,
172,618,635,
70,77,95,118,122,123,134,135,175,197,219,239,251,252,255,307,328,331,354,376,384,429,514,530,583,601,603,619,633,685,704,737,743,763,896,992,
137,240,241,272,402,620,754,987,
621,
117,254,427,497,507,534,587,622,805,
9,19,22,25,47,67,78,82,91,94,110,131,139,145,166,190,198,202,203,224,229,233,256,273,300,301,305,313,323,336,358,361,366,397,409,411,431,432,439,442,446,447,468,469,513,519,526,542,544,596,599,600,612,623,628,646,647,652,667,683,684,703,733,746,750,758,761,770,829,845,847,861,868,877,883,888,899,917,935,961,986,988,
129,162,171,180,237,277,350,374,377,378,416,501,529,531,553,560,588,624,640,657,680,712,726,739,768,769,787,803,835,920,924,943,945,946,981,
299,608,625,706,831,884,893,895,910,
111,269,396,610,626,
48,52,58,126,149,249,418,438,504,508,533,627,638,654,666,738,798,820,822,887,931,938,
9,19,25,47,67,78,82,89,91,94,110,131,145,166,190,198,202,203,224,229,256,273,300,301,323,336,358,397,409,432,439,445,446,447,468,513,518,519,526,542,544,600,612,623,628,646,684,733,746,758,770,829,847,877,880,888,899,917,935,961,
629,
630,
631,
101,130,380,458,632,671,911,
77,85,95,122,123,134,197,219,239,251,376,384,514,530,601,603,619,633,685,704,737,743,
62,100,257,280,341,387,456,510,557,593,634,767,862,
172,618,635,
5,177,207,259,260,285,295,359,405,480,636,648,948,969,983,
637,
48,52,58,72,126,149,220,249,279,316,418,438,473,504,508,533,627,638,654,666,691,738,798,820,822,887,931,938,
136,410,517,639,834,903,
171,180,237,277,377,378,416,529,531,553,560,588,624,640,657,680,712,726,739,768,769,803,835,920,943,946,981,
641,
642,
643,
188,389,420,474,644,821,
645,
9,22,47,139,166,229,233,256,273,305,313,323,361,409,411,446,454,513,519,526,527,599,623,628,646,647,653,684,750,758,761,770,845,883,888,899,
9,22,47,139,166,233,256,273,305,313,323,361,409,411,454,513,519,526,599,623,646,647,684,750,758,761,770,845,883,888,899,
182,207,259,359,405,636,648,
649,801,826,
8,261,267,329,541,571,650,665,881,955,
32,117,140,144,148,164,184,212,221,337,347,388,477,497,507,538,549,554,561,569,580,587,651,663,673,695,759,796,848,989,
19,47,78,82,89,94,110,131,145,190,198,224,233,256,323,358,361,366,431,432,442,447,469,513,518,526,542,544,596,599,623,652,667,683,684,703,733,750,761,845,861,868,935,961,986,988,
9,87,121,139,233,273,519,527,528,599,646,653,758,770,845,899,
21,48,52,58,72,126,149,249,279,418,438,504,508,533,627,638,654,666,691,798,820,822,887,931,938,
36,43,69,83,97,102,114,157,158,189,195,206,216,241,271,330,338,371,392,441,581,655,677,745,755,775,851,871,885,929,987,
263,294,413,547,575,602,656,765,913,
171,180,237,277,377,378,416,529,531,553,560,588,624,640,657,680,712,726,739,768,769,803,835,920,943,946,981,
93,176,208,288,390,440,470,585,591,658,664,823,
27,32,76,87,140,212,227,310,388,419,477,528,554,586,587,659,686,759,840,849,989,
10,140,144,164,221,222,424,453,487,660,695,824,858,959,
2,23,45,209,281,296,346,370,386,398,399,423,455,467,489,509,548,661,682,730,732,764,788,827,837,867,870,907,947,991,
662,
32,117,140,144,148,164,337,347,388,477,497,507,538,561,569,587,651,663,673,695,759,805,989,
93,176,208,288,390,440,470,585,591,658,664,823,
160,290,299,329,541,552,571,572,650,665,706,831,833,846,881,895,910,955,
48,58,67,72,126,127,170,190,202,203,220,232,249,300,316,365,369,438,439,473,504,533,536,562,612,627,638,654,666,738,746,798,820,828,880,923,938,940,
19,47,78,82,89,94,110,131,145,190,198,202,203,224,233,256,323,358,361,366,431,432,442,447,469,513,518,526,542,544,596,599,623,652,667,683,684,703,733,750,761,845,861,868,935,961,986,988,
201,223,283,306,334,460,465,556,570,668,674,678,729,736,802,832,836,853,900,937,949,
669,
670,
101,130,380,458,632,671,
8,125,267,672,
32,117,140,144,148,164,184,212,221,337,347,388,477,497,507,538,549,554,561,569,580,587,651,663,673,695,759,794,796,805,848,989,
201,223,283,306,334,460,465,556,570,668,674,678,729,736,802,832,836,853,900,937,949,
84,675,904,
28,162,187,205,215,226,268,287,443,478,498,515,525,535,604,676,679,687,711,740,804,818,844,852,856,965,
36,43,69,102,114,158,189,195,216,271,371,441,483,581,655,677,745,755,775,810,851,871,929,
201,223,283,306,334,460,465,556,570,668,674,678,729,736,802,832,836,853,900,937,949,
28,187,205,215,226,268,287,443,478,498,515,525,535,604,676,679,687,711,740,804,818,844,852,856,965,
171,180,237,277,377,378,416,529,531,553,560,588,624,640,657,680,712,726,739,768,769,803,835,920,943,946,981,
461,681,
2,23,45,75,209,230,281,296,319,320,346,370,386,399,423,455,467,488,489,509,548,556,661,682,730,732,764,779,788,827,836,837,867,870,907,947,974,991,998,
19,47,78,82,89,94,110,131,145,190,198,202,203,224,233,256,323,358,361,366,431,432,442,447,469,513,518,526,542,544,596,599,623,652,667,683,684,703,733,750,761,845,861,868,935,961,986,988,
9,19,22,25,47,67,78,82,89,91,94,110,131,139,145,166,190,198,202,203,224,229,233,256,273,300,301,305,313,323,336,358,361,366,397,409,411,431,432,439,442,445,446,447,468,469,513,518,519,526,542,544,596,599,600,612,623,628,646,647,652,667,683,684,703,733,746,750,758,761,770,829,845,847,861,868,877,880,883,888,899,917,935,961,986,988,
77,95,122,123,134,197,219,239,251,376,384,514,530,601,603,619,633,685,704,737,743,
27,32,76,87,140,193,212,227,310,388,419,425,477,528,554,586,587,659,686,725,759,760,795,840,849,954,989,
28,187,205,215,226,268,287,443,478,498,515,525,535,604,676,679,687,711,740,804,818,844,852,856,965,
688,
689,713,
3,53,85,143,264,367,452,690,782,790,830,843,859,860,
48,72,126,220,279,504,533,638,654,691,798,
692,
196,693,
156,694,930,
10,32,140,144,148,164,184,221,222,337,347,388,453,477,487,538,561,651,660,663,673,695,796,878,989,
21,41,106,181,360,437,474,696,773,897,990,
208,381,440,470,697,698,873,
208,381,440,470,491,616,697,698,873,908,
3,367,540,699,782,843,860,
96,135,186,315,368,383,700,
119,133,486,701,725,
373,605,702,
19,47,78,82,89,94,110,131,145,190,198,202,203,224,233,256,323,358,361,366,431,432,442,447,469,513,518,526,542,544,596,599,623,652,667,683,684,703,733,750,761,845,861,868,935,961,986,988,
77,85,95,96,122,123,134,197,219,239,251,331,376,384,514,530,595,601,603,619,633,685,704,737,743,
33,174,184,321,406,436,573,705,707,800,848,878,985,
160,329,541,552,572,608,625,665,706,831,895,910,
33,321,406,537,573,705,707,800,848,985,
708,
57,61,236,709,
710,
28,187,205,215,226,268,287,443,478,498,515,525,535,604,676,679,687,711,740,804,818,844,852,856,965,
171,180,237,277,377,378,416,529,531,553,560,588,624,640,657,680,712,726,739,768,769,803,835,920,943,946,981,
689,713,
714,
715,
716,
717,
718,
719,
720,
274,352,721,774,799,866,921,936,971,
92,722,976,
304,723,
5,65,159,177,481,543,724,969,
27,76,193,212,227,310,419,425,524,554,586,686,701,725,760,795,849,954,
171,180,237,277,377,378,416,529,531,553,560,588,624,640,657,680,712,726,739,768,769,803,835,920,943,946,981,
727,
4,243,246,464,506,728,958,
201,223,283,306,334,460,465,556,570,668,674,678,729,736,802,832,836,853,900,937,949,
2,23,45,209,281,296,346,370,386,398,399,423,455,467,489,509,548,661,682,730,732,764,788,827,837,867,870,907,947,991,
731,
2,23,45,209,281,296,346,370,386,398,399,423,455,467,489,509,548,661,682,730,732,764,788,827,837,867,870,907,947,974,991,
19,25,47,67,78,82,89,91,94,110,127,131,145,170,190,198,202,203,224,232,233,256,300,301,316,323,358,361,365,366,397,431,432,439,442,445,446,447,468,469,473,513,518,526,536,542,544,562,596,599,600,612,614,623,628,652,667,683,684,703,733,738,746,750,761,828,829,845,847,861,868,877,880,917,935,940,961,986,988,
168,213,494,734,
735,
201,223,283,306,334,460,465,556,570,668,674,678,729,736,802,832,836,853,900,937,949,
77,95,122,123,134,135,197,219,239,251,252,328,331,376,384,514,530,601,603,619,633,685,704,737,743,896,992,
67,72,94,110,126,127,131,170,190,198,202,203,220,232,300,316,365,369,439,473,536,562,612,614,627,638,666,733,738,746,828,847,880,923,940,
171,180,237,277,377,378,416,529,531,553,560,588,624,640,657,680,712,726,739,768,769,803,835,920,943,946,981,
28,187,205,215,226,268,287,443,478,498,515,525,535,604,676,679,687,711,740,804,818,844,852,856,965,
115,146,299,511,551,741,749,884,906,
742,
77,85,95,122,123,134,197,219,239,251,376,384,514,530,601,603,619,633,685,704,737,743,
744,
37,43,44,69,83,97,102,114,157,158,185,189,195,206,216,241,271,282,330,338,371,392,441,581,655,677,745,753,755,851,871,885,929,987,
19,25,67,78,82,89,91,94,110,127,131,145,170,190,198,202,203,220,224,232,256,300,301,316,323,358,365,397,432,439,445,446,447,468,473,518,536,542,544,562,600,612,614,623,628,666,684,733,738,746,828,829,847,877,880,917,923,935,940,961,
35,56,218,550,747,808,
748,
115,146,290,299,511,551,741,749,884,906,
9,19,22,47,78,82,94,110,131,139,145,166,190,198,202,203,224,233,256,273,305,313,323,358,361,366,409,411,431,432,442,447,454,469,513,519,526,542,544,596,599,623,646,647,652,667,683,684,703,733,750,758,761,770,845,861,877,883,888,899,935,961,986,988,
30,104,178,179,382,448,457,751,
99,257,452,456,499,512,593,752,767,902,
37,44,69,83,136,157,185,206,217,282,338,410,441,581,594,745,753,885,903,
137,189,240,241,271,272,392,402,620,754,987,
36,43,44,69,102,114,158,189,195,206,216,271,371,441,581,655,677,745,755,775,851,871,885,929,
466,756,
15,142,342,757,
9,22,47,139,166,224,229,233,256,273,305,313,323,361,409,411,446,454,513,519,526,527,599,623,628,646,647,653,684,750,758,761,770,845,861,883,888,899,935,
27,32,87,117,140,148,212,310,337,347,388,419,427,477,497,507,528,534,538,549,554,561,569,580,586,587,651,659,663,673,686,759,794,805,840,849,989,
27,76,193,212,227,310,425,524,554,586,686,725,760,795,849,954,
9,19,22,47,78,82,89,94,110,131,139,145,166,190,198,202,203,224,233,256,273,305,313,323,358,361,366,409,411,431,432,442,447,469,513,518,519,526,542,544,596,599,623,646,647,652,667,683,684,703,733,750,758,761,770,845,861,868,883,888,899,935,961,986,988,
762,
70,95,118,134,307,328,354,372,391,429,583,601,619,763,
2,23,45,209,281,296,346,370,386,398,399,423,455,467,489,509,548,661,682,730,732,764,788,827,837,867,870,907,947,974,991,
263,413,547,575,602,656,765,913,
294,295,516,766,
62,99,257,326,341,387,456,499,512,593,634,752,767,862,
171,180,237,277,377,378,416,529,531,553,560,588,624,640,657,680,712,726,739,768,769,803,835,920,943,946,981,
171,180,237,277,377,378,416,529,531,553,560,588,624,640,657,680,712,726,739,768,769,803,835,920,943,946,981,
9,22,47,139,166,229,233,256,273,305,313,323,361,409,411,446,454,513,519,526,599,623,628,646,647,653,684,750,758,761,770,845,883,888,899,
17,59,292,349,444,771,
772,816,
21,41,106,181,360,437,474,696,773,897,990,
11,13,18,120,274,325,339,352,356,615,721,774,866,921,922,927,971,972,
36,102,114,216,655,677,755,775,851,
776,
777,
238,496,778,
23,45,75,88,230,278,319,320,682,779,907,974,
119,780,
208,470,781,875,
3,143,367,452,540,690,699,782,790,843,859,860,
54,90,154,242,357,413,421,463,505,521,522,783,784,785,789,825,850,913,973,999,
54,90,154,242,357,421,463,505,521,522,783,784,785,789,825,850,973,999,
54,90,154,242,357,413,421,463,505,521,522,783,784,785,789,825,850,973,999,
116,124,125,146,160,194,210,290,299,440,470,491,511,552,572,616,786,831,833,846,895,908,910,
129,162,350,374,377,566,624,787,920,924,945,
2,23,45,209,281,296,346,370,386,398,399,423,455,467,489,509,548,661,682,730,732,764,788,827,837,867,870,907,947,974,991,
54,90,154,242,357,413,421,463,505,521,522,783,784,785,789,825,850,913,973,999,
3,143,367,690,782,790,843,859,860,
46,64,74,167,225,247,340,363,364,450,472,483,484,791,810,839,869,914,915,966,996,
14,590,792,934,941,
793,
117,140,148,212,477,497,507,538,549,554,569,580,587,673,759,794,796,
27,32,76,87,193,212,227,310,419,425,524,528,554,586,686,725,760,795,849,954,
32,117,144,148,164,212,337,347,497,507,538,549,561,569,580,651,673,695,794,796,805,
0,797,
21,48,52,58,72,126,149,249,279,418,438,504,508,533,627,638,654,666,691,798,820,822,887,931,938,
274,352,721,799,866,921,936,971,
33,174,184,337,406,436,573,705,707,800,848,878,985,
401,503,649,801,826,
201,223,283,306,334,460,465,556,570,668,674,678,729,736,802,832,836,853,900,937,949,
171,180,237,277,377,378,416,529,531,553,560,588,624,640,657,680,712,726,739,768,769,803,835,920,943,946,981,
28,162,187,205,215,226,268,287,443,478,498,515,525,535,604,676,679,687,711,740,804,818,844,852,856,965,
32,117,140,148,212,254,347,388,427,477,497,507,534,538,549,554,561,569,580,587,622,663,673,759,796,805,989,
806,
807,
35,56,218,747,808,
182,809,
46,167,225,247,340,472,483,484,677,791,810,839,869,914,915,966,996,
20,811,
49,248,302,369,433,812,
49,91,151,232,301,369,397,468,473,614,813,828,829,877,917,923,940,
57,814,
103,135,252,331,435,815,896,992,
772,816,
817,997,
28,162,187,205,215,226,268,287,443,478,498,515,525,535,604,676,679,687,711,740,804,818,844,852,856,965,
819,
21,48,52,58,72,126,149,220,249,279,418,438,504,508,533,627,638,654,666,798,820,822,887,931,938,
106,188,389,420,474,644,821,
21,48,52,58,126,149,179,249,369,418,433,438,504,508,533,627,638,654,798,820,822,887,931,938,
93,176,208,288,390,440,470,585,591,658,664,823,
221,424,660,824,
54,90,154,242,357,413,421,463,505,521,522,783,784,785,789,825,850,913,973,999,
66,649,801,826,
2,23,45,209,281,296,346,370,386,398,399,423,455,467,489,509,548,661,682,730,732,764,788,827,837,867,870,907,947,991,
49,67,72,91,94,110,127,131,170,190,198,202,203,220,224,232,300,301,316,358,365,369,397,439,447,468,473,518,536,542,544,562,612,614,666,733,738,746,813,828,829,847,877,880,917,923,940,961,
19,25,47,49,67,78,82,89,91,94,110,127,131,145,151,170,190,198,202,203,224,232,256,300,301,302,323,358,397,432,439,445,446,447,468,513,518,526,542,544,562,600,612,614,623,628,684,733,746,813,828,829,847,877,880,917,935,961,
53,143,264,452,690,830,859,
116,124,160,290,299,329,541,552,572,608,625,665,706,786,831,833,846,895,910,
201,223,283,306,334,460,465,556,570,668,674,678,729,736,802,832,836,853,900,937,949,
116,124,146,160,194,210,290,299,329,491,511,552,572,616,665,786,831,833,846,895,910,
410,517,639,834,
171,180,237,277,377,378,416,529,531,553,560,588,624,640,657,680,712,726,739,768,769,803,835,920,943,946,981,
45,75,201,223,230,283,306,319,320,334,460,465,556,570,579,668,674,678,682,729,736,802,832,836,853,864,900,907,937,949,974,
2,23,45,209,281,296,346,370,386,398,399,423,455,467,489,509,548,661,682,730,732,764,788,827,837,867,870,907,947,974,991,
559,838,
46,167,225,247,340,450,466,472,483,484,791,810,839,869,914,915,966,996,
27,76,87,140,212,227,310,419,477,554,586,587,659,686,759,840,849,
482,841,842,
482,841,842,
3,143,367,452,595,690,699,782,790,843,859,860,
28,187,205,215,226,268,287,443,478,498,515,525,535,604,676,679,687,711,740,804,818,844,852,856,965,
9,19,22,47,78,82,94,110,131,139,145,166,190,198,202,203,224,233,256,273,305,313,323,358,361,366,409,411,431,432,442,447,454,469,513,519,526,527,542,544,596,599,623,646,647,652,653,667,683,684,703,733,750,758,761,770,845,861,883,888,899,935,961,986,988,
116,124,146,160,194,210,261,267,290,299,329,511,541,552,572,616,665,786,831,833,846,895,910,955,
19,25,47,67,78,82,89,91,94,110,127,131,145,170,190,198,202,203,224,232,256,300,301,316,323,336,358,365,397,432,439,445,446,447,468,473,513,518,526,536,542,544,562,600,612,614,623,628,684,733,738,746,828,829,847,877,880,917,923,935,940,961,
33,148,184,321,337,347,406,424,573,651,673,705,707,800,848,878,
27,32,76,87,121,140,193,212,227,310,388,419,425,477,528,554,586,587,659,686,725,759,760,795,840,849,954,989,
54,90,154,242,357,421,463,505,521,522,783,784,785,789,825,850,973,999,
36,37,43,44,69,102,114,157,158,189,195,206,216,271,371,441,581,655,677,745,755,775,851,871,885,929,
28,162,187,205,215,226,268,287,443,478,498,515,525,535,604,676,679,687,711,740,804,818,844,852,856,965,
201,223,283,306,334,460,465,556,570,668,674,678,729,736,802,832,836,853,900,937,949,
155,606,854,
155,343,471,606,855,964,
28,187,205,215,226,268,287,443,478,498,515,525,535,604,676,679,687,711,740,804,818,844,852,856,965,
16,68,857,
10,222,250,453,487,660,858,959,
3,53,143,264,367,452,690,782,790,830,843,859,860,
3,143,367,452,540,690,699,782,790,843,859,860,
19,22,47,78,82,89,94,110,131,145,166,190,198,202,203,224,233,256,305,323,358,361,366,431,432,442,447,469,513,518,519,526,542,544,596,599,623,652,667,683,684,703,733,750,758,761,845,861,868,888,899,935,961,986,988,
62,99,100,257,280,326,341,387,456,499,510,512,593,634,767,862,
863,
42,488,556,578,579,836,864,949,998,
865,
11,13,18,120,274,325,339,352,356,615,721,774,799,866,921,922,927,936,971,972,
2,23,45,209,281,296,346,370,386,398,399,423,455,467,489,509,548,661,682,730,732,764,788,827,837,867,870,907,947,991,
19,78,82,89,94,110,131,145,190,198,224,256,323,358,361,366,431,432,442,447,469,518,542,544,596,623,652,667,683,684,703,733,761,861,868,935,961,986,988,
46,64,74,167,225,247,340,363,364,450,483,484,791,810,839,869,914,915,966,996,
2,23,45,209,281,296,346,370,386,398,399,423,455,467,489,509,548,661,682,730,732,764,788,827,837,867,870,907,947,991,
37,43,44,69,83,97,102,114,157,158,161,189,195,206,216,241,271,330,338,371,392,441,581,655,677,745,755,851,871,885,929,987,
308,872,
208,381,440,470,697,698,873,
874,
781,875,
876,
19,25,47,49,67,78,82,89,91,94,110,127,131,145,151,170,190,198,202,203,224,232,256,300,301,302,323,358,397,432,439,445,446,447,468,513,518,526,536,542,544,562,600,612,614,623,628,684,733,746,750,813,828,829,847,877,880,917,935,961,
144,164,174,184,337,406,436,695,705,800,848,878,985,
879,
19,25,67,78,82,89,91,94,110,127,131,145,170,190,198,202,203,220,224,232,256,300,301,316,358,365,397,432,439,445,446,447,468,473,518,536,542,544,562,600,612,614,628,666,684,733,738,746,828,829,847,877,880,917,923,935,940,961,
261,329,541,571,650,665,881,955,
882,
9,22,47,139,166,233,256,273,305,313,323,361,409,411,454,513,519,526,599,623,646,647,684,750,758,761,770,845,883,888,899,
115,146,299,511,551,625,741,749,884,893,906,
36,37,38,43,44,69,83,97,102,114,136,157,158,161,185,189,195,206,241,271,282,330,338,371,392,441,581,655,745,753,755,851,871,885,903,929,987,
886,
48,52,58,126,149,249,418,438,504,508,533,627,638,654,798,820,822,887,931,938,
9,22,47,94,139,166,224,229,233,256,273,305,313,323,361,409,411,446,454,513,519,526,599,623,628,646,647,684,750,758,761,770,845,861,883,888,899,935,
889,
297,890,
111,891,
244,892,953,
299,608,625,884,893,895,
289,475,894,994,
116,124,146,160,194,210,290,299,329,511,552,572,625,665,706,786,831,833,846,893,895,910,
103,122,135,175,252,331,435,619,737,815,896,992,
40,41,106,113,181,311,317,360,417,437,578,696,773,897,933,990,
96,135,315,368,898,
9,22,47,139,166,224,229,233,256,273,305,313,323,361,409,411,446,454,513,519,526,599,623,628,646,647,653,684,750,758,761,770,845,861,883,888,899,935,
201,223,283,306,334,460,465,556,570,668,674,678,729,736,802,832,836,853,900,937,949,
99,234,326,355,375,499,512,901,
99,326,499,512,593,752,902,
37,83,136,185,206,217,282,410,517,594,639,753,885,903,
84,675,904,
905,
115,146,262,299,511,551,741,749,884,906,
2,23,45,75,209,230,281,296,319,320,346,370,386,399,423,455,467,488,489,509,548,556,661,682,730,732,764,779,788,827,836,837,867,870,907,947,974,991,998,
124,125,194,210,491,616,698,786,908,
362,909,
116,124,160,299,329,541,552,572,608,625,665,706,786,831,833,846,895,910,
380,632,911,
912,
54,90,242,263,413,463,505,522,547,575,602,656,765,783,789,825,913,
46,64,74,167,225,247,340,363,364,450,483,484,791,810,839,869,914,915,966,996,
46,64,74,167,225,247,340,363,364,450,483,484,791,810,839,869,914,915,966,996,
916,
19,25,47,49,67,78,82,89,91,94,110,127,131,145,151,170,190,198,202,203,224,232,256,300,301,302,323,358,397,432,439,445,446,447,468,513,518,526,536,542,544,562,600,612,614,623,628,684,733,746,813,828,829,847,877,880,917,935,961,
918,
150,919,
171,180,237,277,350,377,378,416,529,531,553,560,588,624,640,657,680,712,726,739,768,769,787,803,835,920,943,945,946,981,
13,18,120,274,339,352,356,615,721,774,799,866,921,922,927,936,971,972,
13,18,120,274,339,352,356,615,774,866,921,922,927,971,972,
67,94,110,127,131,170,190,198,202,203,220,232,300,316,365,369,439,447,473,536,542,562,612,614,666,738,746,813,828,847,880,923,940,
162,350,374,624,787,924,945,
471,546,597,925,930,
6,60,118,186,219,255,576,595,926,
13,18,120,274,339,352,356,615,774,866,921,922,927,971,972,
26,928,
36,43,44,69,83,97,102,114,137,157,158,189,195,206,216,241,271,330,338,371,392,441,581,655,677,745,755,851,871,885,929,987,
107,597,694,925,930,
48,52,58,126,149,249,418,438,504,508,533,627,638,654,798,820,822,887,931,938,
932,
40,113,311,317,417,897,933,
792,934,941,
9,19,22,25,47,49,67,78,82,89,91,94,110,131,145,166,190,198,202,203,224,233,256,273,300,301,305,323,336,358,361,366,397,409,431,432,439,442,445,446,447,468,469,513,518,519,526,542,544,596,599,600,612,623,628,652,667,683,684,703,733,746,750,758,761,829,845,847,861,868,877,880,888,899,917,935,961,986,988,
274,352,721,799,866,921,936,971,
201,223,283,306,334,460,465,556,570,668,674,678,729,736,802,832,836,853,900,937,949,
21,48,52,58,126,149,249,418,438,504,508,533,627,638,654,666,798,820,822,887,931,938,
304,939,
67,94,110,127,131,170,190,198,202,203,220,232,300,316,365,439,447,473,536,542,562,612,614,666,733,738,746,813,828,847,880,923,940,
14,590,792,934,941,
404,942,
171,180,237,277,377,378,416,529,531,553,560,588,624,640,657,680,712,726,739,768,769,803,835,920,943,946,981,
539,944,
162,350,374,377,624,787,920,924,945,
171,180,237,277,377,378,416,501,529,531,553,560,588,624,640,657,680,712,726,739,768,769,803,835,920,943,946,981,
2,23,45,209,281,296,346,370,386,398,399,423,455,467,489,509,548,661,682,730,732,764,788,827,837,867,870,907,947,974,991,
5,138,159,177,207,259,285,295,405,480,502,543,636,948,969,983,
42,201,223,283,306,334,460,465,556,570,579,668,674,678,729,736,802,832,836,853,864,900,937,949,
950,
951,
236,952,
244,892,953,
27,76,193,212,310,425,524,554,586,686,725,760,795,849,954,
8,261,267,329,571,650,665,846,881,955,
76,193,956,
589,957,
4,243,246,464,506,728,958,
10,222,250,453,487,660,858,959,
15,960,
19,25,47,67,78,82,89,91,94,110,127,131,145,170,190,198,202,203,224,232,233,256,300,301,323,358,361,366,397,431,432,439,442,445,446,447,468,469,513,518,526,536,542,544,562,596,599,600,612,623,628,652,667,683,684,703,733,746,750,761,828,829,845,847,861,868,877,880,917,935,961,986,988,
155,191,200,353,385,606,962,964,
963,
155,191,353,385,471,546,606,855,962,964,
28,187,205,215,226,268,287,443,478,498,515,525,535,604,676,679,687,711,740,804,818,844,852,856,965,
46,167,225,247,340,450,472,483,484,791,810,839,869,914,915,966,996,
311,967,
968,
5,65,177,207,259,260,285,295,405,480,481,636,724,948,969,983,
970,
13,18,120,274,339,352,356,615,721,774,799,866,921,922,927,936,971,972,
13,18,120,274,339,352,356,615,774,866,921,922,927,971,972,
54,90,154,242,357,421,463,505,521,522,783,784,785,789,825,850,973,999,
23,45,75,209,230,278,296,319,320,370,386,399,423,467,488,489,509,556,682,732,764,779,788,836,837,907,947,974,991,998,
476,975,
92,722,976,
269,511,610,977,
978,
979,
980,
171,180,237,277,377,378,416,529,531,553,560,588,624,640,657,680,712,726,739,768,769,803,835,920,943,946,981,
982,
5,177,207,259,260,285,295,405,480,636,948,969,983,
348,984,
174,436,705,707,800,878,985,
19,47,78,82,89,94,110,131,145,190,198,224,233,256,323,358,361,366,431,432,442,447,469,513,518,526,542,544,596,599,623,652,667,683,684,703,733,750,761,845,861,868,935,961,986,988,
43,44,69,83,97,137,157,158,161,189,195,241,271,330,338,371,391,392,441,581,620,655,745,754,871,885,929,987,
19,47,78,82,89,94,110,131,145,190,198,202,203,224,233,256,323,358,361,366,431,432,442,447,469,513,518,526,542,544,596,599,623,652,667,683,684,703,733,750,761,845,861,868,935,961,986,988,
10,32,117,140,144,148,164,222,337,347,388,477,487,497,507,528,538,561,569,587,651,659,663,673,686,695,759,805,849,989,
40,41,106,181,360,437,578,696,773,897,990,
2,23,45,209,281,296,346,370,386,398,399,423,455,467,489,509,548,661,682,730,732,764,788,827,837,867,870,907,947,974,991,
103,122,135,175,252,331,435,619,737,815,896,992,
993,
265,894,994,995,
265,994,995,
46,167,225,247,340,450,472,483,484,791,810,839,869,914,915,966,996,
817,997,
2,42,45,488,578,579,682,864,907,974,998,
54,90,154,242,357,421,463,505,521,522,783,784,785,789,825,850,973,999,
