0,
1,
2,
3,
4,
5,544,847,
6,
7,
8,
9,
10,
11,
12,
13,
14,
15,
16,
17,
18,
19,
20,
21,
22,
23,
24,
25,
26,484,
27,
28,
29,
30,
31,
32,147,554,662,721,
33,
34,140,174,
35,
36,76,196,199,275,313,336,352,366,495,581,598,599,605,629,681,713,738,748,762,782,783,864,870,916,920,959,994,
37,
38,
39,833,
40,
41,
42,
43,
44,
45,
46,
47,
48,517,
49,
50,
51,289,
52,
53,
54,
55,628,676,
56,58,79,244,
57,
56,58,158,244,408,
59,
60,
61,113,580,728,756,869,925,953,
62,138,166,267,313,495,543,581,598,599,628,629,630,713,738,762,782,783,805,864,916,920,959,994,
63,
64,
65,
66,
67,
68,
69,
70,580,728,869,
71,
72,
73,
74,
75,
36,76,166,203,313,366,495,581,713,738,782,783,959,
77,
78,
56,79,
80,429,
81,
82,
83,
84,175,
85,
86,470,954,
87,
88,
89,
90,
91,
92,150,
93,
94,
95,
96,601,
97,242,401,
98,
99,
100,
101,
102,
103,
104,
105,
106,
107,
108,
109,
110,
111,
112,
61,113,756,
114,
115,
116,969,
117,
118,
119,
120,
121,
122,
123,
124,
125,
126,756,
127,960,
128,
129,519,710,
130,
131,
132,
133,
134,
135,
136,141,
137,
62,138,196,199,313,366,495,581,598,599,628,629,630,713,762,783,864,
139,
34,140,174,422,
136,141,601,873,
142,
143,
144,
145,
146,
32,147,554,662,721,
148,
149,
92,150,329,703,962,
151,
152,
153,
154,
155,
156,
157,
58,158,244,408,
159,
160,
161,
162,
163,
164,
165,
62,76,166,199,267,352,495,581,598,599,628,630,783,864,916,920,
167,
168,
169,
170,
171,
172,
173,
34,140,174,406,422,
84,175,412,
176,
177,
178,
179,
180,
181,
182,
183,
184,
185,
186,
187,
188,
189,
190,
191,
192,
193,
194,
195,
36,138,196,237,267,313,336,352,366,495,598,599,628,629,630,713,727,762,920,994,
197,
198,
36,138,166,199,203,313,336,352,495,605,713,738,748,782,783,823,864,870,881,916,920,994,
200,
201,
202,
76,199,203,267,598,762,783,823,
204,652,
205,
206,
207,359,888,
208,
209,
210,
211,
212,
213,
214,
215,
216,
217,
218,
219,
220,
221,
222,
223,
224,
225,
226,
227,
228,425,489,695,
229,
230,
231,
232,
233,
234,
235,
236,
196,237,267,352,581,599,748,805,916,920,959,994,
238,
239,
240,
241,
97,242,
243,
56,58,158,244,408,
245,
246,
247,
248,
249,
250,
251,
252,294,652,
253,
254,
255,
256,517,989,
257,
258,
259,
260,710,
261,
262,
263,
264,
265,
266,
62,166,196,203,237,267,336,352,495,543,581,599,630,713,738,783,881,916,920,959,994,
268,
269,
270,
271,
272,
273,
274,
36,275,352,806,
276,
277,
278,
279,
280,
281,
282,
283,
284,
285,
286,
287,
288,
51,289,
290,
291,
292,
293,
252,294,
295,
296,
297,
298,
299,
300,
301,
302,
303,
304,
305,
306,
307,
308,
309,
310,
311,
312,
36,62,76,138,196,199,313,336,352,366,495,581,598,599,605,629,713,727,762,782,783,823,864,870,920,959,994,
314,
315,
316,
317,794,
318,
319,359,855,
320,
321,
322,
323,
324,
325,
326,
327,954,
328,
150,329,
330,369,
331,
332,
333,
334,
335,
36,196,199,267,313,336,352,495,581,598,630,713,727,762,782,783,870,881,916,920,959,
337,
338,
339,
340,
341,
342,
343,
344,
345,
346,
347,
348,
349,
350,
351,
36,166,196,199,237,267,275,313,336,352,495,543,581,598,599,629,738,748,762,782,783,805,823,864,870,916,920,959,994,
353,
354,
355,
356,
357,
358,
207,319,359,645,
360,
361,603,
362,
363,
364,470,603,862,
365,
36,76,138,196,313,366,581,599,629,713,762,783,823,864,870,
367,
368,
330,369,
370,
371,
372,
373,
374,
375,
376,
377,
378,
379,
380,
381,
382,
383,
384,
385,
386,
387,
388,
389,
390,
391,
392,
393,
394,652,
395,
396,
397,
398,
399,
400,
97,401,
402,
403,
404,
405,
174,406,
407,
58,158,244,408,668,
409,
410,634,
411,
175,412,523,
413,
414,
415,
416,
417,
418,
419,639,
420,
421,
140,174,422,877,
423,
424,
228,425,489,
426,
427,
428,
80,429,
430,
431,
432,538,954,962,
433,
434,
435,
436,
437,
438,
439,
440,
441,
442,
443,
444,
445,
446,
447,
448,
449,
450,
451,
452,
453,
454,
455,
456,
457,
458,
459,
460,
461,
462,
463,
464,
465,
466,
467,
468,
469,
86,364,470,538,548,603,862,954,
471,
472,
473,
474,
475,
476,
477,
478,
479,
480,
481,
482,
483,
26,484,763,885,
485,
486,
487,
488,
228,425,489,
490,
491,
492,
493,
494,
36,62,76,138,166,196,199,267,313,336,352,495,581,598,599,605,629,630,713,727,738,762,782,783,823,864,870,916,920,959,994,
496,
497,
498,
499,
500,
501,
502,
503,
504,
505,
506,
507,
508,
509,
510,
511,
512,
513,
514,
515,
516,
48,256,517,
518,
129,519,
520,
521,
522,957,969,
412,523,
524,
525,
526,
527,
528,
529,
530,
531,
532,
533,
534,
535,
536,
537,
432,470,538,954,962,
539,
540,
541,
542,
62,267,352,543,581,598,599,630,738,806,959,994,
5,544,847,
545,
546,
547,
470,548,603,862,
549,
550,
551,
552,
553,570,703,970,
32,147,554,662,721,
555,
556,
557,
558,
559,578,
560,
561,
562,
563,
564,
565,
566,
567,
568,
569,
553,570,
571,
572,
573,
574,
575,
576,
577,
559,578,
579,
61,70,580,728,869,925,
36,62,76,138,166,237,267,313,336,352,366,495,543,581,599,605,628,629,630,713,738,762,782,783,864,870,881,916,920,959,994,
582,
583,
584,
585,
586,
587,
588,
589,
590,
591,
592,
593,
594,
595,
596,
597,
36,62,138,166,196,203,313,336,352,495,543,598,599,628,629,630,713,727,738,783,823,864,916,920,959,994,
36,62,138,166,196,237,267,313,352,366,495,543,581,598,599,605,628,629,630,713,738,748,762,782,783,823,864,870,916,920,959,994,
600,
96,141,601,873,957,
602,
361,364,470,548,603,
604,
36,199,313,495,581,599,605,782,783,870,920,959,994,
606,
607,
608,
609,
610,
611,
612,
613,
614,
615,
616,
617,
618,
619,
620,
621,
622,
623,
624,
625,
626,
627,
55,62,138,166,196,581,598,599,628,629,630,762,782,864,
36,62,138,196,313,352,366,495,581,598,599,628,629,713,727,738,762,782,783,823,864,870,920,994,
62,138,166,196,267,336,495,543,581,598,599,628,630,738,782,783,864,881,920,959,994,
631,
632,
633,
410,634,
635,
636,
637,
638,
419,639,
640,
641,
642,
643,
644,
359,645,
646,
647,
648,
649,
650,
651,
204,252,394,652,
653,
654,
655,
656,
657,
658,
659,
660,
661,
32,147,554,662,721,
663,673,693,709,755,765,772,790,
664,
665,
666,
667,907,
408,668,
669,
670,
671,941,
672,
663,673,675,682,693,709,723,742,755,765,772,790,804,
674,
673,675,682,693,709,723,742,755,765,772,790,804,
55,676,
677,
678,
679,
680,
36,681,823,865,916,920,
673,675,682,693,709,723,742,765,772,790,
683,
684,
685,
686,
687,
688,
689,
690,806,
691,
692,
663,673,675,682,693,709,723,742,755,765,772,790,804,
694,
228,695,
696,
697,
698,
699,
700,
701,
702,
150,553,703,960,962,967,
704,
705,
706,
707,
708,
663,673,675,682,693,709,723,742,755,765,772,790,804,
129,260,710,
711,
712,
36,62,76,138,196,199,267,313,336,366,495,581,598,599,629,713,727,738,762,782,783,823,870,881,920,959,994,
714,
715,
716,
717,
718,978,
719,
720,
32,147,554,662,721,
722,
673,675,682,693,709,723,742,755,765,772,790,
724,
725,
726,
196,313,336,495,598,629,713,727,738,762,783,870,916,
61,70,580,728,869,925,
729,
730,
731,
732,
733,
734,
735,929,
736,
737,
36,62,76,199,267,352,495,543,581,598,599,629,630,713,727,738,782,783,864,916,920,959,994,
739,
740,
741,
673,675,682,693,709,723,742,755,772,790,
743,
744,
745,
746,
747,
36,199,237,352,599,748,782,916,920,959,
749,
750,
751,
752,
753,
754,
663,673,675,693,709,723,742,755,765,772,790,804,
61,113,126,756,869,925,953,
757,
758,
759,
760,
761,
36,62,138,196,203,313,336,352,366,495,581,599,628,629,713,727,762,783,823,864,870,916,
484,763,
764,
663,673,675,682,693,709,723,755,765,772,790,804,
766,
767,
768,
769,
770,
771,
663,673,675,682,693,709,723,742,755,765,772,790,804,
773,
774,
775,
776,
777,
778,
779,
780,
781,
36,62,76,199,313,336,352,495,581,599,605,628,629,630,713,738,748,782,783,864,881,916,920,959,994,
36,62,76,138,166,199,203,267,313,336,352,366,495,581,598,599,605,629,630,713,727,738,762,782,783,864,870,881,916,920,959,994,
784,
785,
786,
787,
788,
789,
663,673,675,682,693,709,723,742,755,765,772,790,804,
791,
792,
793,
317,794,
795,
796,
797,
798,
799,
800,
801,
802,
803,
673,675,693,709,755,765,772,790,804,
62,237,352,805,823,864,959,
275,543,690,806,959,
807,
808,
809,
810,
811,
812,
813,
814,
815,
816,
817,
818,
819,
820,
821,
822,
199,203,313,352,366,495,598,599,629,681,713,762,805,823,870,916,920,
824,
825,
826,
827,
828,
829,
830,
831,
832,
39,833,
834,
835,
836,
837,
838,
839,
840,
841,
842,
843,
844,
845,
846,
5,544,847,
848,
849,
850,
851,
852,
853,
854,
319,855,
856,
857,
858,
859,
860,
861,
364,470,548,862,
863,
36,62,138,166,199,313,352,366,495,581,598,599,628,629,630,738,762,782,783,805,864,920,959,994,
681,865,
866,
867,
868,
61,70,580,728,756,869,925,953,
36,199,313,336,352,366,495,581,599,605,629,713,727,762,783,823,870,920,
871,
872,
141,601,873,957,
874,
875,
876,
422,877,
878,
879,
880,
199,267,336,581,630,713,782,783,881,959,994,
882,
883,
884,
484,885,930,932,
886,
887,
207,888,
889,
890,
891,
892,
893,
894,
895,
896,
897,
898,
899,
900,
901,
902,
903,
904,
905,
906,
667,907,
908,
909,
910,
911,
912,
913,
914,
915,
36,62,166,199,237,267,336,352,495,581,598,599,681,727,738,748,762,782,783,823,916,920,959,994,
917,
918,
919,
36,62,166,196,199,237,267,313,336,352,495,581,598,599,605,629,630,681,713,738,748,782,783,823,864,870,916,920,959,994,
921,
922,
923,
924,
61,580,728,756,869,925,
926,
927,
928,
735,929,
885,930,932,
931,
885,930,932,
933,
934,
935,
936,
937,
938,
939,
940,
671,941,
942,
943,
944,
945,
946,
947,
948,
949,
950,
951,
952,
61,756,869,953,
86,327,432,470,538,954,
955,
956,
522,601,873,957,
958,
36,62,76,237,267,313,336,352,495,543,581,598,599,605,630,713,738,748,782,783,805,806,864,881,916,920,959,994,
127,703,960,962,
961,
150,432,538,703,960,962,970,
963,
964,
965,
966,
703,967,
968,
116,522,969,
553,962,970,
971,
972,
973,
974,
975,
976,
977,
718,978,
979,
980,
981,
982,
983,
984,
985,
986,
987,
988,
256,989,
990,
991,
992,
993,
36,62,196,199,237,267,313,352,495,543,581,598,599,605,629,630,713,738,782,783,864,881,916,920,959,994,
995,
996,
997,
998,
999,
