0,
1,
2,23,209,281,296,346,370,386,398,399,423,455,467,489,509,548,661,730,732,764,788,827,837,867,870,947,991,
3,367,782,843,860,
4,243,246,464,728,958,
5,481,543,724,
6,60,576,926,
7,564,
8,267,
9,22,47,139,166,233,273,305,313,409,411,513,519,526,599,646,647,750,758,770,845,883,888,899,
10,144,164,221,222,453,487,660,695,
11,
12,
13,18,120,339,356,615,927,
14,792,
15,
16,
17,349,444,
13,18,120,339,356,615,922,927,972,
19,47,67,78,82,94,110,131,145,190,198,202,203,224,256,300,323,358,432,439,447,542,544,612,623,628,684,733,746,847,935,961,
20,
21,
9,22,233,273,305,519,599,647,750,770,845,883,899,
2,23,209,281,296,346,370,386,398,399,423,455,467,489,509,548,661,730,732,764,788,827,837,867,870,947,991,
24,
25,78,323,336,445,600,628,684,935,
26,928,
27,193,212,227,310,419,425,554,586,686,760,795,849,954,
28,187,205,215,226,268,287,443,478,498,515,525,535,604,676,679,687,711,740,804,818,844,852,856,965,
29,
30,104,448,457,751,
31,
32,
33,321,406,537,573,705,707,848,
34,
35,56,218,550,747,
36,102,655,755,775,851,
37,44,69,157,206,441,581,745,885,
38,
39,
40,113,317,417,933,
41,106,181,437,990,
42,578,579,864,
43,189,195,271,392,655,929,987,
37,44,69,206,338,871,885,
45,320,682,907,974,
46,167,247,340,472,484,791,839,869,914,915,966,996,
9,19,47,94,166,224,256,273,323,409,447,513,519,526,623,628,646,684,750,758,847,888,899,935,
48,126,504,533,
49,
50,
51,
52,149,820,822,
53,264,830,859,
54,90,242,463,783,789,825,
55,598,
35,56,218,747,808,
57,
58,126,249,418,438,504,508,627,638,654,798,820,887,931,938,
59,
6,60,576,926,
61,
62,100,341,387,862,
63,
64,364,422,
65,
66,
19,67,78,82,89,94,110,127,131,170,190,198,202,203,224,256,300,358,439,447,518,542,544,562,612,733,746,847,880,961,
68,
37,44,69,157,206,338,441,581,745,871,885,
70,307,354,
71,
72,220,279,691,
73,
74,363,
75,230,319,320,
76,
77,85,219,251,595,704,
19,25,67,78,82,94,110,131,145,190,198,202,203,224,256,323,336,358,361,366,431,432,442,445,447,469,518,542,544,596,600,628,652,667,683,684,703,733,761,847,861,935,961,988,
79,
80,589,
81,303,
19,67,78,82,94,110,131,145,190,198,202,203,224,256,300,323,358,432,439,447,542,544,612,623,628,684,733,746,847,935,961,
83,
84,675,904,
77,85,219,251,595,704,
86,
87,121,849,
88,278,
67,89,127,170,300,358,518,562,612,746,847,880,
54,90,242,463,783,789,825,
91,151,224,301,358,397,446,447,468,542,544,829,877,917,935,
92,
93,176,208,288,390,440,470,585,591,658,664,823,
19,47,67,78,82,94,110,131,145,190,198,202,203,224,256,300,323,358,397,432,439,446,447,513,526,542,544,612,623,628,684,733,847,877,917,935,961,
95,118,122,134,328,429,601,619,
96,315,898,
97,157,158,330,441,581,655,745,
98,
99,499,512,593,902,
62,100,
101,458,632,671,
36,102,114,216,655,677,755,775,851,
103,135,252,331,435,896,992,
30,104,448,457,751,
105,255,266,354,
41,106,181,990,
107,
108,
109,
19,67,78,82,94,110,131,145,190,198,202,203,224,256,300,323,358,397,432,439,446,447,542,544,612,623,628,684,733,746,847,877,880,935,961,
111,396,
112,
40,113,311,317,417,933,
102,114,216,677,775,851,
115,146,511,551,741,749,906,
116,124,210,616,786,833,
117,427,497,507,534,538,549,561,569,580,663,805,
95,118,134,255,266,354,429,601,
119,
13,18,120,339,356,615,922,927,972,
87,121,
95,122,123,134,197,239,376,384,514,530,601,603,619,633,685,737,743,
122,123,197,239,251,376,384,514,530,603,633,685,704,737,743,
116,124,194,210,491,616,786,833,
125,
48,58,126,249,418,438,504,508,533,627,638,654,798,820,887,931,938,
67,89,127,170,300,562,612,746,880,
128,
129,350,787,
130,
19,67,78,82,94,110,131,145,190,198,202,203,224,256,300,323,358,397,432,439,446,447,542,544,612,623,628,684,733,746,847,877,935,961,
132,
133,
95,118,122,134,328,429,601,619,
103,135,252,331,435,896,992,
136,185,282,753,903,
137,620,754,
138,322,479,502,
9,139,233,273,519,599,646,653,758,770,845,899,
140,388,477,587,659,759,989,
141,
142,
143,690,843,
10,144,164,221,660,695,
19,78,82,94,110,131,145,190,198,202,203,224,256,323,358,361,366,431,432,439,442,447,469,542,544,596,623,652,667,683,684,703,733,761,861,868,877,935,961,986,988,
115,146,290,299,511,551,741,749,
147,245,318,
148,337,347,497,538,561,569,651,663,673,
52,149,822,
150,
91,151,301,397,446,468,829,877,917,
152,
153,598,
154,850,
155,606,
156,
37,69,97,157,158,206,330,338,371,441,581,655,745,871,885,
97,157,158,189,271,330,338,441,581,655,745,987,
159,543,
160,329,552,572,665,831,895,910,
161,
162,374,624,924,945,
163,
10,144,164,221,660,695,
165,
9,47,166,229,273,313,409,411,513,519,526,646,758,770,888,899,
46,167,340,791,869,914,915,966,996,
168,494,
169,
67,89,127,170,300,562,612,746,880,
171,180,237,277,377,378,416,529,531,553,560,588,640,657,680,712,726,739,768,769,803,835,920,943,981,
172,
173,
174,878,985,
175,
93,176,208,288,390,440,470,585,591,658,664,823,
177,207,260,295,480,636,969,983,
178,
179,
171,180,237,277,377,378,416,529,531,553,560,588,640,657,680,712,726,739,768,769,803,835,920,943,981,
41,106,181,360,437,696,773,990,
182,
183,
184,337,
136,185,282,753,903,
186,368,383,576,700,
28,187,205,215,226,268,287,443,478,498,515,525,535,604,676,679,687,711,740,804,818,844,852,856,965,
188,420,474,644,821,
43,158,189,195,241,271,392,655,929,987,
19,67,78,82,94,110,131,145,190,198,202,203,224,256,300,323,358,432,439,446,447,542,544,612,623,628,684,733,746,847,877,935,961,
191,385,962,964,
192,492,
27,193,524,554,586,725,760,954,
124,194,210,491,616,786,
43,189,195,271,392,655,929,987,
196,693,
122,123,197,239,376,384,514,530,603,633,685,737,743,
19,67,78,82,94,110,131,145,190,198,202,203,224,256,300,323,358,397,432,439,446,447,542,544,612,623,628,684,733,746,847,877,935,961,
199,
200,
201,223,283,306,334,460,465,570,668,674,678,729,736,802,832,853,900,937,
19,67,78,82,94,110,131,145,190,198,202,203,224,256,300,323,358,432,439,447,542,544,612,623,628,684,733,746,847,880,935,961,
19,67,78,82,94,110,131,145,190,198,202,203,224,256,300,323,358,432,439,447,542,544,612,623,628,684,733,746,847,877,935,961,
204,
28,187,205,215,226,268,287,443,478,498,515,525,535,604,676,679,687,711,740,804,818,844,852,856,965,
37,44,69,157,206,338,441,581,745,871,885,
177,207,480,636,983,
93,176,208,288,390,440,470,585,
2,23,209,281,296,346,370,386,398,399,423,455,467,489,509,548,661,730,732,764,788,827,837,867,870,947,991,
116,124,194,210,491,616,786,833,
211,
27,212,554,795,
213,
214,
28,187,205,215,226,268,287,443,478,498,515,525,535,604,676,679,687,711,740,804,818,844,852,856,965,
102,114,216,677,851,
217,594,
35,56,218,747,808,
77,85,219,251,595,704,
72,220,316,666,
10,144,164,221,660,695,
10,222,453,487,858,959,
201,223,283,306,334,460,465,570,668,674,678,729,736,802,832,853,900,937,
19,47,67,78,82,91,94,110,131,145,190,198,202,203,224,256,301,323,358,397,432,439,446,447,468,513,526,542,544,612,623,628,684,733,829,847,877,917,935,961,
225,
28,187,205,215,226,268,287,443,478,498,515,525,535,604,676,679,687,711,740,804,818,844,852,856,965,
27,227,310,419,554,586,686,840,
228,
166,229,313,411,888,
75,230,319,320,
231,
232,365,473,536,614,813,828,923,940,
9,22,139,233,273,361,519,599,623,646,758,761,770,845,899,
234,355,375,901,
235,
236,
171,180,237,277,377,378,416,529,531,553,560,588,640,657,680,712,726,739,768,769,803,835,920,943,981,
238,
122,123,197,239,376,384,514,530,603,633,685,737,743,
240,402,620,754,
189,241,271,392,929,987,
54,90,242,463,783,789,825,
4,243,246,464,728,958,
244,892,953,
147,245,
4,243,246,464,728,958,
46,247,791,839,966,996,
248,302,
58,126,249,418,438,504,508,627,638,654,798,820,887,931,938,
250,858,959,
77,85,123,219,251,514,530,595,704,
103,135,252,331,435,896,992,
253,
254,427,534,622,
105,118,255,266,354,
19,47,67,78,82,94,110,131,145,190,198,202,203,224,256,323,358,432,439,447,513,526,542,544,623,628,684,733,847,935,961,
257,341,387,593,767,
258,
259,285,405,948,
177,260,969,983,
261,267,
262,
263,547,575,602,765,
53,264,830,859,
265,
105,118,255,266,354,
8,261,267,
28,187,205,215,226,268,287,443,478,498,515,525,535,604,676,679,687,711,740,804,818,844,852,856,965,
269,
270,
43,158,189,195,241,271,392,655,929,987,
272,
9,22,47,139,166,233,273,305,313,409,411,513,519,526,599,646,647,750,758,770,845,883,888,899,
274,352,
275,459,
276,
171,180,237,277,377,378,416,529,531,553,560,588,640,657,680,712,726,739,768,769,803,835,920,943,981,
88,278,779,
72,279,691,
280,456,634,
2,23,209,281,296,346,370,386,398,399,423,455,467,489,509,548,661,730,732,764,788,827,837,867,870,947,991,
136,185,282,753,903,
201,223,283,306,334,460,465,570,668,674,678,729,736,802,832,853,900,937,
284,304,
259,285,405,502,948,
286,
28,187,205,215,226,268,287,443,478,498,515,525,535,604,676,679,687,711,740,804,818,844,852,856,965,
93,176,208,288,390,440,585,591,658,664,823,
289,475,894,
146,290,299,511,833,895,
291,422,
292,
293,
294,766,
177,295,480,969,
2,23,209,281,296,346,370,386,398,399,423,455,467,489,509,548,661,730,732,764,788,827,837,867,870,947,991,
297,
298,
146,290,299,895,
19,67,82,89,94,110,127,131,170,190,198,202,203,300,358,439,447,518,542,544,562,612,733,746,847,880,961,
91,151,224,301,358,397,446,447,468,542,544,829,877,917,
248,302,
81,303,
284,304,
9,22,273,305,647,750,770,845,883,899,
201,223,283,306,334,460,465,570,668,674,678,729,736,802,832,853,900,937,
70,307,328,354,583,763,
308,872,
309,
27,227,310,419,554,586,659,686,840,849,
113,311,967,
312,
9,166,229,273,313,409,411,513,519,526,758,770,888,899,
314,
96,315,898,
220,316,365,473,536,666,738,923,940,
40,113,317,417,933,
147,318,
75,230,319,320,556,836,
45,75,230,319,320,682,907,974,
33,321,537,573,707,
138,322,479,
19,25,47,78,82,94,110,131,145,190,198,202,203,224,256,323,358,431,432,447,469,513,526,542,544,623,628,667,684,703,733,750,761,845,847,935,961,988,
324,
325,
326,
327,
95,134,307,328,601,619,
160,329,541,665,831,
97,157,158,330,441,581,655,745,
103,135,252,331,435,896,992,
332,
333,
201,223,283,306,334,460,465,570,668,674,678,729,736,802,832,853,900,937,
335,
25,78,336,445,600,628,935,
148,184,337,347,651,673,
44,69,157,158,206,338,371,441,581,745,871,885,
13,18,120,339,356,615,922,927,972,
46,167,340,791,869,914,915,966,996,
62,257,341,387,593,767,862,
342,
343,855,
344,
345,
2,23,209,281,296,346,370,386,398,399,423,455,467,489,509,548,661,730,732,764,788,827,837,867,870,947,991,
148,337,347,538,561,651,663,673,
348,
17,349,444,771,
129,350,374,787,945,
351,
274,352,721,
353,964,
70,105,118,255,266,307,354,429,
234,355,375,901,
13,18,120,339,356,615,922,927,
357,421,521,784,785,973,999,
19,67,78,82,89,91,94,110,131,145,190,198,202,203,224,256,300,301,323,358,397,432,439,446,447,468,542,544,612,623,628,684,733,746,829,847,877,880,917,935,961,
359,648,
181,360,437,696,773,897,
78,145,233,361,366,431,432,442,469,596,599,623,652,667,683,703,750,761,845,861,986,988,
362,
74,363,
64,364,450,
232,316,365,473,536,666,738,828,923,940,
78,145,361,366,432,442,469,596,623,652,667,683,703,761,861,868,986,988,
3,367,782,843,860,
186,368,383,700,
369,433,
2,23,209,281,296,346,370,386,398,399,423,455,467,489,509,548,661,730,732,764,788,827,837,867,870,947,991,
157,338,371,441,581,745,871,929,987,
372,391,
373,702,
162,350,374,787,924,945,
234,355,375,901,
122,123,197,239,376,384,514,530,603,633,685,737,743,
171,180,237,277,377,378,416,529,531,553,560,588,624,640,657,680,712,726,739,768,769,803,835,920,943,946,981,
171,180,237,277,377,378,416,529,531,553,560,588,640,657,680,712,726,739,768,769,803,835,920,943,981,
379,
380,632,
381,697,873,
382,457,
186,368,383,700,
122,123,197,239,376,384,514,530,603,633,685,737,743,
191,385,962,964,
2,23,209,281,296,346,370,386,398,399,423,455,467,489,509,548,661,730,732,764,788,827,837,867,870,947,991,
62,257,341,387,593,767,862,
140,388,477,587,759,989,
389,
93,176,208,288,390,440,585,591,658,664,823,
372,391,
43,189,195,241,271,392,929,987,
393,
394,
395,
111,396,
91,94,110,131,151,198,224,301,358,397,446,447,468,542,544,733,829,877,917,935,
2,23,209,281,296,346,370,386,398,399,423,455,467,489,509,548,661,730,732,764,788,827,837,867,870,947,991,
2,23,209,281,296,346,370,386,398,399,423,455,467,489,509,548,661,730,732,764,788,827,837,867,870,947,991,
400,
401,503,
240,402,620,
403,
404,
259,285,405,502,948,
33,406,705,707,800,848,
407,
408,
9,47,166,273,313,409,411,513,519,526,750,770,845,883,888,899,
410,517,639,
9,166,229,273,313,409,411,519,526,758,770,888,899,
412,
413,522,
414,
415,
171,180,237,277,377,378,416,529,531,553,560,588,640,657,680,712,726,739,768,769,803,835,920,943,981,
40,113,317,417,933,
58,126,249,418,508,627,638,654,798,820,887,931,938,
27,227,310,419,554,586,686,840,
188,420,474,644,821,
357,421,521,784,785,973,999,
64,291,422,
2,23,209,281,296,346,370,386,398,399,423,455,467,489,509,548,661,730,732,764,788,827,837,867,870,947,991,
424,
27,425,524,586,760,
426,
117,254,427,507,534,622,805,
428,
95,118,134,354,429,601,
430,532,
78,145,323,361,431,432,442,469,596,623,703,750,761,845,861,986,988,
19,78,82,94,110,131,145,190,198,202,203,224,256,323,358,361,366,431,432,439,442,447,469,542,544,596,623,652,667,683,684,703,733,761,861,868,877,935,961,986,988,
369,433,
434,
103,135,252,331,435,896,992,
436,
41,181,360,437,696,773,897,990,
58,126,249,438,504,508,533,627,638,654,798,820,822,887,938,
19,67,82,94,110,131,145,190,198,202,203,224,256,300,358,432,439,447,542,544,612,623,628,733,746,847,935,961,
93,176,208,288,390,440,470,585,
37,69,97,157,158,206,330,338,371,441,581,655,745,871,885,
78,145,361,366,431,432,442,469,596,623,652,667,683,703,761,861,868,986,988,
28,187,205,215,226,268,287,443,478,498,515,525,535,604,676,679,687,711,740,804,818,844,852,856,965,
17,349,444,
25,78,336,445,518,600,628,935,
91,94,110,131,151,190,198,224,301,358,397,446,447,468,542,544,733,829,877,917,935,
19,47,67,78,82,91,94,110,131,145,190,198,202,203,224,256,300,301,323,358,397,432,439,446,447,468,542,544,612,623,628,684,733,746,829,847,877,917,935,961,
30,104,448,457,751,
449,
364,450,
451,
452,
10,222,453,487,858,959,
454,
2,23,209,281,296,346,370,386,398,399,423,455,467,489,509,548,661,730,732,764,788,827,837,867,870,947,991,
280,456,634,
30,104,382,448,457,751,
101,458,671,
275,459,
201,223,283,306,334,460,465,570,668,674,678,729,736,802,832,853,900,937,
461,681,
462,
54,90,242,463,783,789,825,
4,243,246,464,728,958,
201,223,283,306,334,460,465,570,668,674,678,729,736,802,832,853,900,937,
466,
2,23,209,281,296,346,370,386,398,399,423,455,467,489,509,548,661,730,732,764,788,827,837,867,870,947,991,
91,151,224,301,358,397,446,447,468,542,544,829,877,917,
78,145,323,361,366,431,432,442,469,596,623,652,667,683,703,761,861,868,986,988,
93,176,208,440,470,585,
471,925,
46,472,839,966,996,
232,316,365,473,536,666,738,828,923,940,
188,420,474,644,821,
289,475,894,
476,
140,388,477,528,587,659,686,759,989,
28,187,205,215,226,268,287,443,478,498,515,525,535,604,676,679,687,711,740,804,818,844,852,856,965,
138,322,479,
177,207,295,480,636,969,983,
5,481,724,
482,842,
483,810,839,966,996,
46,484,791,839,966,996,
485,
486,
10,222,453,487,858,
488,578,998,
2,23,209,281,296,346,370,386,398,399,423,455,467,489,509,548,661,730,732,764,788,827,837,867,870,947,991,
490,
124,194,210,491,616,908,
192,492,
493,
168,494,
495,
496,778,
117,148,497,507,538,549,561,569,580,663,673,805,
28,187,205,215,226,268,287,443,478,498,515,525,535,604,676,679,687,711,740,804,818,844,852,856,965,
99,499,512,593,
500,
501,
138,285,405,502,948,
401,503,
48,58,126,249,438,504,533,627,638,654,798,820,887,938,
505,521,522,
506,
117,427,497,507,534,538,549,561,569,580,663,805,
58,126,249,418,438,508,627,638,654,798,820,887,931,938,
2,23,209,281,296,346,370,386,398,399,423,455,467,489,509,548,661,730,732,764,788,827,837,867,870,947,991,
510,
115,146,290,511,749,
99,499,512,593,
9,47,94,166,224,256,273,313,323,409,513,519,526,623,628,646,684,758,770,847,888,899,935,
122,123,197,239,251,376,384,514,530,603,633,685,704,737,743,
28,187,205,215,226,268,287,443,478,498,515,525,535,604,676,679,687,711,740,804,818,844,852,856,965,
516,
410,517,639,
67,78,89,300,445,518,600,612,746,880,
9,22,47,139,166,233,273,313,409,411,513,519,526,599,646,758,770,845,888,899,
520,
357,421,505,521,522,784,785,973,999,
413,505,521,522,785,
523,
193,425,524,589,725,760,954,
28,187,205,215,226,268,287,443,478,498,515,525,535,604,676,679,687,711,740,804,818,844,852,856,965,
9,47,94,166,224,256,273,313,323,409,411,513,519,526,623,628,684,750,770,847,888,899,935,
527,653,
477,528,587,759,
171,180,237,277,377,378,416,529,531,553,560,588,640,657,680,712,726,739,768,769,803,835,920,943,981,
122,123,197,239,251,376,384,514,530,603,633,685,704,737,743,
171,180,237,277,377,378,416,529,531,553,560,588,640,657,680,712,726,739,768,769,803,835,920,943,981,
430,532,
48,126,438,504,533,887,
117,254,427,507,534,622,805,
28,187,205,215,226,268,287,443,478,498,515,525,535,604,676,679,687,711,740,804,818,844,852,856,965,
232,316,365,473,536,562,666,738,828,923,940,
33,321,537,573,
117,148,347,497,507,538,549,561,569,580,651,663,673,805,
539,944,
540,699,
329,541,665,
19,67,78,82,91,94,110,131,145,190,198,202,203,224,256,300,301,323,358,397,432,439,446,447,468,542,544,612,623,628,684,733,746,829,847,877,917,935,961,
5,159,543,
19,67,78,82,91,94,110,131,145,190,198,202,203,224,256,300,301,323,358,397,432,439,446,447,468,542,544,612,623,628,684,733,746,829,847,877,917,935,961,
545,
546,
263,547,575,602,765,
2,23,209,281,296,346,370,386,398,399,423,455,467,489,509,548,661,730,732,764,788,827,837,867,870,947,991,
117,497,507,538,549,569,580,794,
35,550,
115,146,551,741,749,906,
160,552,572,665,706,831,895,910,
171,180,237,277,377,378,416,529,531,553,560,588,640,657,680,712,726,739,768,769,803,835,920,943,981,
27,193,212,227,310,419,554,586,686,760,795,849,954,
555,
319,556,836,
557,
558,
559,
171,180,237,277,377,378,416,529,531,553,560,588,640,657,680,712,726,739,768,769,803,835,920,943,981,
117,148,347,497,507,538,561,569,651,663,673,
67,89,127,170,300,536,562,612,746,880,
563,
7,564,
565,
566,
567,
568,
117,148,497,507,538,549,561,569,580,663,673,805,
201,223,283,306,334,460,465,570,668,674,678,729,736,802,832,853,900,937,
571,650,881,
160,552,572,665,706,831,895,910,
33,321,537,573,707,
574,
263,547,575,602,765,
6,60,186,576,926,
577,
42,488,578,998,
42,579,864,949,
117,497,507,538,549,569,580,794,
37,69,97,157,158,206,330,338,371,441,581,655,745,871,885,
582,
307,583,763,
584,
93,176,208,288,390,440,470,585,591,658,664,823,
27,193,227,310,419,425,554,586,686,725,760,795,849,954,
140,388,477,528,587,659,686,759,989,
171,180,237,277,377,378,416,529,531,553,560,588,640,657,680,712,726,739,768,769,803,835,920,943,981,
80,524,589,
590,
93,176,288,390,585,591,658,664,823,
592,
99,257,341,387,499,512,593,767,
217,594,
77,85,219,251,595,
78,145,361,366,431,432,442,469,596,623,652,667,683,703,761,861,868,986,988,
597,925,
55,153,598,611,
9,22,139,233,273,361,519,599,623,646,758,761,770,845,899,
25,78,336,445,518,600,628,935,
95,118,122,134,328,429,601,619,
263,547,575,602,765,
122,123,197,239,376,384,514,530,603,633,685,737,743,
28,187,205,215,226,268,287,443,478,498,515,525,535,604,676,679,687,711,740,804,818,844,852,856,965,
605,702,
155,606,
607,
608,706,910,
609,
610,977,
598,611,
19,67,82,89,94,110,127,131,170,190,198,202,203,224,300,358,439,447,518,542,544,562,612,733,746,847,880,961,
613,
232,614,813,828,923,
13,18,120,339,356,615,922,927,972,
116,124,194,210,491,616,786,908,
617,
618,
95,122,134,328,601,619,
137,240,402,620,754,
621,
254,427,534,622,
19,47,82,94,110,131,145,190,198,202,203,224,233,256,323,358,361,366,431,432,439,442,447,469,513,526,542,544,596,599,623,628,652,667,683,684,703,733,750,761,845,847,861,877,935,961,986,988,
162,377,624,
625,893,
626,
58,126,249,418,438,504,508,627,638,654,798,820,887,931,938,
19,25,47,78,82,94,110,131,190,198,202,203,224,256,323,336,358,439,445,447,513,526,542,544,600,623,628,684,733,847,935,961,
629,
630,
631,
101,380,632,671,
122,123,197,239,376,384,514,530,603,633,685,737,743,
280,456,634,
635,
177,207,480,636,969,983,
637,
58,126,249,418,438,504,508,627,638,654,798,820,931,938,
410,517,639,
171,180,237,277,377,378,416,529,531,553,560,588,640,657,680,712,726,739,768,769,803,835,920,943,981,
641,
642,
643,
188,420,474,644,821,
645,
9,47,139,166,233,273,513,519,599,646,653,758,770,845,899,
9,22,273,305,647,750,770,845,883,899,
359,648,
649,
571,650,881,
148,337,347,538,561,651,663,673,
78,145,361,366,432,442,469,596,623,652,667,683,703,761,861,868,986,988,
139,527,646,653,
58,126,249,418,438,504,508,627,638,654,798,820,887,931,938,
36,43,97,102,157,158,189,195,271,330,441,581,655,745,755,851,
656,
171,180,237,277,377,378,416,529,531,553,560,588,640,657,680,712,726,739,768,769,803,835,920,943,981,
93,176,288,390,585,591,658,664,823,
140,310,477,587,659,686,759,840,849,
10,144,164,221,660,695,
2,23,209,281,296,346,370,386,398,399,423,455,467,489,509,548,661,730,732,764,788,827,837,867,870,947,991,
662,
117,148,347,497,507,538,561,569,651,663,673,
93,176,288,390,585,591,658,664,823,
160,329,541,552,572,665,831,
220,316,365,473,536,666,738,923,940,
78,145,323,361,366,432,442,469,596,623,652,667,683,703,761,861,868,986,988,
201,223,283,306,334,460,465,570,668,674,678,729,736,802,832,853,900,937,
669,
670,
101,458,632,671,
672,
148,337,347,497,538,561,569,651,663,673,
201,223,283,306,334,460,465,570,668,674,678,729,736,802,832,853,900,937,
84,675,904,
28,187,205,215,226,268,287,443,478,498,515,525,535,604,676,679,687,711,740,804,818,844,852,856,965,
102,114,216,677,851,
201,223,283,306,334,460,465,570,668,674,678,729,736,802,832,853,900,937,
28,187,205,215,226,268,287,443,478,498,515,525,535,604,676,679,687,711,740,804,818,844,852,856,965,
171,180,237,277,377,378,416,529,531,553,560,588,640,657,680,712,726,739,768,769,803,835,920,943,981,
461,681,
45,320,682,907,974,
78,145,361,366,432,442,469,596,623,652,667,683,703,761,861,868,986,988,
19,25,47,78,82,94,110,131,145,190,198,202,203,224,256,323,358,432,447,513,526,542,544,623,628,684,733,750,847,935,961,
122,123,197,239,376,384,514,530,603,633,685,737,743,
27,227,310,419,477,554,586,587,659,686,840,849,
28,187,205,215,226,268,287,443,478,498,515,525,535,604,676,679,687,711,740,804,818,844,852,856,965,
688,
689,
143,690,843,859,
72,279,691,
692,
196,693,
694,
10,144,164,221,660,695,
181,360,437,696,773,990,
381,697,873,
698,
540,699,782,860,
186,368,383,700,
701,
373,605,702,
78,145,323,361,366,431,432,442,469,596,623,652,667,683,703,761,861,868,986,988,
77,85,123,219,251,514,530,704,
33,406,705,707,800,848,
552,572,608,706,831,910,
33,321,406,573,705,707,
708,
709,
710,
28,187,205,215,226,268,287,443,478,498,515,525,535,604,676,679,687,711,740,804,818,844,852,856,965,
171,180,237,277,377,378,416,529,531,553,560,588,640,657,680,712,726,739,768,769,803,835,920,943,981,
713,
714,
715,
716,
717,
718,
719,
720,
352,721,799,
722,
723,
5,481,724,
193,524,586,725,760,954,
171,180,237,277,377,378,416,529,531,553,560,588,640,657,680,712,726,739,768,769,803,835,920,943,981,
727,
4,243,246,464,728,958,
201,223,283,306,334,460,465,570,668,674,678,729,736,802,832,853,900,937,
2,23,209,281,296,346,370,386,398,399,423,455,467,489,509,548,661,730,732,764,788,827,837,867,870,947,991,
731,
2,23,209,281,296,346,370,386,398,399,423,455,467,489,509,548,661,730,732,764,788,827,837,867,870,947,991,
19,67,78,82,94,110,131,145,190,198,202,203,224,256,300,323,358,397,432,439,446,447,542,544,612,623,628,684,733,746,847,877,880,935,961,
734,
735,
201,223,283,306,334,460,465,570,668,674,678,729,736,802,832,853,900,937,
122,123,197,239,376,384,514,530,603,633,685,737,743,
316,365,473,536,666,738,828,923,940,
171,180,237,277,377,378,416,529,531,553,560,588,640,657,680,712,726,739,768,769,803,835,920,943,981,
28,187,205,215,226,268,287,443,478,498,515,525,535,604,676,679,687,711,740,804,818,844,852,856,965,
115,146,551,741,749,906,
742,
122,123,197,239,376,384,514,530,603,633,685,737,743,
744,
37,69,97,157,158,206,330,338,371,441,581,655,745,871,885,
19,67,82,89,110,127,131,170,190,198,202,203,300,358,439,447,518,542,544,562,612,733,746,847,880,961,
35,56,218,747,808,
748,
115,146,511,551,741,749,906,
9,22,47,273,305,323,361,409,431,526,623,647,684,750,761,770,845,861,883,899,
30,104,448,457,751,
752,
136,185,282,753,903,
137,240,620,754,
36,102,655,755,775,
756,
757,
9,47,139,166,233,273,313,411,513,519,599,646,758,770,845,888,899,
140,388,477,528,587,659,759,989,
27,193,425,524,554,586,725,760,795,954,
78,145,233,323,361,366,431,432,442,469,596,599,623,652,667,683,703,750,761,845,861,986,988,
762,
307,583,763,
2,23,209,281,296,346,370,386,398,399,423,455,467,489,509,548,661,730,732,764,788,827,837,867,870,947,991,
263,547,575,602,765,
294,766,
257,341,387,593,767,
171,180,237,277,377,378,416,529,531,553,560,588,640,657,680,712,726,739,768,769,803,835,920,943,981,
171,180,237,277,377,378,416,529,531,553,560,588,640,657,680,712,726,739,768,769,803,835,920,943,981,
9,22,139,166,233,273,305,313,409,411,513,519,526,599,646,647,750,758,770,845,883,888,899,
349,771,
772,
181,360,437,696,773,990,
774,866,
36,102,114,755,775,851,
776,
777,
496,778,
278,779,
780,
781,875,
3,367,699,782,843,860,
54,90,242,463,783,789,825,
357,421,521,784,785,973,999,
357,421,521,522,784,785,973,999,
116,124,194,210,616,786,833,
129,350,374,787,
2,23,209,281,296,346,370,386,398,399,423,455,467,489,509,548,661,730,732,764,788,827,837,867,870,947,991,
54,90,242,463,783,789,825,
790,
46,167,247,340,484,791,869,914,915,966,996,
14,792,
793,
549,580,794,796,
27,212,554,586,760,795,
794,796,
797,
58,126,249,418,438,504,508,627,638,654,798,820,887,931,938,
721,799,
406,705,800,848,
801,
201,223,283,306,334,460,465,570,668,674,678,729,736,802,832,853,900,937,
171,180,237,277,377,378,416,529,531,553,560,588,640,657,680,712,726,739,768,769,803,835,920,943,981,
28,187,205,215,226,268,287,443,478,498,515,525,535,604,676,679,687,711,740,804,818,844,852,856,965,
117,427,497,507,534,538,569,805,
806,
807,
56,218,747,808,
809,
483,810,
811,
812,
232,614,813,
814,
815,
816,
817,997,
28,187,205,215,226,268,287,443,478,498,515,525,535,604,676,679,687,711,740,804,818,844,852,856,965,
819,
52,58,126,249,418,438,504,508,627,638,654,798,820,822,887,931,938,
188,420,474,644,821,
52,149,438,820,822,
93,176,288,390,585,591,658,664,823,
824,
54,90,242,463,783,789,825,
826,
2,23,209,281,296,346,370,386,398,399,423,455,467,489,509,548,661,730,732,764,788,827,837,867,870,947,991,
232,365,473,536,614,738,828,923,940,
91,151,224,301,358,397,446,447,468,542,544,829,877,917,
53,264,830,859,
160,329,552,572,665,706,831,895,910,
201,223,283,306,334,460,465,570,668,674,678,729,736,802,832,853,900,937,
116,124,210,290,786,833,846,
834,
171,180,237,277,377,378,416,529,531,553,560,588,640,657,680,712,726,739,768,769,803,835,920,943,981,
319,556,836,
2,23,209,281,296,346,370,386,398,399,423,455,467,489,509,548,661,730,732,764,788,827,837,867,870,947,991,
838,
46,247,472,483,484,839,966,996,
227,310,419,659,686,840,849,
841,842,
482,841,842,
3,143,367,690,782,843,860,
28,187,205,215,226,268,287,443,478,498,515,525,535,604,676,679,687,711,740,804,818,844,852,856,965,
9,22,139,233,273,305,323,361,409,431,519,599,623,646,647,750,758,761,770,845,861,883,899,
833,846,
19,47,67,78,82,89,94,110,131,190,198,202,203,224,256,300,323,358,439,447,513,526,542,544,612,623,628,684,733,746,847,935,961,
33,406,705,800,848,
27,87,310,554,586,659,686,840,849,
154,850,
36,102,114,216,655,677,775,851,
28,187,205,215,226,268,287,443,478,498,515,525,535,604,676,679,687,711,740,804,818,844,852,856,965,
201,223,283,306,334,460,465,570,668,674,678,729,736,802,832,853,900,937,
854,
343,855,
28,187,205,215,226,268,287,443,478,498,515,525,535,604,676,679,687,711,740,804,818,844,852,856,965,
857,
222,250,453,487,858,959,
53,264,690,830,859,
3,367,699,782,843,860,
78,145,361,366,431,432,442,469,596,623,652,667,683,703,750,761,845,861,986,988,
62,341,387,862,
863,
42,579,864,
865,
774,866,921,971,
2,23,209,281,296,346,370,386,398,399,423,455,467,489,509,548,661,730,732,764,788,827,837,867,870,947,991,
145,366,432,442,469,596,652,667,683,703,868,986,988,
46,167,340,791,869,914,915,966,996,
2,23,209,281,296,346,370,386,398,399,423,455,467,489,509,548,661,730,732,764,788,827,837,867,870,947,991,
44,69,157,206,338,371,441,581,745,871,885,
308,872,
381,697,873,
874,
781,875,
876,
91,94,110,131,145,151,190,198,203,224,301,358,397,432,446,447,468,542,544,623,733,829,877,917,935,961,
174,878,
879,
67,89,110,127,170,202,300,358,518,562,612,733,746,880,
571,650,881,
882,
9,22,273,305,409,647,750,770,845,883,899,
884,
37,44,69,157,206,338,441,581,745,871,885,
886,
58,126,249,418,438,504,508,533,627,654,798,820,887,931,938,
9,47,166,229,273,313,409,411,513,519,526,758,770,888,899,
889,
890,
891,
244,892,953,
625,893,
289,475,894,
160,290,299,552,572,831,895,
103,135,252,331,435,896,992,
360,437,897,990,
96,315,898,
9,22,47,139,166,233,273,305,313,409,411,513,519,526,599,646,647,750,758,770,845,883,888,899,
201,223,283,306,334,460,465,570,668,674,678,729,736,802,832,853,900,937,
234,355,375,901,
99,902,
136,185,282,753,903,
84,675,904,
905,
115,551,741,749,906,
45,320,682,907,974,
491,616,908,
909,
160,552,572,608,706,831,910,
911,
912,
913,
46,167,340,791,869,914,915,966,996,
46,167,340,791,869,914,915,966,996,
916,
91,94,151,224,301,358,397,446,447,468,542,544,829,877,917,935,
918,
919,
171,180,237,277,377,378,416,529,531,553,560,588,640,657,680,712,726,739,768,769,803,835,920,943,981,
866,921,936,971,
18,120,339,356,615,922,927,972,
232,316,365,473,536,614,666,738,828,923,940,
162,374,924,945,
471,597,925,
6,60,576,926,
13,18,120,339,356,615,922,927,
26,928,
43,189,195,241,271,371,392,929,987,
930,
58,126,249,418,508,627,638,654,798,820,887,931,938,
932,
40,113,317,417,933,
934,941,
19,25,47,78,82,91,94,110,131,145,190,198,202,203,224,256,323,336,358,397,432,439,445,446,447,513,526,542,544,600,623,628,684,733,847,877,917,935,961,
921,936,
201,223,283,306,334,460,465,570,668,674,678,729,736,802,832,853,900,937,
58,126,249,418,438,504,508,627,638,654,798,820,887,931,938,
939,
232,316,365,473,536,666,738,828,923,940,
934,941,
942,
171,180,237,277,377,378,416,529,531,553,560,588,640,657,680,712,726,739,768,769,803,835,920,943,981,
539,944,
162,350,374,924,945,
377,946,
2,23,209,281,296,346,370,386,398,399,423,455,467,489,509,548,661,730,732,764,788,827,837,867,870,947,991,
259,285,405,502,948,
579,949,
950,
951,
952,
244,892,953,
27,193,524,554,586,725,760,954,
955,
956,
957,
4,243,246,464,728,958,
222,250,453,858,959,
960,
19,67,78,82,94,110,131,145,190,198,202,203,224,256,300,323,358,432,439,447,542,544,612,623,628,684,733,746,847,877,935,961,
191,385,962,964,
963,
191,353,385,962,964,
28,187,205,215,226,268,287,443,478,498,515,525,535,604,676,679,687,711,740,804,818,844,852,856,965,
46,167,247,340,472,483,484,791,839,869,914,915,966,996,
311,967,
968,
177,260,295,480,636,969,983,
970,
866,921,971,
18,120,339,615,922,972,
357,421,521,784,785,973,999,
45,320,682,907,974,
975,
976,
610,977,
978,
979,
980,
171,180,237,277,377,378,416,529,531,553,560,588,640,657,680,712,726,739,768,769,803,835,920,943,981,
982,
177,207,260,480,636,969,983,
984,
174,985,
145,361,366,431,432,442,469,596,623,652,667,683,703,761,861,868,986,988,
43,158,189,195,241,271,371,392,929,987,
78,145,323,361,366,431,432,442,469,596,623,652,667,683,703,761,861,868,986,988,
140,388,477,587,759,989,
41,106,181,437,696,773,897,990,
2,23,209,281,296,346,370,386,398,399,423,455,467,489,509,548,661,730,732,764,788,827,837,867,870,947,991,
103,135,252,331,435,896,992,
993,
994,
995,
46,167,247,340,472,483,484,791,839,869,914,915,966,996,
817,997,
488,578,998,
357,421,521,784,785,973,999,
