0,797,
1,
2,23,209,281,296,346,370,386,398,399,423,455,467,489,509,548,661,730,732,764,788,827,837,867,870,947,991,998,
3,143,367,690,699,782,790,843,860,
4,243,246,464,506,728,958,
5,159,481,543,724,
6,60,186,219,576,926,
7,255,266,408,564,
8,261,267,
9,22,47,139,166,229,233,273,305,313,323,361,409,411,513,519,526,599,623,646,647,653,684,750,758,761,770,845,883,888,899,
10,140,144,164,221,222,453,487,660,695,858,959,
11,274,352,774,866,
12,
13,18,120,339,356,615,921,922,927,971,
14,792,
15,757,
16,68,
17,292,349,422,444,771,
13,18,120,274,339,352,356,615,774,866,921,922,927,971,972,
19,47,67,78,82,89,91,94,110,127,131,145,170,190,198,202,203,224,256,300,323,358,361,366,397,431,432,439,442,446,447,469,513,518,526,542,544,562,596,600,612,623,628,652,667,683,684,703,733,746,750,761,845,847,861,868,877,880,917,935,961,986,988,
20,811,
21,249,360,437,438,654,798,820,822,938,
9,22,47,139,166,233,273,305,313,323,361,409,411,513,519,526,599,623,646,647,684,750,758,761,770,845,883,888,899,
2,23,209,281,296,346,370,386,398,399,423,455,467,489,509,548,661,730,732,764,788,827,837,867,870,947,991,
24,
25,47,78,94,224,256,323,336,445,446,513,518,526,600,628,684,847,935,
26,928,
27,76,193,212,227,310,419,425,554,586,587,659,686,725,760,795,840,849,954,
28,187,205,215,226,268,287,443,478,498,515,525,535,604,676,679,687,711,740,804,818,844,852,856,965,
29,
30,104,179,382,448,457,751,
31,
32,117,140,148,337,347,388,477,497,507,528,538,561,569,587,651,663,673,759,805,989,
33,321,406,537,573,705,707,800,848,
34,192,
35,56,218,550,747,
36,43,102,114,195,655,755,775,851,
37,44,69,136,157,185,206,282,338,441,581,745,753,871,885,903,
38,
39,
40,113,311,317,417,897,933,
41,106,181,360,437,696,773,897,990,
42,488,578,579,864,998,
36,43,102,158,189,195,241,271,371,392,655,851,929,987,
37,44,69,157,189,206,241,271,338,371,441,581,745,871,885,929,
45,230,320,682,779,907,974,
46,167,225,247,340,472,483,484,791,810,839,869,914,915,966,996,
9,19,22,25,47,78,82,91,94,110,131,139,145,166,190,198,202,203,224,229,233,256,273,305,313,323,358,361,366,397,409,411,431,432,439,442,446,447,469,513,519,526,542,544,596,599,623,628,646,647,652,667,683,684,703,733,750,758,761,770,845,847,861,877,883,888,899,917,935,961,986,988,
48,58,72,126,249,279,438,504,533,627,638,654,691,798,820,938,
49,91,151,301,397,446,468,518,614,812,813,829,877,917,
50,
51,
52,149,249,438,504,508,627,654,798,820,822,931,938,
53,264,830,859,
54,90,242,463,505,522,783,789,825,913,
55,598,611,
35,56,218,550,747,808,
57,
48,58,126,249,418,438,504,508,533,627,638,654,798,820,822,887,931,938,
59,771,
6,60,186,219,576,926,
61,236,
62,100,280,341,387,456,634,862,
63,
64,211,291,340,363,364,422,450,869,
65,
66,
19,67,78,82,89,91,94,110,127,131,145,170,190,198,202,203,224,232,256,300,358,397,432,439,446,447,518,536,542,544,562,600,612,628,684,733,746,828,847,877,880,917,935,961,
16,68,
37,44,69,97,157,158,189,206,271,330,338,371,441,581,655,745,871,885,929,
70,95,105,122,134,307,328,354,429,583,601,619,763,
71,
48,72,126,220,279,533,666,691,
73,
74,211,363,
75,88,230,278,319,320,556,836,974,
27,76,121,212,310,419,554,586,659,686,795,840,849,
77,85,123,219,251,530,595,704,
19,25,47,67,78,82,89,91,94,110,131,145,190,198,202,203,224,256,300,323,336,358,361,366,397,431,432,439,442,445,446,447,468,469,513,518,526,542,544,596,600,612,623,628,652,667,683,684,703,733,746,750,761,829,845,847,861,868,877,880,917,935,961,986,988,
79,
80,589,
81,303,
19,47,67,78,82,89,91,94,110,127,131,145,170,190,198,202,203,224,256,300,323,358,361,366,397,431,432,439,442,446,447,469,513,518,526,542,544,562,596,600,612,623,628,652,667,683,684,703,733,746,750,761,845,847,861,868,877,880,917,935,961,986,988,
83,185,282,338,372,391,753,885,
84,675,904,
77,85,143,219,251,595,704,
86,
87,121,528,659,686,849,
75,88,230,278,319,320,779,
19,67,78,82,89,91,94,110,127,131,145,170,190,198,202,203,224,256,300,358,366,397,432,439,442,446,447,469,518,542,544,562,596,600,612,628,652,667,683,703,733,746,847,868,877,880,917,935,961,986,988,
54,90,242,463,505,522,783,789,825,913,
19,47,49,67,78,82,89,91,94,110,127,131,145,151,170,190,198,202,203,224,256,301,323,358,397,432,439,446,447,468,513,518,526,542,544,562,623,628,684,733,746,829,877,880,917,935,961,
92,722,
93,176,208,288,390,440,470,585,591,658,664,823,
19,25,47,67,78,82,89,91,94,110,131,145,190,198,202,203,224,256,300,301,323,358,397,432,439,446,447,468,513,518,526,542,544,600,612,623,628,684,733,746,829,847,877,880,917,935,961,
70,95,118,122,134,307,328,354,429,601,619,737,763,
96,315,595,898,
69,97,157,158,330,338,441,581,655,745,885,987,
98,
99,387,499,512,593,902,
62,100,280,456,634,
101,380,458,632,671,
36,43,102,114,216,655,677,755,775,851,
103,135,175,252,331,435,815,896,992,
30,104,179,448,457,751,
70,105,118,255,266,354,
41,106,181,360,437,696,773,897,990,
107,
108,
109,
19,47,67,78,82,89,91,94,110,127,131,145,170,190,198,202,203,224,256,300,301,323,358,397,432,439,446,447,468,513,518,526,536,542,544,562,600,612,623,628,684,733,746,829,847,877,880,917,935,961,
111,396,891,
112,
40,113,311,317,417,933,
36,102,114,216,655,677,775,851,
115,146,299,511,551,741,749,884,906,
116,124,194,210,290,299,491,511,616,786,833,846,895,
32,117,148,212,347,427,497,507,534,538,549,561,569,580,663,673,796,805,
95,105,118,122,134,219,255,266,307,354,429,601,619,
119,780,
13,18,120,339,356,615,774,866,921,922,927,971,972,
76,87,121,
70,95,118,122,123,134,197,239,251,328,354,376,384,429,514,530,601,603,619,633,685,704,737,743,
77,122,123,197,219,239,251,376,384,514,530,603,633,685,704,737,743,
116,124,194,210,299,491,616,786,833,846,
125,
48,58,72,126,249,418,438,504,508,533,627,638,654,691,798,820,822,887,931,938,
19,67,82,89,91,110,127,131,145,170,190,198,202,203,232,300,358,397,432,439,447,518,536,542,544,562,612,733,746,828,877,880,917,961,
128,
129,350,374,566,787,
130,380,632,
19,47,67,78,82,89,91,94,110,127,131,145,170,190,198,202,203,224,256,300,301,323,358,397,432,439,446,447,468,513,518,526,536,542,544,562,600,612,623,628,684,733,746,829,847,877,880,917,935,961,
132,151,
133,
70,95,118,122,134,307,328,354,429,601,619,737,763,
103,135,175,252,331,435,896,992,
37,136,185,217,282,410,594,753,903,
137,240,241,392,620,754,987,
138,322,405,479,502,
9,22,47,139,166,233,273,305,313,409,411,513,519,526,527,599,623,646,647,653,750,758,761,770,845,883,888,899,
10,32,140,144,164,388,477,487,528,554,587,659,686,695,759,840,849,989,
141,
142,
3,85,143,367,690,790,843,859,
10,140,144,148,164,221,337,347,487,651,660,673,695,
19,47,67,78,82,89,91,94,110,127,131,145,170,190,198,202,203,224,256,300,301,323,358,361,366,397,431,432,439,442,446,447,468,469,513,518,526,542,544,562,596,600,612,623,628,652,667,683,684,703,733,746,750,761,829,845,847,861,868,877,880,917,935,961,986,988,
115,146,290,299,511,551,741,749,906,
147,245,318,
32,117,144,148,164,337,347,497,507,538,549,561,569,580,651,663,673,695,796,
52,149,438,820,822,
150,919,
49,91,132,151,301,397,446,468,829,877,917,
152,
153,598,
154,357,421,521,522,784,785,850,973,999,
155,606,
156,
37,44,69,97,157,158,206,330,338,371,441,581,655,745,871,885,929,987,
43,69,97,157,158,189,195,241,271,330,338,371,392,441,581,655,745,871,885,929,987,
5,159,182,481,543,724,
160,290,329,541,552,572,665,706,831,895,910,
161,
162,350,374,624,924,945,
163,
10,140,144,148,164,221,337,347,487,651,660,673,695,
165,
9,22,47,139,166,229,233,273,305,313,323,361,409,411,513,519,526,599,623,646,647,684,750,758,761,770,845,883,888,899,
46,167,225,247,340,483,484,791,810,869,914,915,966,996,
168,494,
169,
19,67,82,89,91,110,127,131,145,170,190,198,202,203,232,300,358,397,432,439,447,518,536,542,544,562,612,733,746,828,877,880,917,961,
171,180,237,277,377,378,416,529,531,553,560,588,640,657,680,712,726,739,768,769,803,835,920,943,981,
172,635,
173,332,
174,436,878,985,
103,135,175,252,331,435,896,992,
93,176,208,288,390,440,470,585,591,658,664,823,
177,207,260,295,480,636,969,983,
178,
30,104,179,448,457,751,
171,180,237,277,377,378,416,529,531,553,560,588,640,657,680,712,726,739,768,769,803,835,920,943,981,
41,106,181,360,437,696,773,897,990,
159,182,543,
183,
184,337,347,651,800,878,
37,83,136,185,206,217,282,594,753,885,903,
6,60,186,219,368,383,576,700,926,
28,187,205,215,226,268,287,443,478,498,515,525,535,604,676,679,687,711,740,804,818,844,852,856,965,
188,420,474,644,821,
43,44,69,158,189,195,241,271,371,392,655,871,885,929,987,
19,47,67,78,82,89,91,94,110,127,131,145,170,190,198,202,203,224,256,300,301,323,358,397,432,439,446,447,468,513,518,526,536,542,544,562,600,612,623,628,684,733,746,829,847,877,880,917,935,961,
191,353,385,962,964,
34,192,492,
27,193,212,524,554,586,725,760,795,954,
116,124,194,210,491,616,786,833,846,908,
36,43,158,189,195,241,271,371,392,655,929,987,
196,693,
122,123,197,239,251,376,384,514,530,603,633,685,704,737,743,
19,47,67,78,82,89,91,94,110,127,131,145,170,190,198,202,203,224,256,300,301,323,358,397,432,439,446,447,468,513,518,526,536,542,544,562,600,612,623,628,684,733,746,829,847,877,880,917,935,961,
199,
200,
201,223,283,306,334,460,465,570,668,674,678,729,736,802,832,853,900,937,949,
19,47,67,78,82,89,91,94,110,127,131,145,170,190,198,202,203,224,256,300,323,358,397,432,439,446,447,513,518,526,536,542,544,562,600,612,623,628,684,733,746,847,877,880,917,935,961,
19,47,67,78,82,89,91,94,110,127,131,145,170,190,198,202,203,224,256,300,323,358,397,432,439,446,447,468,513,518,526,536,542,544,562,600,612,623,628,684,733,746,829,847,877,880,917,935,961,
204,
28,187,205,215,226,268,287,443,478,498,515,525,535,604,676,679,687,711,740,804,818,844,852,856,965,
37,44,69,157,185,206,282,338,441,581,745,753,871,885,
177,207,259,260,295,359,405,480,636,969,983,
93,176,208,288,390,440,470,585,
2,23,209,281,296,346,370,386,398,399,423,455,467,489,509,548,661,730,732,764,788,827,837,867,870,947,991,
116,124,194,210,491,616,786,833,846,908,
64,74,211,363,364,
27,76,117,193,212,227,310,419,425,477,497,507,538,549,554,569,580,586,587,686,760,794,795,849,954,
213,
214,351,
28,187,205,215,226,268,287,443,478,498,515,525,535,604,676,679,687,711,740,804,818,844,852,856,965,
102,114,216,677,775,851,
136,185,217,282,594,753,
35,56,218,550,747,808,
6,60,77,85,118,123,186,219,251,255,266,354,429,514,530,576,595,704,926,
72,220,232,316,365,473,536,666,738,828,923,940,
10,144,164,221,453,487,660,695,824,
10,222,250,453,487,660,858,959,
201,223,283,306,334,460,465,570,668,674,678,729,736,802,832,853,900,937,949,
19,25,47,67,78,82,89,91,94,110,131,145,190,198,202,203,224,256,300,301,323,358,397,432,439,446,447,468,513,518,526,542,544,600,612,623,628,684,733,746,829,847,877,880,917,935,961,
46,167,225,247,340,472,483,484,791,810,839,869,914,915,966,996,
28,187,205,215,226,268,287,443,478,498,515,525,535,604,676,679,687,711,740,804,818,844,852,856,965,
27,212,227,310,419,554,586,659,686,840,849,
228,
9,47,166,229,273,313,323,409,411,513,526,623,684,770,888,899,
45,75,88,230,278,319,320,682,779,907,974,
231,
67,127,170,220,232,316,365,473,518,536,562,612,614,666,738,746,813,828,880,923,940,
9,22,47,139,166,233,256,273,305,313,323,361,409,411,513,519,526,527,599,623,646,647,653,684,750,758,761,770,845,861,883,888,899,
234,355,375,901,
235,
61,236,
171,180,237,277,377,378,416,529,531,553,560,588,640,657,680,712,726,739,768,769,803,835,920,943,981,
238,
122,123,197,239,251,376,384,514,530,603,633,685,704,737,743,
137,240,402,620,754,
43,44,137,158,189,195,241,271,272,371,392,620,754,929,987,
54,90,242,463,505,522,783,789,825,913,
4,243,246,464,506,728,958,
244,892,953,
147,245,318,
4,243,246,464,506,728,958,
46,167,225,247,340,472,483,484,791,810,839,869,914,915,966,996,
248,302,812,
21,48,52,58,126,249,418,438,504,508,533,627,638,654,798,820,822,887,931,938,
222,250,495,858,959,
77,85,122,123,197,219,239,251,376,384,514,530,595,603,633,685,704,737,743,
103,135,175,252,331,435,896,992,
253,
254,427,534,622,805,
7,105,118,219,255,266,354,429,564,
19,25,47,67,78,82,89,91,94,110,131,145,190,198,202,203,224,233,256,300,323,358,361,366,397,431,432,439,442,446,447,469,513,518,526,542,544,596,599,600,612,623,628,652,667,683,684,703,733,746,750,761,845,847,861,868,877,880,917,935,961,986,988,
257,341,387,456,499,512,593,767,862,
258,
207,259,285,359,405,502,636,948,983,
177,207,260,480,636,969,983,
8,261,267,
262,
263,547,575,602,765,
53,264,830,859,
265,994,995,
7,105,118,219,255,266,354,429,564,
8,261,267,
28,187,205,215,226,268,287,443,478,498,515,525,535,604,676,679,687,711,740,804,818,844,852,856,965,
269,396,626,
270,
43,44,69,158,189,195,241,271,371,392,655,871,885,929,987,
241,272,
9,22,47,139,166,229,233,273,305,313,323,361,409,411,513,519,526,599,623,646,647,653,684,750,758,761,770,845,883,888,899,
11,18,274,291,339,352,615,721,774,866,921,922,
275,459,
276,
171,180,237,277,377,378,416,529,531,553,560,588,640,657,680,712,726,739,768,769,803,835,920,943,981,
75,88,230,278,320,779,
48,72,279,691,
62,100,280,341,387,456,634,862,
2,23,209,281,296,346,370,386,398,399,423,455,467,489,509,548,661,730,732,764,788,827,837,867,870,947,991,
37,83,136,185,206,217,282,594,753,885,903,
201,223,283,306,334,460,465,570,668,674,678,729,736,802,832,853,900,937,949,
284,304,
259,285,405,502,948,
286,
28,187,205,215,226,268,287,443,478,498,515,525,535,604,676,679,687,711,740,804,818,844,852,856,965,
93,176,208,288,390,440,470,585,591,658,664,823,
289,475,894,
116,146,160,290,299,511,552,572,786,833,846,895,
64,274,291,352,364,422,
17,292,349,363,450,771,
293,
294,656,766,
177,207,295,480,636,969,983,
2,23,209,281,296,346,370,386,398,399,423,455,467,489,509,548,661,730,732,764,788,827,837,867,870,947,991,
297,
298,
115,116,124,146,290,299,511,625,749,786,833,846,895,
19,67,78,82,89,94,110,127,131,145,170,190,198,202,203,224,256,300,358,432,439,446,447,518,536,542,544,562,600,612,628,733,746,828,847,877,880,935,961,
49,91,94,110,131,145,151,190,198,224,301,358,397,432,446,447,468,518,542,544,562,733,829,877,917,935,
248,302,446,812,
81,303,
284,304,
9,22,47,139,166,233,273,305,313,323,361,409,411,513,519,526,599,623,646,647,684,750,758,761,770,845,883,888,899,
201,223,283,306,334,460,465,570,668,674,678,729,736,802,832,853,900,937,949,
70,95,118,134,307,328,354,429,583,601,619,763,
308,872,
309,
27,76,212,227,310,419,477,554,586,587,659,686,759,795,840,849,
40,113,311,317,417,933,967,
312,
9,22,47,139,166,229,233,273,305,313,409,411,513,519,526,599,623,646,647,750,758,761,770,845,883,888,899,
314,
96,315,898,
220,232,316,365,473,536,666,738,828,923,940,
40,113,311,317,417,933,
147,245,318,
75,88,230,319,320,556,836,974,
45,75,88,230,278,319,320,682,779,907,974,
33,321,406,537,573,582,707,
138,322,479,502,
9,19,22,25,47,78,82,91,94,110,131,145,166,190,198,202,203,224,229,233,256,273,305,323,336,358,361,366,397,409,431,432,439,442,445,446,447,469,513,519,526,542,544,596,599,600,623,628,646,647,652,667,683,684,703,733,750,758,761,770,845,847,861,877,883,888,899,917,935,961,986,988,
324,
325,
326,
327,
70,95,122,134,307,328,372,391,583,601,619,763,
160,329,541,552,571,572,650,665,706,831,881,910,
69,97,157,158,330,338,441,581,655,745,885,987,
103,135,175,252,331,435,896,992,
173,332,
333,
201,223,283,306,334,460,465,570,668,674,678,729,736,802,832,853,900,937,949,
335,
25,78,323,336,445,446,526,600,628,684,935,
32,144,148,164,184,337,347,538,561,569,651,663,673,695,796,
37,44,69,83,97,157,158,206,330,338,371,441,581,745,871,885,
13,18,120,274,339,352,356,615,774,866,921,922,927,971,972,
46,64,167,225,247,340,483,484,791,810,869,914,915,966,996,
62,257,280,341,387,456,499,510,593,634,767,862,
342,757,
343,855,
344,
345,
2,23,209,281,296,346,370,386,398,399,423,455,467,489,509,548,661,730,732,764,788,827,837,867,870,947,991,
32,117,144,148,164,184,337,347,497,507,538,561,569,651,663,673,695,796,
348,
17,292,349,422,444,771,
129,162,350,374,787,924,945,
214,351,
11,18,274,291,339,352,615,721,774,799,866,921,922,
191,353,546,964,
70,95,105,118,122,134,219,255,266,307,354,429,601,619,
234,355,375,901,
13,18,120,339,356,615,774,866,921,922,927,971,972,
154,357,421,521,522,784,785,973,999,
19,47,67,78,82,89,91,94,110,127,131,145,170,190,198,202,203,224,256,300,301,323,358,397,432,439,446,447,468,513,518,526,542,544,562,600,612,623,628,684,733,746,750,829,847,877,880,917,935,961,
207,259,359,648,
21,41,106,181,360,437,696,773,897,990,
9,19,22,47,78,82,145,166,233,256,273,305,323,361,366,409,431,432,442,469,513,519,526,596,599,623,646,647,652,667,683,684,703,750,758,761,845,861,888,899,986,988,
362,909,
64,74,211,292,363,364,450,
64,211,291,363,364,422,450,
220,232,316,365,439,473,536,562,666,738,828,923,940,
19,47,78,82,89,145,256,323,361,366,431,432,442,469,513,526,596,623,652,667,683,684,703,750,761,845,861,868,986,988,
3,143,367,690,699,782,843,860,
186,368,383,700,
369,433,812,
2,23,209,281,296,346,370,386,398,399,423,455,467,489,509,548,661,730,732,764,788,827,837,867,870,947,991,
43,44,69,157,158,189,195,241,271,338,371,392,441,581,655,745,871,885,929,987,
83,328,372,391,583,
373,702,
129,162,350,374,787,924,945,
234,355,375,901,
122,123,197,239,251,376,384,514,530,603,633,685,704,737,743,
171,180,237,277,377,378,416,529,531,553,560,588,624,640,657,680,712,726,739,768,769,803,835,920,943,946,981,
171,180,237,277,377,378,416,529,531,553,560,588,640,657,680,712,726,739,768,769,803,835,920,943,981,
379,
101,130,380,458,632,671,
381,697,873,
30,382,457,
186,368,383,700,
122,123,197,239,251,376,384,514,530,603,633,685,704,737,743,
191,385,962,964,
2,23,209,281,296,346,370,386,398,399,423,455,467,489,509,548,661,730,732,764,788,827,837,867,870,947,991,
62,99,257,280,341,387,456,499,510,512,593,634,767,862,
32,140,388,477,528,587,659,759,989,
389,
93,176,208,288,390,440,470,585,591,658,664,823,
83,328,372,391,583,
43,137,158,189,195,241,271,371,392,655,929,987,
393,
394,
395,
111,269,396,626,
19,47,49,67,78,82,89,91,94,110,127,131,145,151,170,190,198,202,203,224,256,301,323,358,397,432,439,446,447,468,513,518,526,542,544,562,612,623,628,684,733,746,829,847,877,880,917,935,961,
2,23,209,281,296,346,370,386,398,399,423,455,467,489,509,548,661,730,732,764,788,827,837,867,870,947,991,
2,23,209,281,296,346,370,386,398,399,423,455,467,489,509,548,661,730,732,764,788,827,837,867,870,947,991,
400,
401,503,
240,402,620,
403,
404,942,
138,207,259,285,405,502,636,948,
33,321,406,573,705,707,800,848,
407,
7,408,564,
9,22,47,139,166,229,233,273,305,313,323,361,409,411,513,519,526,599,623,646,647,684,750,758,761,770,845,883,888,899,
136,410,517,639,903,
9,22,47,139,166,229,233,273,305,313,409,411,513,519,526,599,623,646,647,750,758,761,770,845,883,888,899,
412,
413,505,522,
414,
415,
171,180,237,277,377,378,416,529,531,553,560,588,640,657,680,712,726,739,768,769,803,835,920,943,981,
40,113,311,317,417,933,
58,126,249,418,438,504,508,627,638,654,798,820,822,887,931,938,
27,76,212,227,310,419,554,586,659,686,840,849,
188,420,474,644,821,
154,357,421,521,522,784,785,973,999,
17,64,291,349,364,422,444,
2,23,209,281,296,346,370,386,398,399,423,455,467,489,509,548,661,730,732,764,788,827,837,867,870,947,991,
424,
27,212,425,524,554,586,725,760,795,
426,
117,254,427,497,507,534,569,622,805,
428,
70,95,118,122,134,219,255,266,307,354,429,601,619,763,
430,532,
19,47,78,82,145,256,323,361,366,431,432,442,469,513,526,544,596,623,652,667,683,684,703,750,761,845,861,961,986,988,
19,47,67,78,82,89,91,94,110,127,131,145,170,190,198,202,203,224,256,300,301,323,358,361,366,397,431,432,439,442,446,447,468,469,513,518,526,542,544,562,596,600,612,623,628,652,667,683,684,703,733,746,750,761,829,845,847,861,868,877,880,917,935,961,986,988,
369,433,
434,
103,135,175,252,331,435,815,896,992,
174,436,985,
21,41,106,181,360,437,696,773,897,990,
21,48,52,58,126,149,249,418,438,504,508,533,627,638,654,798,820,822,887,931,938,
19,47,67,78,82,89,91,94,110,127,131,145,170,190,198,202,203,224,256,300,323,358,365,397,432,439,446,447,513,518,526,536,542,544,562,600,612,623,628,684,733,746,847,877,880,917,935,961,
93,176,208,288,390,440,470,585,591,658,664,823,
37,44,69,97,157,158,206,330,338,371,441,581,655,745,871,885,929,
19,47,78,82,89,145,256,323,361,366,431,432,442,469,513,526,596,623,652,667,683,684,703,750,761,845,861,868,986,988,
28,187,205,215,226,268,287,443,478,498,515,525,535,604,676,679,687,711,740,804,818,844,852,856,965,
17,349,422,444,771,
25,78,323,336,445,446,518,600,628,684,935,
19,25,47,49,67,78,82,89,91,94,110,131,145,151,190,198,202,203,224,256,300,301,302,323,336,358,397,432,439,445,446,447,468,513,518,526,542,544,600,612,623,628,684,733,746,829,847,877,880,917,935,961,
19,47,67,78,82,89,91,94,110,127,131,145,170,190,198,202,203,224,256,300,301,323,358,397,432,439,446,447,468,513,518,526,536,542,544,562,600,612,623,628,684,733,746,829,847,877,880,917,935,961,
30,104,179,448,457,751,
449,
64,292,363,364,450,
451,
452,690,830,859,
10,221,222,453,487,660,858,959,
454,
2,23,209,281,296,346,370,386,398,399,423,455,467,489,509,548,661,730,732,764,788,827,837,867,870,947,991,
62,100,257,280,341,387,456,634,752,767,862,
30,104,179,382,448,457,751,
101,380,458,632,671,
275,459,
201,223,283,306,334,460,465,570,668,674,678,729,736,802,832,853,900,937,949,
461,681,
462,
54,90,242,463,505,522,783,789,825,913,
4,243,246,464,506,728,958,
201,223,283,306,334,460,465,570,668,674,678,729,736,802,832,853,900,937,949,
466,756,
2,23,209,281,296,346,370,386,398,399,423,455,467,489,509,548,661,730,732,764,788,827,837,867,870,947,991,
49,78,91,94,110,131,145,151,190,198,203,224,301,358,397,432,446,447,468,518,542,544,562,623,733,829,877,917,935,961,
19,47,78,82,89,145,256,323,361,366,431,432,442,469,513,526,544,596,623,652,667,683,684,703,750,761,845,861,868,961,986,988,
93,176,208,288,390,440,470,585,
471,597,925,964,
46,225,247,472,483,484,810,839,966,996,
220,232,316,365,473,536,614,666,738,813,828,923,940,
188,420,474,644,821,
289,475,894,
476,
32,140,212,310,388,477,528,554,587,659,686,759,840,849,989,
28,187,205,215,226,268,287,443,478,498,515,525,535,604,676,679,687,711,740,804,818,844,852,856,965,
138,322,479,502,
177,207,260,295,480,636,969,983,
5,159,481,543,724,
482,841,842,
46,167,225,247,340,472,483,484,791,810,839,869,914,915,966,996,
46,167,225,247,340,472,483,484,791,810,839,869,914,915,966,996,
485,
486,701,
10,140,144,164,221,222,453,487,660,695,858,959,
42,488,578,998,
2,23,209,281,296,346,370,386,398,399,423,455,467,489,509,548,661,730,732,764,788,827,837,867,870,947,991,
490,
116,124,194,210,491,616,786,908,
192,492,
493,
168,494,734,
250,495,
496,778,
32,117,148,212,347,427,497,507,534,538,549,561,569,580,651,663,673,796,805,
28,187,205,215,226,268,287,443,478,498,515,525,535,604,676,679,687,711,740,804,818,844,852,856,965,
99,257,341,387,499,512,593,767,862,
500,
501,946,
138,259,285,322,405,479,502,948,
401,503,
48,52,58,126,249,418,438,504,508,533,627,638,654,798,820,822,887,931,938,
54,90,242,413,463,505,521,522,783,789,825,913,
4,243,246,464,506,516,728,958,
32,117,148,212,347,427,497,507,534,538,549,561,569,580,663,673,796,805,
52,58,126,249,418,438,504,508,533,627,638,654,798,820,822,887,931,938,
2,23,209,281,296,346,370,386,398,399,423,455,467,489,509,548,661,730,732,764,788,827,837,867,870,947,991,
341,387,510,862,
115,116,146,290,299,511,551,741,749,786,833,846,
99,257,387,499,512,593,767,862,902,
9,19,22,25,47,78,82,91,94,110,131,139,145,166,190,198,202,203,224,229,233,256,273,305,313,323,358,361,366,397,409,411,431,432,439,442,446,447,469,513,519,526,542,544,596,599,623,628,646,647,652,667,683,684,703,733,750,758,761,770,845,847,861,877,883,888,899,917,935,961,986,988,
122,123,197,219,239,251,376,384,514,530,603,633,685,704,737,743,
28,187,205,215,226,268,287,443,478,498,515,525,535,604,676,679,687,711,740,804,818,844,852,856,965,
506,516,
410,517,639,834,
19,25,49,67,78,82,89,91,94,110,127,131,145,170,190,198,202,203,224,232,256,300,301,358,397,432,439,445,446,447,468,518,542,544,562,600,612,628,733,746,829,847,877,880,917,935,961,
9,22,47,139,166,233,273,305,313,323,361,409,411,513,519,526,599,623,646,647,653,684,750,758,761,770,845,883,888,899,
520,
154,357,421,505,521,522,784,785,973,999,
54,90,154,242,357,413,421,463,505,521,522,783,784,785,789,825,850,913,973,999,
523,
193,425,524,589,725,760,795,954,
28,187,205,215,226,268,287,443,478,498,515,525,535,604,676,679,687,711,740,804,818,844,852,856,965,
9,19,22,25,47,78,82,91,94,110,131,139,145,166,190,198,202,203,224,229,233,256,273,305,313,323,336,358,361,366,397,409,411,431,432,439,442,446,447,469,513,519,526,542,544,596,599,623,628,646,647,652,667,683,684,703,733,750,758,761,770,845,847,861,877,883,888,899,917,935,961,986,988,
139,233,527,528,599,653,
32,87,140,388,477,527,528,587,659,759,849,989,
171,180,237,277,377,378,416,529,531,553,560,588,640,657,680,712,726,739,768,769,803,835,920,943,981,
77,122,123,197,219,239,251,376,384,514,530,603,633,685,704,737,743,
171,180,237,277,377,378,416,529,531,553,560,588,640,657,680,712,726,739,768,769,803,835,920,943,981,
430,532,
48,58,72,126,249,438,504,508,533,627,638,654,691,798,820,822,887,938,
117,254,427,497,507,534,569,622,805,
28,187,205,215,226,268,287,443,478,498,515,525,535,604,676,679,687,711,740,804,818,844,852,856,965,
67,110,127,131,170,190,198,202,203,220,232,300,316,365,439,447,473,536,542,562,612,614,666,733,738,746,828,880,923,940,
33,321,537,573,582,707,
32,117,148,212,337,347,497,507,538,549,561,569,580,651,663,673,796,805,
539,944,
540,699,860,
160,329,541,552,571,572,665,706,831,881,910,
19,47,67,78,82,89,91,94,110,127,131,145,170,190,198,202,203,224,256,300,301,323,358,397,432,439,446,447,468,513,518,526,536,542,544,562,600,612,623,628,684,733,746,829,847,877,880,917,935,961,
5,159,182,481,543,724,
19,47,67,78,82,89,91,94,110,127,131,145,170,190,198,202,203,224,256,300,301,323,358,397,431,432,439,446,447,468,469,513,518,526,542,544,562,600,612,623,628,684,703,733,746,750,761,829,845,847,877,880,917,935,961,988,
545,
353,546,
263,547,575,602,765,913,
2,23,209,281,296,346,370,386,398,399,423,455,467,489,509,548,661,730,732,764,788,827,837,867,870,947,991,
117,148,212,497,507,538,549,569,580,673,794,796,805,
35,56,218,550,747,
115,146,511,551,741,749,884,906,
160,290,329,541,552,572,665,706,831,846,895,910,
171,180,237,277,377,378,416,529,531,553,560,588,640,657,680,712,726,739,768,769,803,835,920,943,981,
27,76,140,193,212,227,310,419,425,477,554,586,587,659,686,725,759,760,795,840,849,954,
555,
75,319,556,836,
557,
558,
559,838,
171,180,237,277,377,378,416,529,531,553,560,588,640,657,680,712,726,739,768,769,803,835,920,943,981,
32,117,148,337,347,497,507,538,561,569,651,663,673,805,
19,67,82,89,91,110,127,131,145,170,190,198,202,203,232,300,301,358,365,397,432,439,447,468,518,536,542,544,562,612,733,746,828,829,877,880,917,961,
563,
7,255,266,408,564,
565,
129,566,787,
567,
568,
32,117,148,212,337,347,427,497,507,534,538,549,561,569,580,651,663,673,796,805,
201,223,283,306,334,460,465,570,668,674,678,729,736,802,832,853,900,937,949,
329,541,571,650,665,881,
160,290,329,541,552,572,665,706,831,895,910,
33,321,406,537,573,705,707,
574,
263,547,575,602,765,913,
6,60,186,219,576,926,
577,
42,488,578,998,
42,579,864,949,
117,148,212,497,507,538,549,569,580,673,794,796,805,
37,44,69,97,157,158,206,330,338,371,441,581,655,745,871,885,929,
321,537,582,
70,307,328,372,391,583,763,
584,
93,176,208,288,390,440,470,585,591,658,664,823,
27,76,193,212,227,310,419,425,554,586,659,686,725,760,795,840,849,954,
27,32,140,212,310,388,477,528,554,587,659,686,759,840,849,989,
171,180,237,277,377,378,416,529,531,553,560,588,640,657,680,712,726,739,768,769,803,835,920,943,981,
80,524,589,
590,941,
93,176,288,390,440,585,591,658,664,823,
592,
99,257,341,387,499,512,593,767,862,
136,185,217,282,594,753,
77,85,96,219,251,595,704,
19,47,78,82,89,145,256,323,361,366,431,432,442,469,513,526,596,623,652,667,683,684,703,750,761,845,861,868,986,988,
471,597,925,930,
55,153,598,611,
9,22,47,139,166,233,256,273,305,313,323,361,409,411,513,519,526,527,599,623,646,647,653,684,750,758,761,770,845,861,883,888,899,
19,25,67,78,82,89,94,110,131,145,190,198,202,203,224,256,300,323,336,358,432,439,445,446,447,518,542,544,600,612,628,684,733,746,847,877,880,935,961,
70,95,118,122,134,307,328,354,429,601,619,737,763,
263,547,575,602,656,765,
122,123,197,239,251,376,384,514,530,603,633,685,704,737,743,
28,187,205,215,226,268,287,443,478,498,515,525,535,604,676,679,687,711,740,804,818,844,852,856,965,
605,702,
155,606,962,
607,
608,706,910,
609,
610,977,
55,598,611,
19,67,78,82,89,94,110,127,131,145,170,190,198,202,203,224,232,256,300,358,397,432,439,446,447,518,536,542,544,562,600,612,628,733,746,828,847,877,880,935,961,
613,
49,232,473,536,614,813,828,923,940,
13,18,120,274,339,352,356,615,774,866,921,922,927,971,972,
116,124,194,210,491,616,786,833,908,
617,
618,
70,95,118,122,134,307,328,354,429,601,619,737,
137,240,241,402,620,754,
621,
254,427,534,622,805,
9,19,22,47,78,82,91,94,110,131,139,145,166,190,198,202,203,224,229,233,256,273,305,313,323,358,361,366,397,409,411,431,432,439,442,446,447,468,469,513,519,526,542,544,596,599,623,628,646,647,652,667,683,684,703,733,750,758,761,770,829,845,847,861,877,883,888,899,917,935,961,986,988,
162,377,624,680,924,946,
299,625,893,895,
269,396,626,
48,52,58,126,249,418,438,504,508,533,627,638,654,798,820,822,887,931,938,
19,25,47,67,78,82,89,91,94,110,131,145,190,198,202,203,224,256,300,323,336,358,397,432,439,445,446,447,513,518,526,542,544,600,612,623,628,684,733,746,847,877,917,935,961,
629,
630,
631,
101,130,380,458,632,671,911,
122,123,197,239,251,376,384,514,530,603,633,685,704,737,743,
62,100,280,341,387,456,634,862,
172,635,
177,207,259,260,295,405,480,636,969,983,
637,
48,58,126,249,418,438,504,508,533,627,638,654,798,820,822,887,931,938,
410,517,639,834,
171,180,237,277,377,378,416,529,531,553,560,588,640,657,680,712,726,739,768,769,803,835,920,943,981,
641,
642,
643,
188,420,474,644,821,
645,
9,22,47,139,166,233,273,305,313,323,361,409,411,513,519,526,599,623,646,647,653,684,750,758,761,770,845,883,888,899,
9,22,47,139,166,233,273,305,313,323,361,409,411,513,519,526,599,623,646,647,684,750,758,761,770,845,883,888,899,
359,648,
649,826,
329,571,650,665,881,
32,144,148,164,184,337,347,497,538,561,569,651,663,673,695,796,
19,47,78,82,89,145,256,323,361,366,431,432,442,469,513,526,596,623,652,667,683,684,703,750,761,845,861,868,986,988,
9,139,233,273,519,527,599,646,653,758,
21,48,52,58,126,249,418,438,504,508,533,627,638,654,798,820,822,887,931,938,
36,43,69,97,102,114,157,158,189,195,271,330,371,392,441,581,655,745,755,851,871,885,929,987,
294,602,656,
171,180,237,277,377,378,416,529,531,553,560,588,640,657,680,712,726,739,768,769,803,835,920,943,981,
93,176,288,390,440,585,591,658,664,823,
27,76,87,140,227,310,388,419,477,528,554,586,587,659,686,759,840,849,
10,144,164,221,222,453,487,660,695,
2,23,209,281,296,346,370,386,398,399,423,455,467,489,509,548,661,730,732,764,788,827,837,867,870,947,991,
662,
32,117,148,337,347,497,507,538,561,569,651,663,673,805,
93,176,288,390,440,585,591,658,664,823,
160,329,541,552,571,572,650,665,706,831,881,910,
72,220,232,316,365,473,536,666,738,828,923,940,
19,47,78,82,89,145,256,323,361,366,431,432,442,469,513,526,596,623,652,667,683,684,703,750,761,845,861,868,986,988,
201,223,283,306,334,460,465,570,668,674,678,729,736,802,832,853,900,937,949,
669,
670,
101,380,458,632,671,
672,
32,117,144,148,164,337,347,497,507,538,549,561,569,580,651,663,673,695,796,
201,223,283,306,334,460,465,570,668,674,678,729,736,802,832,853,900,937,949,
84,675,904,
28,187,205,215,226,268,287,443,478,498,515,525,535,604,676,679,687,711,740,804,818,844,852,856,965,
102,114,216,677,775,851,
201,223,283,306,334,460,465,570,668,674,678,729,736,802,832,853,900,937,949,
28,187,205,215,226,268,287,443,478,498,515,525,535,604,676,679,687,711,740,804,818,844,852,856,965,
171,180,237,277,377,378,416,529,531,553,560,588,624,640,657,680,712,726,739,768,769,803,835,920,943,946,981,
461,681,
45,230,320,682,779,907,974,
19,47,78,82,89,145,256,323,361,366,431,432,442,469,513,526,596,623,652,667,683,684,703,750,761,845,861,868,986,988,
9,19,22,25,47,67,78,82,91,94,110,131,145,166,190,198,202,203,224,229,233,256,273,305,323,336,358,361,366,397,409,431,432,439,442,445,446,447,469,513,519,526,542,544,596,599,600,623,628,646,647,652,667,683,684,703,733,750,758,761,770,845,847,861,877,888,899,917,935,961,986,988,
122,123,197,239,251,376,384,514,530,603,633,685,704,737,743,
27,76,87,140,212,227,310,419,477,554,586,587,659,686,759,795,840,849,
28,187,205,215,226,268,287,443,478,498,515,525,535,604,676,679,687,711,740,804,818,844,852,856,965,
688,
689,
3,143,367,452,690,790,830,843,859,
48,72,126,279,533,691,
692,
196,693,
694,930,
10,140,144,148,164,221,337,347,487,651,660,673,695,
41,106,181,360,437,696,773,897,990,
381,697,873,
698,
3,367,540,699,782,860,
186,368,383,700,
486,701,
373,605,702,
19,47,78,82,89,145,256,323,361,366,431,432,442,469,513,526,544,596,623,652,667,683,684,703,750,761,845,861,868,961,986,988,
77,85,122,123,197,219,239,251,376,384,514,530,595,603,633,685,704,737,743,
33,406,573,705,707,800,848,985,
160,329,541,552,572,608,665,706,831,895,910,
33,321,406,537,573,705,707,800,848,985,
708,
709,
710,
28,187,205,215,226,268,287,443,478,498,515,525,535,604,676,679,687,711,740,804,818,844,852,856,965,
171,180,237,277,377,378,416,529,531,553,560,588,640,657,680,712,726,739,768,769,803,835,920,943,981,
713,
714,
715,
716,
717,
718,
719,
720,
274,352,721,799,866,921,
92,722,
723,
5,159,481,543,724,
27,193,425,524,554,586,725,760,795,849,954,
171,180,237,277,377,378,416,529,531,553,560,588,640,657,680,712,726,739,768,769,803,835,920,943,981,
727,
4,243,246,464,506,728,958,
201,223,283,306,334,460,465,570,668,674,678,729,736,802,832,853,900,937,949,
2,23,209,281,296,346,370,386,398,399,423,455,467,489,509,548,661,730,732,764,788,827,837,867,870,947,991,
731,
2,23,209,281,296,346,370,386,398,399,423,455,467,489,509,548,661,730,732,764,788,827,837,867,870,947,991,
19,47,67,78,82,89,91,94,110,127,131,145,170,190,198,202,203,224,256,300,301,323,358,397,432,439,446,447,468,513,518,526,536,542,544,562,600,612,623,628,684,733,746,829,847,877,880,917,935,961,
494,734,
735,
201,223,283,306,334,460,465,570,668,674,678,729,736,802,832,853,900,937,949,
95,122,123,134,197,239,251,376,384,514,530,601,603,619,633,685,704,737,743,
220,232,316,365,473,536,666,738,828,923,940,
171,180,237,277,377,378,416,529,531,553,560,588,640,657,680,712,726,739,768,769,803,835,920,943,981,
28,187,205,215,226,268,287,443,478,498,515,525,535,604,676,679,687,711,740,804,818,844,852,856,965,
115,146,511,551,741,749,884,906,
742,
122,123,197,239,251,376,384,514,530,603,633,685,704,737,743,
744,
37,44,69,97,157,158,206,330,338,371,441,581,655,745,871,885,929,
19,67,78,82,89,91,94,110,127,131,145,170,190,198,202,203,224,232,256,300,358,397,432,439,446,447,518,536,542,544,562,600,612,628,733,746,828,847,877,880,917,935,961,
35,56,218,550,747,808,
748,
115,146,299,511,551,741,749,884,906,
9,19,22,47,78,82,139,145,166,233,256,273,305,313,323,358,361,366,409,411,431,432,442,469,513,519,526,544,596,599,623,646,647,652,667,683,684,703,750,758,761,770,845,861,883,888,899,961,986,988,
30,104,179,448,457,751,
456,752,
37,83,136,185,206,217,282,594,753,885,903,
137,240,241,620,754,
36,102,655,755,775,851,
466,756,
15,342,757,
9,22,47,139,166,233,273,305,313,323,361,409,411,513,519,526,599,623,646,647,653,684,750,758,761,770,845,883,888,899,
32,140,310,388,477,528,554,587,659,686,759,840,849,989,
27,193,212,425,524,554,586,725,760,795,954,
9,19,22,47,78,82,139,145,166,233,256,273,305,313,323,361,366,409,411,431,432,442,469,513,519,526,544,596,599,623,646,647,652,667,683,684,703,750,758,761,770,845,861,883,888,899,961,986,988,
762,
70,95,134,307,328,429,583,601,763,
2,23,209,281,296,346,370,386,398,399,423,455,467,489,509,548,661,730,732,764,788,827,837,867,870,947,991,
263,547,575,602,765,913,
294,766,
257,341,387,456,499,512,593,767,862,
171,180,237,277,377,378,416,529,531,553,560,588,640,657,680,712,726,739,768,769,803,835,920,943,981,
171,180,237,277,377,378,416,529,531,553,560,588,640,657,680,712,726,739,768,769,803,835,920,943,981,
9,22,47,139,166,229,233,273,305,313,323,409,411,513,519,526,599,623,646,647,684,750,758,761,770,845,883,888,899,
17,59,292,349,444,771,
772,
41,106,181,360,437,696,773,897,990,
11,18,120,274,339,352,356,615,774,866,921,922,927,971,972,
36,102,114,216,677,755,775,851,
776,
777,
496,778,
45,88,230,278,320,682,779,907,974,
119,780,
781,875,
3,367,699,782,843,860,
54,90,242,463,505,522,783,789,825,913,
154,357,421,521,522,784,785,973,999,
154,357,421,521,522,784,785,973,999,
116,124,194,210,290,299,491,511,616,786,833,846,895,
129,350,374,566,787,945,
2,23,209,281,296,346,370,386,398,399,423,455,467,489,509,548,661,730,732,764,788,827,837,867,870,947,991,
54,90,242,463,505,522,783,789,825,913,
3,143,690,790,843,
46,167,225,247,340,483,484,791,810,839,869,914,915,966,996,
14,792,941,
793,
212,549,580,794,796,
27,76,193,212,310,425,524,554,586,686,725,760,795,849,954,
117,148,337,347,497,507,538,549,569,580,651,673,794,796,
0,797,
21,48,52,58,126,249,418,438,504,508,533,627,638,654,798,820,822,887,931,938,
352,721,799,866,921,
33,184,406,705,707,800,848,878,985,
801,
201,223,283,306,334,460,465,570,668,674,678,729,736,802,832,853,900,937,949,
171,180,237,277,377,378,416,529,531,553,560,588,640,657,680,712,726,739,768,769,803,835,920,943,981,
28,187,205,215,226,268,287,443,478,498,515,525,535,604,676,679,687,711,740,804,818,844,852,856,965,
32,117,254,427,497,507,534,538,549,561,569,580,622,663,805,
806,
807,
56,218,747,808,
809,
46,167,225,247,340,472,483,484,791,810,839,869,914,915,966,996,
20,811,
49,248,302,369,812,
49,232,473,614,813,828,923,
814,
103,435,815,
816,
817,997,
28,187,205,215,226,268,287,443,478,498,515,525,535,604,676,679,687,711,740,804,818,844,852,856,965,
819,
21,48,52,58,126,149,249,418,438,504,508,533,627,638,654,798,820,822,887,931,938,
188,420,474,644,821,
21,52,58,126,149,249,418,438,504,508,533,627,638,654,798,820,822,887,931,938,
93,176,288,390,440,585,591,658,664,823,
221,824,
54,90,242,463,505,522,783,789,825,913,
649,826,
2,23,209,281,296,346,370,386,398,399,423,455,467,489,509,548,661,730,732,764,788,827,837,867,870,947,991,
67,127,170,220,232,300,316,365,473,536,562,612,614,666,738,746,813,828,880,923,940,
49,78,91,94,110,131,145,151,190,198,203,224,301,358,397,432,446,447,468,518,542,544,562,623,733,829,877,917,935,961,
53,264,452,690,830,859,
160,329,541,552,572,665,706,831,895,910,
201,223,283,306,334,460,465,570,668,674,678,729,736,802,832,853,900,937,949,
116,124,194,210,290,299,511,616,786,833,846,895,
517,639,834,
171,180,237,277,377,378,416,529,531,553,560,588,640,657,680,712,726,739,768,769,803,835,920,943,981,
75,319,556,836,
2,23,209,281,296,346,370,386,398,399,423,455,467,489,509,548,661,730,732,764,788,827,837,867,870,947,991,
559,838,
46,225,247,472,483,484,791,810,839,966,996,
27,76,140,227,310,419,477,554,586,587,659,686,759,840,849,
482,841,842,
482,841,842,
3,143,367,690,782,790,843,860,
28,187,205,215,226,268,287,443,478,498,515,525,535,604,676,679,687,711,740,804,818,844,852,856,965,
9,19,22,47,78,82,139,145,166,233,256,273,305,313,323,361,366,409,411,431,432,442,469,513,519,526,544,596,599,623,646,647,652,667,683,684,703,750,758,761,770,845,861,883,888,899,961,986,988,
116,124,194,210,290,299,511,552,786,833,846,895,
19,25,47,67,78,82,89,94,110,131,145,190,198,202,203,224,256,300,323,358,397,432,439,446,447,513,518,526,542,544,600,612,623,628,684,733,746,847,877,880,935,961,
33,406,705,707,800,848,878,
27,76,87,140,212,227,310,419,477,528,554,586,587,659,686,725,759,795,840,849,
154,522,850,
36,43,102,114,216,655,677,755,775,851,
28,187,205,215,226,268,287,443,478,498,515,525,535,604,676,679,687,711,740,804,818,844,852,856,965,
201,223,283,306,334,460,465,570,668,674,678,729,736,802,832,853,900,937,949,
854,
343,855,
28,187,205,215,226,268,287,443,478,498,515,525,535,604,676,679,687,711,740,804,818,844,852,856,965,
857,
10,222,250,453,487,858,959,
53,143,264,452,690,830,859,
3,367,540,699,782,843,860,
19,47,78,82,145,233,256,323,361,366,431,432,442,469,513,526,596,599,623,652,667,683,684,703,750,761,845,861,986,988,
62,257,280,341,387,456,499,510,512,593,634,767,862,
863,
42,579,864,949,
865,
11,18,120,274,339,352,356,615,721,774,799,866,921,922,927,936,971,972,
2,23,209,281,296,346,370,386,398,399,423,455,467,489,509,548,661,730,732,764,788,827,837,867,870,947,991,
19,78,82,89,145,256,366,432,442,469,596,652,667,683,703,868,986,988,
46,64,167,225,247,340,483,484,791,810,869,914,915,966,996,
2,23,209,281,296,346,370,386,398,399,423,455,467,489,509,548,661,730,732,764,788,827,837,867,870,947,991,
37,44,69,157,158,189,206,271,338,371,441,581,655,745,871,885,929,987,
308,872,
381,697,873,
874,
781,875,
876,
19,47,49,67,78,82,89,91,94,110,127,131,145,151,170,190,198,202,203,224,256,300,301,323,358,397,432,439,446,447,468,513,518,526,542,544,562,600,612,623,628,684,733,746,829,847,877,880,917,935,961,
174,184,800,848,878,985,
879,
19,67,78,82,89,91,94,110,127,131,145,170,190,198,202,203,224,232,256,300,358,397,432,439,446,447,518,536,542,544,562,600,612,733,746,828,847,877,880,917,961,
329,541,571,650,665,881,
882,
9,22,47,139,166,233,273,305,313,323,409,411,513,519,526,599,623,646,647,750,758,761,770,845,883,888,899,
115,551,741,749,884,906,
37,44,69,83,97,157,158,185,189,206,271,282,330,338,371,441,581,655,745,753,871,885,929,
886,
58,126,249,418,438,504,508,533,627,638,654,798,820,822,887,931,938,
9,22,47,139,166,229,233,273,305,313,323,361,409,411,513,519,526,599,623,646,647,684,750,758,761,770,845,883,888,899,
889,
890,
111,891,
244,892,953,
625,893,
289,475,894,
116,160,290,299,552,572,625,706,786,831,833,846,895,910,
103,135,175,252,331,435,896,992,
40,41,106,181,360,437,696,773,897,990,
96,315,898,
9,22,47,139,166,229,233,273,305,313,323,361,409,411,513,519,526,599,623,646,647,684,750,758,761,770,845,883,888,899,
201,223,283,306,334,460,465,570,668,674,678,729,736,802,832,853,900,937,949,
234,355,375,901,
99,512,902,
37,136,185,282,410,753,903,
84,675,904,
905,
115,146,551,741,749,884,906,
45,230,320,682,779,907,974,
194,210,491,616,908,
362,909,
160,329,541,552,572,608,665,706,831,895,910,
632,911,
912,
54,90,242,463,505,522,547,575,765,783,789,825,913,
46,167,225,247,340,483,484,791,810,869,914,915,966,996,
46,167,225,247,340,483,484,791,810,869,914,915,966,996,
916,
19,47,49,67,78,82,89,91,94,110,127,131,145,151,170,190,198,202,203,224,256,301,323,358,397,432,439,446,447,468,513,518,526,542,544,562,623,628,684,733,746,829,877,880,917,935,961,
918,
150,919,
171,180,237,277,377,378,416,529,531,553,560,588,640,657,680,712,726,739,768,769,803,835,920,943,981,
13,18,120,274,339,352,356,615,721,774,799,866,921,922,927,936,971,972,
13,18,120,274,339,352,356,615,774,866,921,922,927,971,972,
220,232,316,365,473,536,614,666,738,813,828,923,940,
162,350,374,624,924,945,
471,597,925,
6,60,186,219,576,926,
13,18,120,339,356,615,774,866,921,922,927,971,972,
26,928,
43,44,69,157,158,189,195,241,271,371,392,441,581,655,745,871,885,929,987,
597,694,930,
52,58,126,249,418,438,504,508,627,638,654,798,820,822,887,931,938,
932,
40,113,311,317,417,933,
934,941,
19,25,47,67,78,82,89,91,94,110,131,145,190,198,202,203,224,256,300,301,323,336,358,397,432,439,445,446,447,468,513,518,526,542,544,600,612,623,628,684,733,746,829,847,877,917,935,961,
866,921,936,971,
201,223,283,306,334,460,465,570,668,674,678,729,736,802,832,853,900,937,949,
21,48,52,58,126,249,418,438,504,508,533,627,638,654,798,820,822,887,931,938,
939,
220,232,316,365,473,536,614,666,738,828,923,940,
590,792,934,941,
404,942,
171,180,237,277,377,378,416,529,531,553,560,588,640,657,680,712,726,739,768,769,803,835,920,943,981,
539,944,
162,350,374,787,924,945,
377,501,624,680,946,
2,23,209,281,296,346,370,386,398,399,423,455,467,489,509,548,661,730,732,764,788,827,837,867,870,947,991,
259,285,405,502,948,
201,223,283,306,334,460,465,570,579,668,674,678,729,736,802,832,853,864,900,937,949,
950,
951,
952,
244,892,953,
27,193,212,524,554,586,725,760,795,954,
955,
956,
957,
4,243,246,464,506,728,958,
10,222,250,453,487,858,959,
960,
19,47,67,78,82,89,91,94,110,127,131,145,170,190,198,202,203,224,256,300,323,358,397,431,432,439,446,447,468,469,513,518,526,542,544,562,600,612,623,628,684,703,733,746,750,761,829,845,847,877,880,917,935,961,988,
191,385,606,962,964,
963,
191,353,385,471,962,964,
28,187,205,215,226,268,287,443,478,498,515,525,535,604,676,679,687,711,740,804,818,844,852,856,965,
46,167,225,247,340,472,483,484,791,810,839,869,914,915,966,996,
311,967,
968,
177,207,260,295,480,636,969,983,
970,
13,18,120,339,356,615,774,866,921,922,927,936,971,
18,120,339,356,615,774,866,921,922,927,972,
154,357,421,521,522,784,785,973,999,
45,75,230,319,320,682,779,907,974,
975,
976,
610,977,
978,
979,
980,
171,180,237,277,377,378,416,529,531,553,560,588,640,657,680,712,726,739,768,769,803,835,920,943,981,
982,
177,207,259,260,295,480,636,969,983,
984,
174,436,705,707,800,878,985,
19,47,78,82,89,145,256,323,361,366,431,432,442,469,513,526,596,623,652,667,683,684,703,750,761,845,861,868,986,988,
43,97,137,157,158,189,195,241,271,330,371,392,655,871,929,987,
19,47,78,82,89,145,256,323,361,366,431,432,442,469,513,526,544,596,623,652,667,683,684,703,750,761,845,861,868,961,986,988,
32,140,388,477,528,587,759,989,
41,106,181,360,437,696,773,897,990,
2,23,209,281,296,346,370,386,398,399,423,455,467,489,509,548,661,730,732,764,788,827,837,867,870,947,991,
103,135,175,252,331,435,896,992,
993,
265,994,
265,995,
46,167,225,247,340,472,483,484,791,810,839,869,914,915,966,996,
817,997,
2,42,488,578,998,
154,357,421,521,522,784,785,973,999,
